<?xml version="1.0" encoding="UTF-8"?>
<svg xmlns="http://www.w3.org/2000/svg" xmlns:xlink="http://www.w3.org/1999/xlink" width="275.36pt" height="244.64pt" viewBox="0 0 275.36 244.64" version="1.1">
<defs>
<g>
<symbol overflow="visible" id="glyph0-0">
<path style="stroke:none;" d=""/>
</symbol>
<symbol overflow="visible" id="glyph0-1">
<path style="stroke:none;" d="M 8.359375 28.078125 C 8.359375 28.03125 8.34375 28 8.3125 27.96875 C 7.875 27.53125 7.078125 26.734375 6.28125 25.4375 C 4.34375 22.359375 3.484375 18.46875 3.484375 13.859375 C 3.484375 10.65625 3.90625 6.5 5.875 2.9375 C 6.828125 1.25 7.8125 0.265625 8.328125 -0.265625 C 8.359375 -0.296875 8.359375 -0.328125 8.359375 -0.359375 C 8.359375 -0.484375 8.28125 -0.484375 8.109375 -0.484375 C 7.953125 -0.484375 7.921875 -0.484375 7.75 -0.296875 C 3.734375 3.34375 2.484375 8.828125 2.484375 13.859375 C 2.484375 18.546875 3.5625 23.28125 6.59375 26.859375 C 6.84375 27.140625 7.296875 27.625 7.78125 28.046875 C 7.921875 28.203125 7.953125 28.203125 8.109375 28.203125 C 8.28125 28.203125 8.359375 28.203125 8.359375 28.078125 Z M 8.359375 28.078125 "/>
</symbol>
<symbol overflow="visible" id="glyph0-2">
<path style="stroke:none;" d="M 6.296875 13.859375 C 6.296875 9.171875 5.21875 4.4375 2.1875 0.859375 C 1.953125 0.578125 1.5 0.09375 1 -0.328125 C 0.859375 -0.484375 0.84375 -0.484375 0.671875 -0.484375 C 0.53125 -0.484375 0.421875 -0.484375 0.421875 -0.359375 C 0.421875 -0.3125 0.46875 -0.265625 0.484375 -0.234375 C 0.90625 0.1875 1.703125 0.984375 2.515625 2.28125 C 4.4375 5.359375 5.3125 9.25 5.3125 13.859375 C 5.3125 17.0625 4.875 21.21875 2.90625 24.78125 C 1.953125 26.46875 0.96875 27.46875 0.46875 27.96875 C 0.4375 28 0.421875 28.046875 0.421875 28.078125 C 0.421875 28.203125 0.53125 28.203125 0.671875 28.203125 C 0.84375 28.203125 0.859375 28.203125 1.046875 28.015625 C 5.046875 24.375 6.296875 18.890625 6.296875 13.859375 Z M 6.296875 13.859375 "/>
</symbol>
<symbol overflow="visible" id="glyph1-0">
<path style="stroke:none;" d=""/>
</symbol>
<symbol overflow="visible" id="glyph1-1">
<path style="stroke:none;" d="M 1.53125 -6.84375 C 2.046875 -6.6875 2.46875 -6.671875 2.59375 -6.671875 C 3.9375 -6.671875 4.8125 -7.65625 4.8125 -7.828125 C 4.8125 -7.875 4.78125 -7.9375 4.703125 -7.9375 C 4.6875 -7.9375 4.65625 -7.9375 4.546875 -7.890625 C 3.890625 -7.609375 3.3125 -7.5625 3 -7.5625 C 2.21875 -7.5625 1.65625 -7.8125 1.421875 -7.90625 C 1.34375 -7.9375 1.3125 -7.9375 1.296875 -7.9375 C 1.203125 -7.9375 1.203125 -7.859375 1.203125 -7.671875 L 1.203125 -4.125 C 1.203125 -3.90625 1.203125 -3.84375 1.34375 -3.84375 C 1.40625 -3.84375 1.421875 -3.84375 1.546875 -4 C 1.875 -4.484375 2.4375 -4.765625 3.03125 -4.765625 C 3.671875 -4.765625 3.984375 -4.1875 4.078125 -3.984375 C 4.28125 -3.515625 4.296875 -2.921875 4.296875 -2.46875 C 4.296875 -2.015625 4.296875 -1.34375 3.953125 -0.796875 C 3.6875 -0.375 3.234375 -0.078125 2.703125 -0.078125 C 1.90625 -0.078125 1.140625 -0.609375 0.921875 -1.484375 C 0.984375 -1.453125 1.046875 -1.453125 1.109375 -1.453125 C 1.3125 -1.453125 1.640625 -1.5625 1.640625 -1.96875 C 1.640625 -2.3125 1.40625 -2.5 1.109375 -2.5 C 0.890625 -2.5 0.578125 -2.390625 0.578125 -1.921875 C 0.578125 -0.90625 1.40625 0.25 2.71875 0.25 C 4.078125 0.25 5.265625 -0.890625 5.265625 -2.40625 C 5.265625 -3.828125 4.296875 -5.015625 3.046875 -5.015625 C 2.359375 -5.015625 1.84375 -4.703125 1.53125 -4.375 Z M 1.53125 -6.84375 "/>
</symbol>
<symbol overflow="visible" id="glyph1-2">
<path style="stroke:none;" d="M 4.3125 -7.78125 C 4.3125 -8.015625 4.3125 -8.0625 4.140625 -8.0625 C 4.046875 -8.0625 4.015625 -8.0625 3.921875 -7.921875 L 0.328125 -2.34375 L 0.328125 -2 L 3.46875 -2 L 3.46875 -0.90625 C 3.46875 -0.46875 3.4375 -0.34375 2.5625 -0.34375 L 2.328125 -0.34375 L 2.328125 0 C 2.609375 -0.03125 3.546875 -0.03125 3.890625 -0.03125 C 4.21875 -0.03125 5.171875 -0.03125 5.453125 0 L 5.453125 -0.34375 L 5.21875 -0.34375 C 4.34375 -0.34375 4.3125 -0.46875 4.3125 -0.90625 L 4.3125 -2 L 5.515625 -2 L 5.515625 -2.34375 L 4.3125 -2.34375 Z M 3.53125 -6.84375 L 3.53125 -2.34375 L 0.625 -2.34375 Z M 3.53125 -6.84375 "/>
</symbol>
<symbol overflow="visible" id="glyph1-3">
<path style="stroke:none;" d="M 5.265625 -2.015625 L 5 -2.015625 C 4.953125 -1.8125 4.859375 -1.140625 4.75 -0.953125 C 4.65625 -0.84375 3.984375 -0.84375 3.625 -0.84375 L 1.40625 -0.84375 C 1.734375 -1.125 2.46875 -1.890625 2.765625 -2.171875 C 4.59375 -3.84375 5.265625 -4.46875 5.265625 -5.65625 C 5.265625 -7.03125 4.171875 -7.953125 2.78125 -7.953125 C 1.40625 -7.953125 0.578125 -6.765625 0.578125 -5.734375 C 0.578125 -5.125 1.109375 -5.125 1.140625 -5.125 C 1.40625 -5.125 1.703125 -5.3125 1.703125 -5.6875 C 1.703125 -6.03125 1.484375 -6.25 1.140625 -6.25 C 1.046875 -6.25 1.015625 -6.25 0.984375 -6.234375 C 1.203125 -7.046875 1.859375 -7.609375 2.625 -7.609375 C 3.640625 -7.609375 4.265625 -6.75 4.265625 -5.65625 C 4.265625 -4.640625 3.6875 -3.75 3 -2.984375 L 0.578125 -0.28125 L 0.578125 0 L 4.953125 0 Z M 5.265625 -2.015625 "/>
</symbol>
<symbol overflow="visible" id="glyph1-4">
<path style="stroke:none;" d="M 2.203125 -4.296875 C 2 -4.28125 1.953125 -4.265625 1.953125 -4.15625 C 1.953125 -4.046875 2.015625 -4.046875 2.21875 -4.046875 L 2.765625 -4.046875 C 3.796875 -4.046875 4.25 -3.203125 4.25 -2.0625 C 4.25 -0.484375 3.4375 -0.078125 2.84375 -0.078125 C 2.265625 -0.078125 1.296875 -0.34375 0.9375 -1.140625 C 1.328125 -1.078125 1.671875 -1.296875 1.671875 -1.71875 C 1.671875 -2.0625 1.421875 -2.3125 1.09375 -2.3125 C 0.796875 -2.3125 0.484375 -2.140625 0.484375 -1.6875 C 0.484375 -0.625 1.546875 0.25 2.875 0.25 C 4.296875 0.25 5.359375 -0.84375 5.359375 -2.046875 C 5.359375 -3.140625 4.46875 -4 3.328125 -4.203125 C 4.359375 -4.5 5.03125 -5.375 5.03125 -6.3125 C 5.03125 -7.25 4.046875 -7.953125 2.890625 -7.953125 C 1.703125 -7.953125 0.8125 -7.21875 0.8125 -6.34375 C 0.8125 -5.875 1.1875 -5.765625 1.359375 -5.765625 C 1.609375 -5.765625 1.90625 -5.953125 1.90625 -6.3125 C 1.90625 -6.6875 1.609375 -6.859375 1.34375 -6.859375 C 1.28125 -6.859375 1.25 -6.859375 1.21875 -6.84375 C 1.671875 -7.65625 2.796875 -7.65625 2.859375 -7.65625 C 3.25 -7.65625 4.03125 -7.484375 4.03125 -6.3125 C 4.03125 -6.078125 4 -5.421875 3.640625 -4.90625 C 3.28125 -4.375 2.875 -4.34375 2.5625 -4.328125 Z M 2.203125 -4.296875 "/>
</symbol>
<symbol overflow="visible" id="glyph2-0">
<path style="stroke:none;" d=""/>
</symbol>
<symbol overflow="visible" id="glyph2-1">
<path style="stroke:none;" d="M 7.875 -2.75 C 8.078125 -2.75 8.296875 -2.75 8.296875 -2.984375 C 8.296875 -3.234375 8.078125 -3.234375 7.875 -3.234375 L 1.40625 -3.234375 C 1.203125 -3.234375 0.984375 -3.234375 0.984375 -2.984375 C 0.984375 -2.75 1.203125 -2.75 1.40625 -2.75 Z M 7.875 -2.75 "/>
</symbol>
</g>
<clipPath id="clip1">
  <path d="M 271 129 L 275.359375 129 L 275.359375 133 L 271 133 Z M 271 129 "/>
</clipPath>
<clipPath id="clip2">
  <path d="M 5 17 L 262 17 L 262 244.640625 L 5 244.640625 Z M 5 17 "/>
</clipPath>
</defs>
<g id="surface1">
<path style="fill:none;stroke-width:0.3985;stroke-linecap:butt;stroke-linejoin:miter;stroke:rgb(0%,0%,0%);stroke-opacity:1;stroke-miterlimit:10;" d="M -0.0008125 -90.710625 L -0.0008125 125.566719 " transform="matrix(1,0,0,-1,5.868,131.055)"/>
<path style=" stroke:none;fill-rule:nonzero;fill:rgb(0%,0%,0%);fill-opacity:1;" d="M 5.867188 3.496094 L 4.273438 6.683594 L 5.867188 5.488281 L 7.460938 6.683594 "/>
<path style="fill:none;stroke-width:0.3985;stroke-linecap:butt;stroke-linejoin:miter;stroke:rgb(0%,0%,0%);stroke-opacity:1;stroke-miterlimit:10;" d="M -5.668781 0.0003125 L 267.303875 0.0003125 " transform="matrix(1,0,0,-1,5.868,131.055)"/>
<g clip-path="url(#clip1)" clip-rule="nonzero">
<path style=" stroke:none;fill-rule:nonzero;fill:rgb(0%,0%,0%);fill-opacity:1;" d="M 275.164062 131.054688 L 271.976562 129.460938 L 273.171875 131.054688 L 271.976562 132.648438 "/>
</g>
<g clip-path="url(#clip2)" clip-rule="nonzero">
<path style="fill:none;stroke-width:0.3985;stroke-linecap:butt;stroke-linejoin:miter;stroke:rgb(0%,0%,0%);stroke-opacity:1;stroke-dasharray:0.3985,1.99255;stroke-miterlimit:10;" d="M -0.0008125 -113.386406 L 255.120281 -113.386406 M -0.0008125 -85.03875 L 255.120281 -85.03875 M -0.0008125 -56.695 L 255.120281 -56.695 M -0.0008125 -28.347344 L 255.120281 -28.347344 M -0.0008125 0.0003125 L 255.120281 0.0003125 M -0.0008125 28.347969 L 255.120281 28.347969 M -0.0008125 56.691719 L 255.120281 56.691719 M -0.0008125 85.039375 L 255.120281 85.039375 M -0.0008125 113.379219 L 255.120281 113.379219 M -0.0008125 -113.386406 L -0.0008125 113.387031 M 28.346844 -113.386406 L 28.346844 113.387031 M 56.6945 -113.386406 L 56.6945 113.387031 M 85.042156 -113.386406 L 85.042156 113.387031 M 113.385906 -113.386406 L 113.385906 113.387031 M 141.733563 -113.386406 L 141.733563 113.387031 M 170.081219 -113.386406 L 170.081219 113.387031 M 198.428875 -113.386406 L 198.428875 113.387031 M 226.772625 -113.386406 L 226.772625 113.387031 M 255.112469 -113.386406 L 255.112469 113.387031 " transform="matrix(1,0,0,-1,5.868,131.055)"/>
</g>
<path style="fill:none;stroke-width:0.79701;stroke-linecap:butt;stroke-linejoin:miter;stroke:rgb(0%,0%,0%);stroke-opacity:1;stroke-miterlimit:10;" d="M -0.0008125 0.0003125 L 139.710125 111.769844 " transform="matrix(1,0,0,-1,5.868,131.055)"/>
<path style=" stroke:none;fill-rule:nonzero;fill:rgb(0%,0%,0%);fill-opacity:1;" d="M 147.601562 17.667969 L 143.070312 18.636719 L 145.578125 19.285156 L 145.660156 21.875 "/>
<g style="fill:rgb(23.098755%,21.199036%,31.799316%);fill-opacity:1;">
  <use xlink:href="#glyph0-1" x="151.321" y="3.8"/>
</g>
<g style="fill:rgb(23.098755%,21.199036%,31.799316%);fill-opacity:1;">
  <use xlink:href="#glyph1-1" x="160.122" y="13.483"/>
</g>
<g style="fill:rgb(23.098755%,21.199036%,31.799316%);fill-opacity:1;">
  <use xlink:href="#glyph1-2" x="160.122" y="27.431"/>
</g>
<g style="fill:rgb(23.098755%,21.199036%,31.799316%);fill-opacity:1;">
  <use xlink:href="#glyph0-2" x="165.975" y="3.8"/>
</g>
<path style="fill:none;stroke-width:0.79701;stroke-linecap:butt;stroke-linejoin:miter;stroke:rgb(0%,0%,0%);stroke-opacity:1;stroke-miterlimit:10;" d="M -0.0008125 0.0003125 L 55.257 -82.886406 " transform="matrix(1,0,0,-1,5.868,131.055)"/>
<path style=" stroke:none;fill-rule:nonzero;fill:rgb(0%,0%,0%);fill-opacity:1;" d="M 62.5625 216.09375 L 61.988281 211.496094 L 61.125 213.941406 L 58.539062 213.796875 "/>
<g style="fill:rgb(23.098755%,21.199036%,31.799316%);fill-opacity:1;">
  <use xlink:href="#glyph0-1" x="66.281" y="202.227"/>
</g>
<g style="fill:rgb(23.098755%,21.199036%,31.799316%);fill-opacity:1;">
  <use xlink:href="#glyph1-3" x="79.731" y="211.91"/>
</g>
<g style="fill:rgb(23.098755%,21.199036%,31.799316%);fill-opacity:1;">
  <use xlink:href="#glyph2-1" x="75.082" y="225.858"/>
</g>
<g style="fill:rgb(23.098755%,21.199036%,31.799316%);fill-opacity:1;">
  <use xlink:href="#glyph1-4" x="84.38" y="225.858"/>
</g>
<g style="fill:rgb(23.098755%,21.199036%,31.799316%);fill-opacity:1;">
  <use xlink:href="#glyph0-2" x="90.233" y="202.227"/>
</g>
<path style=" stroke:none;fill-rule:nonzero;fill:rgb(23.136902%,21.174622%,31.765747%);fill-opacity:0.2;" d="M 5.867188 131.054688 L 147.601562 17.667969 L 204.296875 102.707031 L 62.5625 216.09375 Z M 5.867188 131.054688 "/>
<path style="fill:none;stroke-width:0.79701;stroke-linecap:butt;stroke-linejoin:miter;stroke:rgb(0%,0%,0%);stroke-opacity:1;stroke-miterlimit:10;" d="M -0.0008125 0.0003125 L 139.327313 55.730781 " transform="matrix(1,0,0,-1,5.868,131.055)"/>
<path style=" stroke:none;fill-rule:nonzero;fill:rgb(0%,0%,0%);fill-opacity:1;" d="M 147.601562 74.363281 L 142.984375 73.976562 L 145.195312 75.324219 L 144.523438 77.824219 "/>
<g style="fill:rgb(23.098755%,21.199036%,31.799316%);fill-opacity:1;">
  <use xlink:href="#glyph0-1" x="151.321" y="60.493"/>
</g>
<g style="fill:rgb(23.098755%,21.199036%,31.799316%);fill-opacity:1;">
  <use xlink:href="#glyph1-1" x="160.122" y="70.176"/>
</g>
<g style="fill:rgb(23.098755%,21.199036%,31.799316%);fill-opacity:1;">
  <use xlink:href="#glyph1-3" x="160.122" y="84.124"/>
</g>
<g style="fill:rgb(23.098755%,21.199036%,31.799316%);fill-opacity:1;">
  <use xlink:href="#glyph0-2" x="165.975" y="60.493"/>
</g>
<path style="fill:none;stroke-width:0.79701;stroke-linecap:butt;stroke-linejoin:miter;stroke:rgb(0%,0%,0%);stroke-opacity:1;stroke-miterlimit:10;" d="M -0.0008125 0.0003125 L 111.315594 -83.487969 " transform="matrix(1,0,0,-1,5.868,131.055)"/>
<path style=" stroke:none;fill-rule:nonzero;fill:rgb(0%,0%,0%);fill-opacity:1;" d="M 119.253906 216.09375 L 117.183594 211.949219 L 117.183594 214.542969 L 114.695312 215.265625 "/>
<g style="fill:rgb(23.098755%,21.199036%,31.799316%);fill-opacity:1;">
  <use xlink:href="#glyph0-1" x="122.974" y="202.227"/>
</g>
<g style="fill:rgb(23.098755%,21.199036%,31.799316%);fill-opacity:1;">
  <use xlink:href="#glyph1-2" x="136.424" y="211.91"/>
</g>
<g style="fill:rgb(23.098755%,21.199036%,31.799316%);fill-opacity:1;">
  <use xlink:href="#glyph2-1" x="131.775" y="225.858"/>
</g>
<g style="fill:rgb(23.098755%,21.199036%,31.799316%);fill-opacity:1;">
  <use xlink:href="#glyph1-4" x="141.073" y="225.858"/>
</g>
<g style="fill:rgb(23.098755%,21.199036%,31.799316%);fill-opacity:1;">
  <use xlink:href="#glyph0-2" x="146.926" y="202.227"/>
</g>
<path style=" stroke:none;fill-rule:nonzero;fill:rgb(59.606934%,62.353516%,47.840881%);fill-opacity:0.4;" d="M 5.867188 131.054688 L 147.601562 74.363281 L 260.988281 159.402344 L 119.253906 216.09375 Z M 5.867188 131.054688 "/>
</g>
</svg>
