<?xml version="1.0" encoding="UTF-8" standalone="no"?>
<svg
   xmlns:dc="http://purl.org/dc/elements/1.1/"
   xmlns:cc="http://creativecommons.org/ns#"
   xmlns:rdf="http://www.w3.org/1999/02/22-rdf-syntax-ns#"
   xmlns:svg="http://www.w3.org/2000/svg"
   xmlns="http://www.w3.org/2000/svg"
   xmlns:xlink="http://www.w3.org/1999/xlink"
   id="svg427"
   version="1.1"
   viewBox="0 0 194.01025 103.08206"
   height="103.08206pt"
   width="194.01025pt">
  <metadata
     id="metadata431">
    <rdf:RDF>
      <cc:Work
         rdf:about="">
        <dc:format>image/svg+xml</dc:format>
        <dc:type
           rdf:resource="http://purl.org/dc/dcmitype/StillImage" />
      </cc:Work>
    </rdf:RDF>
  </metadata>
  <defs
     id="defs52">
    <g
       id="g50">
      <symbol
         style="overflow:visible"
         id="glyph0-0"
         overflow="visible">
        <path
           id="path2"
           d=""
           style="stroke:none" />
      </symbol>
      <symbol
         style="overflow:visible"
         id="glyph0-1"
         overflow="visible">
        <path
           id="path5"
           d="m 2.9375,-6.375 c 0,-0.25 0,-0.265625 -0.234375,-0.265625 C 2.078125,-6 1.203125,-6 0.890625,-6 v 0.3125 c 0.203125,0 0.78125,0 1.296875,-0.265625 v 5.171875 c 0,0.359375 -0.03125,0.46875 -0.921875,0.46875 h -0.3125 V 0 c 0.34375,-0.03125 1.203125,-0.03125 1.609375,-0.03125 0.390625,0 1.265625,0 1.609375,0.03125 v -0.3125 h -0.3125 c -0.90625,0 -0.921875,-0.109375 -0.921875,-0.46875 z m 0,0"
           style="stroke:none" />
      </symbol>
      <symbol
         style="overflow:visible"
         id="glyph0-2"
         overflow="visible">
        <path
           id="path8"
           d="m 1.265625,-0.765625 1.0625,-1.03125 c 1.546875,-1.375 2.140625,-1.90625 2.140625,-2.90625 0,-1.140625 -0.890625,-1.9375 -2.109375,-1.9375 -1.125,0 -1.859375,0.921875 -1.859375,1.8125 0,0.546875 0.5,0.546875 0.53125,0.546875 0.171875,0 0.515625,-0.109375 0.515625,-0.53125 0,-0.25 -0.1875,-0.515625 -0.53125,-0.515625 -0.078125,0 -0.09375,0 -0.125,0.015625 0.21875,-0.65625 0.765625,-1.015625 1.34375,-1.015625 0.90625,0 1.328125,0.8125 1.328125,1.625 C 3.5625,-3.90625 3.078125,-3.125 2.515625,-2.5 l -1.90625,2.125 C 0.5,-0.265625 0.5,-0.234375 0.5,0 H 4.203125 L 4.46875,-1.734375 H 4.234375 C 4.171875,-1.4375 4.109375,-1 4,-0.84375 3.9375,-0.765625 3.28125,-0.765625 3.0625,-0.765625 Z m 0,0"
           style="stroke:none" />
      </symbol>
      <symbol
         style="overflow:visible"
         id="glyph0-3"
         overflow="visible">
        <path
           id="path11"
           d="m 4.578125,-3.1875 c 0,-0.796875 -0.046875,-1.59375 -0.390625,-2.328125 -0.453125,-0.96875 -1.28125,-1.125 -1.6875,-1.125 -0.609375,0 -1.328125,0.265625 -1.75,1.1875 -0.3125,0.6875 -0.359375,1.46875 -0.359375,2.265625 0,0.75 0.03125,1.640625 0.453125,2.40625 0.421875,0.796875 1.15625,1 1.640625,1 0.53125,0 1.296875,-0.203125 1.734375,-1.15625 0.3125,-0.6875 0.359375,-1.46875 0.359375,-2.25 z M 2.484375,0 C 2.09375,0 1.5,-0.25 1.328125,-1.203125 1.21875,-1.796875 1.21875,-2.71875 1.21875,-3.3125 c 0,-0.640625 0,-1.296875 0.078125,-1.828125 0.1875,-1.1875 0.9375,-1.28125 1.1875,-1.28125 0.328125,0 0.984375,0.1875 1.171875,1.171875 0.109375,0.5625 0.109375,1.3125 0.109375,1.9375 0,0.75 0,1.421875 -0.109375,2.0625 C 3.5,-0.296875 2.9375,0 2.484375,0 Z m 0,0"
           style="stroke:none" />
      </symbol>
      <symbol
         style="overflow:visible"
         id="glyph0-4"
         overflow="visible">
        <path
           id="path14"
           d="m 2.9375,-1.640625 v 0.859375 c 0,0.359375 -0.03125,0.46875 -0.765625,0.46875 H 1.96875 V 0 C 2.375,-0.03125 2.890625,-0.03125 3.3125,-0.03125 c 0.421875,0 0.9375,0 1.359375,0.03125 v -0.3125 h -0.21875 c -0.734375,0 -0.75,-0.109375 -0.75,-0.46875 V -1.640625 H 4.6875 v -0.3125 H 3.703125 v -4.53125 c 0,-0.203125 0,-0.265625 -0.171875,-0.265625 -0.078125,0 -0.109375,0 -0.1875,0.125 l -3.0625,4.671875 v 0.3125 z m 0.046875,-0.3125 H 0.5625 l 2.421875,-3.71875 z m 0,0"
           style="stroke:none" />
      </symbol>
      <symbol
         style="overflow:visible"
         id="glyph0-5"
         overflow="visible">
        <path
           id="path17"
           d="m 4.46875,-2 c 0,-1.1875 -0.8125,-2.1875 -1.890625,-2.1875 -0.46875,0 -0.90625,0.15625 -1.265625,0.515625 V -5.625 c 0.203125,0.0625 0.53125,0.125 0.84375,0.125 1.234375,0 1.9375,-0.90625 1.9375,-1.03125 0,-0.0625 -0.03125,-0.109375 -0.109375,-0.109375 0,0 -0.03125,0 -0.078125,0.03125 C 3.703125,-6.515625 3.21875,-6.3125 2.546875,-6.3125 2.15625,-6.3125 1.6875,-6.390625 1.21875,-6.59375 1.140625,-6.625 1.125,-6.625 1.109375,-6.625 1,-6.625 1,-6.546875 1,-6.390625 V -3.4375 c 0,0.171875 0,0.25 0.140625,0.25 0.078125,0 0.09375,-0.015625 0.140625,-0.078125 C 1.390625,-3.421875 1.75,-3.96875 2.5625,-3.96875 c 0.515625,0 0.765625,0.453125 0.84375,0.640625 0.15625,0.375 0.1875,0.75 0.1875,1.25 0,0.359375 0,0.953125 -0.25,1.375 C 3.109375,-0.3125 2.734375,-0.0625 2.28125,-0.0625 c -0.71875,0 -1.296875,-0.53125 -1.46875,-1.109375 0.03125,0 0.0625,0.015625 0.171875,0.015625 0.328125,0 0.5,-0.25 0.5,-0.484375 0,-0.25 -0.171875,-0.5 -0.5,-0.5 C 0.84375,-2.140625 0.5,-2.0625 0.5,-1.609375 0.5,-0.75 1.1875,0.21875 2.296875,0.21875 3.453125,0.21875 4.46875,-0.734375 4.46875,-2 Z m 0,0"
           style="stroke:none" />
      </symbol>
      <symbol
         style="overflow:visible"
         id="glyph0-6"
         overflow="visible">
        <path
           id="path20"
           d="m 2.890625,-3.515625 c 0.8125,-0.265625 1.390625,-0.953125 1.390625,-1.75 0,-0.8125 -0.875,-1.375 -1.828125,-1.375 -1,0 -1.765625,0.59375 -1.765625,1.359375 0,0.328125 0.21875,0.515625 0.515625,0.515625 0.296875,0 0.5,-0.21875 0.5,-0.515625 0,-0.484375 -0.46875,-0.484375 -0.609375,-0.484375 0.296875,-0.5 0.953125,-0.625 1.3125,-0.625 0.421875,0 0.96875,0.21875 0.96875,1.109375 0,0.125 -0.03125,0.703125 -0.28125,1.140625 C 2.796875,-3.65625 2.453125,-3.625 2.203125,-3.625 2.125,-3.609375 1.890625,-3.59375 1.8125,-3.59375 c -0.078125,0.015625 -0.140625,0.03125 -0.140625,0.125 0,0.109375 0.0625,0.109375 0.234375,0.109375 h 0.4375 c 0.8125,0 1.1875,0.671875 1.1875,1.65625 0,1.359375 -0.6875,1.640625 -1.125,1.640625 -0.4375,0 -1.1875,-0.171875 -1.53125,-0.75 0.34375,0.046875 0.65625,-0.171875 0.65625,-0.546875 0,-0.359375 -0.265625,-0.5625 -0.546875,-0.5625 -0.25,0 -0.5625,0.140625 -0.5625,0.578125 0,0.90625 0.921875,1.5625 2.015625,1.5625 1.21875,0 2.125,-0.90625 2.125,-1.921875 0,-0.8125 -0.640625,-1.59375 -1.671875,-1.8125 z m 0,0"
           style="stroke:none" />
      </symbol>
      <symbol
         style="overflow:visible"
         id="glyph1-0"
         overflow="visible">
        <path
           id="path23"
           d=""
           style="stroke:none" />
      </symbol>
      <symbol
         style="overflow:visible"
         id="glyph1-1"
         overflow="visible">
        <path
           id="path26"
           d="m 6.5625,-2.296875 c 0.171875,0 0.359375,0 0.359375,-0.203125 0,-0.1875 -0.1875,-0.1875 -0.359375,-0.1875 H 1.171875 c -0.171875,0 -0.34375,0 -0.34375,0.1875 0,0.203125 0.171875,0.203125 0.34375,0.203125 z m 0,0"
           style="stroke:none" />
      </symbol>
      <symbol
         style="overflow:visible"
         id="glyph2-0"
         overflow="visible">
        <path
           id="path29"
           d=""
           style="stroke:none" />
      </symbol>
      <symbol
         style="overflow:visible"
         id="glyph2-1"
         overflow="visible">
        <path
           id="path32"
           d="M 3.734375,17.640625 C 3.953125,17.640625 4,17.640625 4,17.5 4.03125,10.515625 4.828125,4.71875 8.328125,-0.15625 c 0.0625,-0.09375 0.0625,-0.109375 0.0625,-0.140625 0,-0.09375 -0.0625,-0.09375 -0.21875,-0.09375 -0.171875,0 -0.1875,0 -0.203125,0.015625 -0.046875,0.03125 -1.3125,1.484375 -2.3125,3.5 -1.3125,2.625 -2.140625,5.640625 -2.515625,9.28125 -0.03125,0.296875 -0.234375,2.375 -0.234375,4.734375 v 0.390625 c 0,0.109375 0.0625,0.109375 0.28125,0.109375 z m 0,0"
           style="stroke:none" />
      </symbol>
      <symbol
         style="overflow:visible"
         id="glyph2-2"
         overflow="visible">
        <path
           id="path35"
           d="M 4,0.171875 C 4,-0.09375 4,-0.09375 3.734375,-0.09375 H 3.1875 c -0.28125,0 -0.28125,0 -0.28125,0.265625 V 5.8125 c 0,0.265625 0,0.265625 0.28125,0.265625 H 3.734375 C 4,6.078125 4,6.078125 4,5.8125 Z m 0,0"
           style="stroke:none" />
      </symbol>
      <symbol
         style="overflow:visible"
         id="glyph2-3"
         overflow="visible">
        <path
           id="path38"
           d="m 3.1875,-0.5 c -0.21875,0 -0.28125,0 -0.28125,0.109375 V 0 c 0,6.09375 1.078125,9.65625 1.390625,10.671875 C 4.96875,12.875 6.078125,15.21875 7.75,17.265625 7.890625,17.453125 7.9375,17.5 7.96875,17.515625 8,17.53125 8,17.53125 8.171875,17.53125 c 0.15625,0 0.21875,0 0.21875,-0.09375 0,-0.01563 0,-0.04687 -0.0625,-0.125 C 5.015625,12.703125 4.015625,7.15625 4,-0.359375 4,-0.5 3.953125,-0.5 3.734375,-0.5 Z m 0,0"
           style="stroke:none" />
      </symbol>
      <symbol
         style="overflow:visible"
         id="glyph2-4"
         overflow="visible">
        <path
           id="path41"
           d="M 5.8125,17.140625 C 5.8125,11.0625 4.71875,7.484375 4.421875,6.484375 3.734375,4.265625 2.625,1.9375 0.96875,-0.125 0.8125,-0.296875 0.78125,-0.34375 0.734375,-0.375 c -0.015625,0 -0.03125,-0.015625 -0.1875,-0.015625 -0.140625,0 -0.234375,0 -0.234375,0.09375 0,0.03125 0,0.046875 0.140625,0.234375 3.46875,4.84375 4.234375,10.8125 4.25,17.5625 0,0.140625 0.0625,0.140625 0.28125,0.140625 H 5.53125 c 0.203125,0 0.265625,0 0.28125,-0.109375 z m 0,0"
           style="stroke:none" />
      </symbol>
      <symbol
         style="overflow:visible"
         id="glyph2-5"
         overflow="visible">
        <path
           id="path44"
           d="M 5.8125,0.171875 C 5.8125,-0.09375 5.796875,-0.09375 5.53125,-0.09375 H 4.984375 c -0.265625,0 -0.28125,0 -0.28125,0.265625 V 5.8125 c 0,0.265625 0.015625,0.265625 0.28125,0.265625 H 5.53125 c 0.265625,0 0.28125,0 0.28125,-0.265625 z m 0,0"
           style="stroke:none" />
      </symbol>
      <symbol
         style="overflow:visible"
         id="glyph2-6"
         overflow="visible">
        <path
           id="path47"
           d="M 5.8125,-0.390625 C 5.796875,-0.5 5.734375,-0.5 5.53125,-0.5 H 4.984375 c -0.21875,0 -0.28125,0 -0.28125,0.140625 0,1.03125 -0.015625,3.40625 -0.265625,5.875 C 3.890625,10.671875 2.578125,14.25 0.390625,17.3125 0.3125,17.390625 0.3125,17.421875 0.3125,17.4375 c 0,0.09375 0.09375,0.09375 0.234375,0.09375 0.15625,0 0.1875,0 0.203125,-0.01563 C 0.78125,17.484375 2.046875,16.03125 3.0625,14.03125 4.375,11.390625 5.203125,8.375 5.578125,4.75 5.609375,4.4375 5.8125,2.359375 5.8125,0 Z m 0,0"
           style="stroke:none" />
      </symbol>
    </g>
  </defs>
  <g
     transform="translate(-158.44925,-123.03122)"
     id="surface1">
    <g
       id="g56"
       style="fill:#000000;fill-opacity:1">
      <use
         height="100%"
         width="100%"
         id="use54"
         y="133.17101"
         x="241.69299"
         xlink:href="#glyph0-1" />
    </g>
    <g
       id="g60"
       style="fill:#000000;fill-opacity:1">
      <use
         height="100%"
         width="100%"
         id="use58"
         y="133.17101"
         x="256.63699"
         xlink:href="#glyph0-2" />
    </g>
    <g
       id="g64"
       style="fill:#000000;fill-opacity:1">
      <use
         height="100%"
         width="100%"
         id="use62"
         y="133.17101"
         x="271.58099"
         xlink:href="#glyph0-1" />
    </g>
    <g
       id="g68"
       style="fill:#000000;fill-opacity:1">
      <use
         height="100%"
         width="100%"
         id="use66"
         y="133.17101"
         x="286.526"
         xlink:href="#glyph1-1" />
    </g>
    <g
       id="g72"
       style="fill:#000000;fill-opacity:1">
      <use
         height="100%"
         width="100%"
         id="use70"
         y="133.17101"
         x="294.27399"
         xlink:href="#glyph0-1" />
    </g>
    <g
       id="g76"
       style="fill:#000000;fill-opacity:1">
      <use
         height="100%"
         width="100%"
         id="use74"
         y="133.17101"
         x="309.21799"
         xlink:href="#glyph1-1" />
    </g>
    <g
       id="g80"
       style="fill:#000000;fill-opacity:1">
      <use
         height="100%"
         width="100%"
         id="use78"
         y="133.17101"
         x="316.96701"
         xlink:href="#glyph0-1" />
    </g>
    <path
       id="path82"
       transform="matrix(1,0,0,-1,72,72)"
       d="m 255.12891,-64.757812 v 11.957031"
       style="fill:none;stroke:#000000;stroke-width:0.3985;stroke-linecap:butt;stroke-linejoin:miter;stroke-miterlimit:10;stroke-opacity:1" />
    <g
       id="g86"
       style="fill:#000000;fill-opacity:1">
      <use
         height="100%"
         width="100%"
         id="use84"
         y="133.17101"
         x="337.29099"
         xlink:href="#glyph0-3" />
    </g>
    <g
       id="g90"
       style="fill:#000000;fill-opacity:1">
      <use
         height="100%"
         width="100%"
         id="use88"
         y="145.12601"
         x="241.69299"
         xlink:href="#glyph0-3" />
    </g>
    <g
       id="g94"
       style="fill:#000000;fill-opacity:1">
      <use
         height="100%"
         width="100%"
         id="use92"
         y="145.12601"
         x="256.63699"
         xlink:href="#glyph0-3" />
    </g>
    <g
       id="g98"
       style="fill:#000000;fill-opacity:1">
      <use
         height="100%"
         width="100%"
         id="use96"
         y="145.12601"
         x="271.58099"
         xlink:href="#glyph0-2" />
    </g>
    <g
       id="g102"
       style="fill:#000000;fill-opacity:1">
      <use
         height="100%"
         width="100%"
         id="use100"
         y="145.12601"
         x="294.27399"
         xlink:href="#glyph0-1" />
    </g>
    <g
       id="g106"
       style="fill:#000000;fill-opacity:1">
      <use
         height="100%"
         width="100%"
         id="use104"
         y="145.12601"
         x="316.96701"
         xlink:href="#glyph0-1" />
    </g>
    <path
       id="path108"
       transform="matrix(1,0,0,-1,72,72)"
       d="m 255.12891,-76.710938 v 11.953126"
       style="fill:none;stroke:#000000;stroke-width:0.3985;stroke-linecap:butt;stroke-linejoin:miter;stroke-miterlimit:10;stroke-opacity:1" />
    <g
       id="g112"
       style="fill:#000000;fill-opacity:1">
      <use
         height="100%"
         width="100%"
         id="use110"
         y="145.12601"
         x="337.29099"
         xlink:href="#glyph0-4" />
    </g>
    <g
       id="g116"
       style="fill:#000000;fill-opacity:1">
      <use
         height="100%"
         width="100%"
         id="use114"
         y="157.08099"
         x="241.69299"
         xlink:href="#glyph0-3" />
    </g>
    <g
       id="g120"
       style="fill:#000000;fill-opacity:1">
      <use
         height="100%"
         width="100%"
         id="use118"
         y="157.08099"
         x="256.63699"
         xlink:href="#glyph0-3" />
    </g>
    <g
       id="g124"
       style="fill:#000000;fill-opacity:1">
      <use
         height="100%"
         width="100%"
         id="use122"
         y="157.08099"
         x="271.58099"
         xlink:href="#glyph0-2" />
    </g>
    <g
       id="g128"
       style="fill:#000000;fill-opacity:1">
      <use
         height="100%"
         width="100%"
         id="use126"
         y="157.08099"
         x="294.27399"
         xlink:href="#glyph0-2" />
    </g>
    <g
       id="g132"
       style="fill:#000000;fill-opacity:1">
      <use
         height="100%"
         width="100%"
         id="use130"
         y="157.08099"
         x="316.96701"
         xlink:href="#glyph0-1" />
    </g>
    <path
       id="path134"
       transform="matrix(1,0,0,-1,72,72)"
       d="m 255.12891,-88.667969 v 11.957031"
       style="fill:none;stroke:#000000;stroke-width:0.3985;stroke-linecap:butt;stroke-linejoin:miter;stroke-miterlimit:10;stroke-opacity:1" />
    <g
       id="g138"
       style="fill:#000000;fill-opacity:1">
      <use
         height="100%"
         width="100%"
         id="use136"
         y="157.08099"
         x="337.29099"
         xlink:href="#glyph0-5" />
    </g>
    <g
       id="g142"
       style="fill:#000000;fill-opacity:1">
      <use
         height="100%"
         width="100%"
         id="use140"
         y="169.036"
         x="241.69299"
         xlink:href="#glyph0-3" />
    </g>
    <g
       id="g146"
       style="fill:#000000;fill-opacity:1">
      <use
         height="100%"
         width="100%"
         id="use144"
         y="169.036"
         x="256.63699"
         xlink:href="#glyph0-6" />
    </g>
    <g
       id="g150"
       style="fill:#000000;fill-opacity:1">
      <use
         height="100%"
         width="100%"
         id="use148"
         y="169.036"
         x="271.58099"
         xlink:href="#glyph0-1" />
    </g>
    <g
       id="g154"
       style="fill:#000000;fill-opacity:1">
      <use
         height="100%"
         width="100%"
         id="use152"
         y="169.036"
         x="294.27399"
         xlink:href="#glyph0-2" />
    </g>
    <g
       id="g158"
       style="fill:#000000;fill-opacity:1">
      <use
         height="100%"
         width="100%"
         id="use156"
         y="169.036"
         x="316.96701"
         xlink:href="#glyph0-6" />
    </g>
    <path
       id="path160"
       transform="matrix(1,0,0,-1,72,72)"
       d="m 255.12891,-100.62109 v 11.953121"
       style="fill:none;stroke:#000000;stroke-width:0.3985;stroke-linecap:butt;stroke-linejoin:miter;stroke-miterlimit:10;stroke-opacity:1" />
    <g
       id="g166"
       style="fill:#000000;fill-opacity:1">
      <use
         height="100%"
         width="100%"
         id="use162"
         y="169.036"
         x="332.31"
         xlink:href="#glyph0-1" />
      <use
         height="100%"
         width="100%"
         id="use164"
         y="169.036"
         x="337.29129"
         xlink:href="#glyph0-4" />
    </g>
    <g
       id="g170"
       style="fill:#000000;fill-opacity:1">
      <use
         height="100%"
         width="100%"
         id="use168"
         y="186.661"
         x="168.63699"
         xlink:href="#glyph0-1" />
    </g>
    <g
       id="g174"
       style="fill:#000000;fill-opacity:1">
      <use
         height="100%"
         width="100%"
         id="use172"
         y="186.661"
         x="183.58099"
         xlink:href="#glyph0-3" />
    </g>
    <g
       id="g178"
       style="fill:#000000;fill-opacity:1">
      <use
         height="100%"
         width="100%"
         id="use176"
         y="186.661"
         x="198.52499"
         xlink:href="#glyph0-3" />
    </g>
    <g
       id="g182"
       style="fill:#000000;fill-opacity:1">
      <use
         height="100%"
         width="100%"
         id="use180"
         y="186.661"
         x="213.46899"
         xlink:href="#glyph0-3" />
    </g>
    <g
       id="g186"
       style="fill:#000000;fill-opacity:1">
      <use
         height="100%"
         width="100%"
         id="use184"
         y="186.661"
         x="241.69299"
         xlink:href="#glyph0-1" />
    </g>
    <g
       id="g190"
       style="fill:#000000;fill-opacity:1">
      <use
         height="100%"
         width="100%"
         id="use188"
         y="186.661"
         x="256.63699"
         xlink:href="#glyph0-2" />
    </g>
    <g
       id="g194"
       style="fill:#000000;fill-opacity:1">
      <use
         height="100%"
         width="100%"
         id="use192"
         y="186.661"
         x="271.58099"
         xlink:href="#glyph0-1" />
    </g>
    <g
       id="g198"
       style="fill:#000000;fill-opacity:1">
      <use
         height="100%"
         width="100%"
         id="use196"
         y="186.661"
         x="286.526"
         xlink:href="#glyph1-1" />
    </g>
    <g
       id="g202"
       style="fill:#000000;fill-opacity:1">
      <use
         height="100%"
         width="100%"
         id="use200"
         y="186.661"
         x="294.27399"
         xlink:href="#glyph0-1" />
    </g>
    <g
       id="g206"
       style="fill:#000000;fill-opacity:1">
      <use
         height="100%"
         width="100%"
         id="use204"
         y="186.661"
         x="309.21799"
         xlink:href="#glyph1-1" />
    </g>
    <g
       id="g210"
       style="fill:#000000;fill-opacity:1">
      <use
         height="100%"
         width="100%"
         id="use208"
         y="186.661"
         x="316.96701"
         xlink:href="#glyph0-1" />
    </g>
    <path
       id="path212"
       transform="matrix(1,0,0,-1,72,72)"
       d="m 255.12891,-118.24609 v 11.95312"
       style="fill:none;stroke:#000000;stroke-width:0.3985;stroke-linecap:butt;stroke-linejoin:miter;stroke-miterlimit:10;stroke-opacity:1" />
    <g
       id="g216"
       style="fill:#000000;fill-opacity:1">
      <use
         height="100%"
         width="100%"
         id="use214"
         y="186.661"
         x="337.29099"
         xlink:href="#glyph0-3" />
    </g>
    <g
       id="g220"
       style="fill:#000000;fill-opacity:1">
      <use
         height="100%"
         width="100%"
         id="use218"
         y="198.616"
         x="168.63699"
         xlink:href="#glyph0-3" />
    </g>
    <g
       id="g224"
       style="fill:#000000;fill-opacity:1">
      <use
         height="100%"
         width="100%"
         id="use222"
         y="198.616"
         x="183.58099"
         xlink:href="#glyph0-3" />
    </g>
    <g
       id="g228"
       style="fill:#000000;fill-opacity:1">
      <use
         height="100%"
         width="100%"
         id="use226"
         y="198.616"
         x="198.52499"
         xlink:href="#glyph0-3" />
    </g>
    <g
       id="g232"
       style="fill:#000000;fill-opacity:1">
      <use
         height="100%"
         width="100%"
         id="use230"
         y="198.616"
         x="213.46899"
         xlink:href="#glyph0-1" />
    </g>
    <g
       id="g236"
       style="fill:#000000;fill-opacity:1">
      <use
         height="100%"
         width="100%"
         id="use234"
         y="198.616"
         x="241.69299"
         xlink:href="#glyph0-3" />
    </g>
    <g
       id="g240"
       style="fill:#000000;fill-opacity:1">
      <use
         height="100%"
         width="100%"
         id="use238"
         y="198.616"
         x="256.63699"
         xlink:href="#glyph0-6" />
    </g>
    <g
       id="g244"
       style="fill:#000000;fill-opacity:1">
      <use
         height="100%"
         width="100%"
         id="use242"
         y="198.616"
         x="271.58099"
         xlink:href="#glyph0-1" />
    </g>
    <g
       id="g248"
       style="fill:#000000;fill-opacity:1">
      <use
         height="100%"
         width="100%"
         id="use246"
         y="198.616"
         x="294.27399"
         xlink:href="#glyph0-2" />
    </g>
    <g
       id="g252"
       style="fill:#000000;fill-opacity:1">
      <use
         height="100%"
         width="100%"
         id="use250"
         y="198.616"
         x="316.96701"
         xlink:href="#glyph0-6" />
    </g>
    <path
       id="path254"
       transform="matrix(1,0,0,-1,72,72)"
       d="m 255.12891,-130.20312 v 11.95703"
       style="fill:none;stroke:#000000;stroke-width:0.3985;stroke-linecap:butt;stroke-linejoin:miter;stroke-miterlimit:10;stroke-opacity:1" />
    <g
       id="g260"
       style="fill:#000000;fill-opacity:1">
      <use
         height="100%"
         width="100%"
         id="use256"
         y="198.616"
         x="332.31"
         xlink:href="#glyph0-1" />
      <use
         height="100%"
         width="100%"
         id="use258"
         y="198.616"
         x="337.29129"
         xlink:href="#glyph0-4" />
    </g>
    <g
       id="g264"
       style="fill:#000000;fill-opacity:1">
      <use
         height="100%"
         width="100%"
         id="use262"
         y="210.571"
         x="168.63699"
         xlink:href="#glyph0-3" />
    </g>
    <g
       id="g268"
       style="fill:#000000;fill-opacity:1">
      <use
         height="100%"
         width="100%"
         id="use266"
         y="210.571"
         x="183.58099"
         xlink:href="#glyph0-3" />
    </g>
    <g
       id="g272"
       style="fill:#000000;fill-opacity:1">
      <use
         height="100%"
         width="100%"
         id="use270"
         y="210.571"
         x="198.52499"
         xlink:href="#glyph0-1" />
    </g>
    <g
       id="g276"
       style="fill:#000000;fill-opacity:1">
      <use
         height="100%"
         width="100%"
         id="use274"
         y="210.571"
         x="213.46899"
         xlink:href="#glyph0-3" />
    </g>
    <g
       id="g280"
       style="fill:#000000;fill-opacity:1">
      <use
         height="100%"
         width="100%"
         id="use278"
         y="210.571"
         x="241.69299"
         xlink:href="#glyph0-3" />
    </g>
    <g
       id="g284"
       style="fill:#000000;fill-opacity:1">
      <use
         height="100%"
         width="100%"
         id="use282"
         y="210.571"
         x="256.63699"
         xlink:href="#glyph0-3" />
    </g>
    <g
       id="g288"
       style="fill:#000000;fill-opacity:1">
      <use
         height="100%"
         width="100%"
         id="use286"
         y="210.571"
         x="271.58099"
         xlink:href="#glyph0-2" />
    </g>
    <g
       id="g292"
       style="fill:#000000;fill-opacity:1">
      <use
         height="100%"
         width="100%"
         id="use290"
         y="210.571"
         x="294.27399"
         xlink:href="#glyph0-2" />
    </g>
    <g
       id="g296"
       style="fill:#000000;fill-opacity:1">
      <use
         height="100%"
         width="100%"
         id="use294"
         y="210.571"
         x="316.96701"
         xlink:href="#glyph0-1" />
    </g>
    <path
       id="path298"
       transform="matrix(1,0,0,-1,72,72)"
       d="m 255.12891,-142.15625 v 11.95313"
       style="fill:none;stroke:#000000;stroke-width:0.3985;stroke-linecap:butt;stroke-linejoin:miter;stroke-miterlimit:10;stroke-opacity:1" />
    <g
       id="g302"
       style="fill:#000000;fill-opacity:1">
      <use
         height="100%"
         width="100%"
         id="use300"
         y="210.571"
         x="337.29099"
         xlink:href="#glyph0-5" />
    </g>
    <g
       id="g306"
       style="fill:#000000;fill-opacity:1">
      <use
         height="100%"
         width="100%"
         id="use304"
         y="222.526"
         x="168.63699"
         xlink:href="#glyph0-3" />
    </g>
    <g
       id="g310"
       style="fill:#000000;fill-opacity:1">
      <use
         height="100%"
         width="100%"
         id="use308"
         y="222.526"
         x="183.58099"
         xlink:href="#glyph0-1" />
    </g>
    <g
       id="g314"
       style="fill:#000000;fill-opacity:1">
      <use
         height="100%"
         width="100%"
         id="use312"
         y="222.526"
         x="198.52499"
         xlink:href="#glyph0-3" />
    </g>
    <g
       id="g318"
       style="fill:#000000;fill-opacity:1">
      <use
         height="100%"
         width="100%"
         id="use316"
         y="222.526"
         x="213.46899"
         xlink:href="#glyph0-3" />
    </g>
    <g
       id="g322"
       style="fill:#000000;fill-opacity:1">
      <use
         height="100%"
         width="100%"
         id="use320"
         y="222.526"
         x="241.69299"
         xlink:href="#glyph0-3" />
    </g>
    <g
       id="g326"
       style="fill:#000000;fill-opacity:1">
      <use
         height="100%"
         width="100%"
         id="use324"
         y="222.526"
         x="256.63699"
         xlink:href="#glyph0-3" />
    </g>
    <g
       id="g330"
       style="fill:#000000;fill-opacity:1">
      <use
         height="100%"
         width="100%"
         id="use328"
         y="222.526"
         x="271.58099"
         xlink:href="#glyph0-2" />
    </g>
    <g
       id="g334"
       style="fill:#000000;fill-opacity:1">
      <use
         height="100%"
         width="100%"
         id="use332"
         y="222.526"
         x="294.27399"
         xlink:href="#glyph0-1" />
    </g>
    <g
       id="g338"
       style="fill:#000000;fill-opacity:1">
      <use
         height="100%"
         width="100%"
         id="use336"
         y="222.526"
         x="316.96701"
         xlink:href="#glyph0-1" />
    </g>
    <path
       id="path340"
       transform="matrix(1,0,0,-1,72,72)"
       d="m 255.12891,-154.11328 v 11.95703"
       style="fill:none;stroke:#000000;stroke-width:0.3985;stroke-linecap:butt;stroke-linejoin:miter;stroke-miterlimit:10;stroke-opacity:1" />
    <g
       id="g344"
       style="fill:#000000;fill-opacity:1">
      <use
         height="100%"
         width="100%"
         id="use342"
         y="222.526"
         x="337.29099"
         xlink:href="#glyph0-4" />
    </g>
    <g
       id="g348"
       style="fill:#000000;fill-opacity:1">
      <use
         height="100%"
         width="100%"
         id="use346"
         y="180.86"
         x="155.543"
         xlink:href="#glyph2-1" />
    </g>
    <g
       id="g352"
       style="fill:#000000;fill-opacity:1">
      <use
         height="100%"
         width="100%"
         id="use350"
         y="198.394"
         x="155.543"
         xlink:href="#glyph2-2" />
    </g>
    <g
       id="g356"
       style="fill:#000000;fill-opacity:1">
      <use
         height="100%"
         width="100%"
         id="use354"
         y="204.771"
         x="155.543"
         xlink:href="#glyph2-3" />
    </g>
    <g
       id="g360"
       style="fill:#000000;fill-opacity:1">
      <use
         height="100%"
         width="100%"
         id="use358"
         y="180.86"
         x="222.82401"
         xlink:href="#glyph2-4" />
    </g>
    <g
       id="g364"
       style="fill:#000000;fill-opacity:1">
      <use
         height="100%"
         width="100%"
         id="use362"
         y="198.394"
         x="222.82401"
         xlink:href="#glyph2-5" />
    </g>
    <g
       id="g368"
       style="fill:#000000;fill-opacity:1">
      <use
         height="100%"
         width="100%"
         id="use366"
         y="204.771"
         x="222.82401"
         xlink:href="#glyph2-6" />
    </g>
    <g
       id="g372"
       style="fill:#000000;fill-opacity:1">
      <use
         height="100%"
         width="100%"
         id="use370"
         y="127.369"
         x="228.60001"
         xlink:href="#glyph2-1" />
    </g>
    <g
       id="g376"
       style="fill:#000000;fill-opacity:1">
      <use
         height="100%"
         width="100%"
         id="use374"
         y="144.903"
         x="228.60001"
         xlink:href="#glyph2-2" />
    </g>
    <g
       id="g380"
       style="fill:#000000;fill-opacity:1">
      <use
         height="100%"
         width="100%"
         id="use378"
         y="151.28"
         x="228.60001"
         xlink:href="#glyph2-3" />
    </g>
    <g
       id="g384"
       style="fill:#000000;fill-opacity:1">
      <use
         height="100%"
         width="100%"
         id="use382"
         y="127.369"
         x="346.647"
         xlink:href="#glyph2-4" />
    </g>
    <g
       id="g388"
       style="fill:#000000;fill-opacity:1">
      <use
         height="100%"
         width="100%"
         id="use386"
         y="144.903"
         x="346.647"
         xlink:href="#glyph2-5" />
    </g>
    <g
       id="g392"
       style="fill:#000000;fill-opacity:1">
      <use
         height="100%"
         width="100%"
         id="use390"
         y="151.28"
         x="346.647"
         xlink:href="#glyph2-6" />
    </g>
    <g
       id="g396"
       style="fill:#000000;fill-opacity:1">
      <use
         height="100%"
         width="100%"
         id="use394"
         y="180.86"
         x="228.60001"
         xlink:href="#glyph2-1" />
    </g>
    <g
       id="g400"
       style="fill:#000000;fill-opacity:1">
      <use
         height="100%"
         width="100%"
         id="use398"
         y="198.394"
         x="228.60001"
         xlink:href="#glyph2-2" />
    </g>
    <g
       id="g404"
       style="fill:#000000;fill-opacity:1">
      <use
         height="100%"
         width="100%"
         id="use402"
         y="204.771"
         x="228.60001"
         xlink:href="#glyph2-3" />
    </g>
    <g
       id="g408"
       style="fill:#000000;fill-opacity:1">
      <use
         height="100%"
         width="100%"
         id="use406"
         y="180.86"
         x="346.647"
         xlink:href="#glyph2-4" />
    </g>
    <g
       id="g412"
       style="fill:#000000;fill-opacity:1">
      <use
         height="100%"
         width="100%"
         id="use410"
         y="198.394"
         x="346.647"
         xlink:href="#glyph2-5" />
    </g>
    <g
       id="g416"
       style="fill:#000000;fill-opacity:1">
      <use
         height="100%"
         width="100%"
         id="use414"
         y="204.771"
         x="346.647"
         xlink:href="#glyph2-6" />
    </g>
    <path
       id="path418"
       transform="matrix(1,0,0,-1,367.731,177.948)"
       d="m -129.55912,41.256594 h 12.02343 v 13.460937 h -12.02343 z m 0,0"
       style="fill:none;stroke:#ff0000;stroke-width:0.3985;stroke-linecap:butt;stroke-linejoin:miter;stroke-miterlimit:10;stroke-opacity:1" />
    <path
       id="path420"
       transform="matrix(1,0,0,-1,367.731,177.948)"
       d="m -129.55912,-12.231687 h 12.02343 V 1.22925 h -12.02343 z m 0,0"
       style="fill:none;stroke:#0000ff;stroke-width:0.3985;stroke-linecap:butt;stroke-linejoin:miter;stroke-miterlimit:10;stroke-opacity:1" />
    <path
       id="path422"
       transform="matrix(1,0,0,-1,367.731,177.948)"
       d="m -114.61381,-24.188719 h 12.01953 v 13.460938 h -12.01953 z m 0,0"
       style="fill:none;stroke:#ff0000;stroke-width:0.3985;stroke-linecap:butt;stroke-linejoin:miter;stroke-miterlimit:10;stroke-opacity:1" />
    <path
       id="path424"
       transform="matrix(1,0,0,-1,367.731,177.948)"
       d="m -114.61381,5.393313 h 12.01953 v 13.457031 h -12.01953 z m 0,0"
       style="fill:none;stroke:#ff0000;stroke-width:0.3985;stroke-linecap:butt;stroke-linejoin:miter;stroke-miterlimit:10;stroke-opacity:1" />
  </g>
</svg>
