<?xml version="1.0" encoding="UTF-8" standalone="no"?>
<svg
   xmlns:dc="http://purl.org/dc/elements/1.1/"
   xmlns:cc="http://creativecommons.org/ns#"
   xmlns:rdf="http://www.w3.org/1999/02/22-rdf-syntax-ns#"
   xmlns:svg="http://www.w3.org/2000/svg"
   xmlns="http://www.w3.org/2000/svg"
   xmlns:xlink="http://www.w3.org/1999/xlink"
   id="svg824"
   version="1.1"
   viewBox="0 0 324.94711 113.73828"
   height="113.73828pt"
   width="324.94711pt">
  <metadata
     id="metadata828">
    <rdf:RDF>
      <cc:Work
         rdf:about="">
        <dc:format>image/svg+xml</dc:format>
        <dc:type
           rdf:resource="http://purl.org/dc/dcmitype/StillImage" />
      </cc:Work>
    </rdf:RDF>
  </metadata>
  <defs
     id="defs145">
    <g
       id="g143">
      <symbol
         style="overflow:visible"
         id="glyph0-0"
         overflow="visible">
        <path
           id="path2"
           d=""
           style="stroke:none" />
      </symbol>
      <symbol
         style="overflow:visible"
         id="glyph0-1"
         overflow="visible">
        <path
           id="path5"
           d="M 3.734375,17.640625 C 3.953125,17.640625 4,17.640625 4,17.5 4.03125,10.515625 4.828125,4.71875 8.328125,-0.15625 c 0.0625,-0.09375 0.0625,-0.109375 0.0625,-0.140625 0,-0.09375 -0.0625,-0.09375 -0.21875,-0.09375 -0.171875,0 -0.1875,0 -0.203125,0.015625 -0.046875,0.03125 -1.3125,1.484375 -2.3125,3.5 -1.3125,2.625 -2.140625,5.640625 -2.515625,9.28125 -0.03125,0.296875 -0.234375,2.375 -0.234375,4.734375 v 0.390625 c 0,0.109375 0.0625,0.109375 0.28125,0.109375 z m 0,0"
           style="stroke:none" />
      </symbol>
      <symbol
         style="overflow:visible"
         id="glyph0-2"
         overflow="visible">
        <path
           id="path8"
           d="M 4,0.171875 C 4,-0.09375 4,-0.09375 3.734375,-0.09375 H 3.1875 c -0.28125,0 -0.28125,0 -0.28125,0.265625 V 5.8125 c 0,0.265625 0,0.265625 0.28125,0.265625 H 3.734375 C 4,6.078125 4,6.078125 4,5.8125 Z m 0,0"
           style="stroke:none" />
      </symbol>
      <symbol
         style="overflow:visible"
         id="glyph0-3"
         overflow="visible">
        <path
           id="path11"
           d="m 3.1875,-0.5 c -0.21875,0 -0.28125,0 -0.28125,0.109375 V 0 c 0,6.09375 1.078125,9.65625 1.390625,10.671875 C 4.96875,12.875 6.078125,15.21875 7.75,17.265625 7.890625,17.453125 7.9375,17.5 7.96875,17.515625 8,17.53125 8,17.53125 8.171875,17.53125 c 0.15625,0 0.21875,0 0.21875,-0.09375 0,-0.01563 0,-0.04687 -0.0625,-0.125 C 5.015625,12.703125 4.015625,7.15625 4,-0.359375 4,-0.5 3.953125,-0.5 3.734375,-0.5 Z m 0,0"
           style="stroke:none" />
      </symbol>
      <symbol
         style="overflow:visible"
         id="glyph0-4"
         overflow="visible">
        <path
           id="path14"
           d="M 5.8125,17.140625 C 5.8125,11.0625 4.71875,7.484375 4.421875,6.484375 3.734375,4.265625 2.625,1.9375 0.96875,-0.125 0.8125,-0.296875 0.78125,-0.34375 0.734375,-0.375 c -0.015625,0 -0.03125,-0.015625 -0.1875,-0.015625 -0.140625,0 -0.234375,0 -0.234375,0.09375 0,0.03125 0,0.046875 0.140625,0.234375 3.46875,4.84375 4.234375,10.8125 4.25,17.5625 0,0.140625 0.0625,0.140625 0.28125,0.140625 H 5.53125 c 0.203125,0 0.265625,0 0.28125,-0.109375 z m 0,0"
           style="stroke:none" />
      </symbol>
      <symbol
         style="overflow:visible"
         id="glyph0-5"
         overflow="visible">
        <path
           id="path17"
           d="M 5.8125,0.171875 C 5.8125,-0.09375 5.796875,-0.09375 5.53125,-0.09375 H 4.984375 c -0.265625,0 -0.28125,0 -0.28125,0.265625 V 5.8125 c 0,0.265625 0.015625,0.265625 0.28125,0.265625 H 5.53125 c 0.265625,0 0.28125,0 0.28125,-0.265625 z m 0,0"
           style="stroke:none" />
      </symbol>
      <symbol
         style="overflow:visible"
         id="glyph0-6"
         overflow="visible">
        <path
           id="path20"
           d="M 5.8125,-0.390625 C 5.796875,-0.5 5.734375,-0.5 5.53125,-0.5 H 4.984375 c -0.21875,0 -0.28125,0 -0.28125,0.140625 0,1.03125 -0.015625,3.40625 -0.265625,5.875 C 3.890625,10.671875 2.578125,14.25 0.390625,17.3125 0.3125,17.390625 0.3125,17.421875 0.3125,17.4375 c 0,0.09375 0.09375,0.09375 0.234375,0.09375 0.15625,0 0.1875,0 0.203125,-0.01563 C 0.78125,17.484375 2.046875,16.03125 3.0625,14.03125 4.375,11.390625 5.203125,8.375 5.578125,4.75 5.609375,4.4375 5.8125,2.359375 5.8125,0 Z m 0,0"
           style="stroke:none" />
      </symbol>
      <symbol
         style="overflow:visible"
         id="glyph1-0"
         overflow="visible">
        <path
           id="path23"
           d=""
           style="stroke:none" />
      </symbol>
      <symbol
         style="overflow:visible"
         id="glyph1-1"
         overflow="visible">
        <path
           id="path26"
           d="m 2.9375,-6.375 c 0,-0.25 0,-0.265625 -0.234375,-0.265625 C 2.078125,-6 1.203125,-6 0.890625,-6 v 0.3125 c 0.203125,0 0.78125,0 1.296875,-0.265625 v 5.171875 c 0,0.359375 -0.03125,0.46875 -0.921875,0.46875 h -0.3125 V 0 c 0.34375,-0.03125 1.203125,-0.03125 1.609375,-0.03125 0.390625,0 1.265625,0 1.609375,0.03125 v -0.3125 h -0.3125 c -0.90625,0 -0.921875,-0.109375 -0.921875,-0.46875 z m 0,0"
           style="stroke:none" />
      </symbol>
      <symbol
         style="overflow:visible"
         id="glyph1-2"
         overflow="visible">
        <path
           id="path29"
           d="m 1.265625,-0.765625 1.0625,-1.03125 c 1.546875,-1.375 2.140625,-1.90625 2.140625,-2.90625 0,-1.140625 -0.890625,-1.9375 -2.109375,-1.9375 -1.125,0 -1.859375,0.921875 -1.859375,1.8125 0,0.546875 0.5,0.546875 0.53125,0.546875 0.171875,0 0.515625,-0.109375 0.515625,-0.53125 0,-0.25 -0.1875,-0.515625 -0.53125,-0.515625 -0.078125,0 -0.09375,0 -0.125,0.015625 0.21875,-0.65625 0.765625,-1.015625 1.34375,-1.015625 0.90625,0 1.328125,0.8125 1.328125,1.625 C 3.5625,-3.90625 3.078125,-3.125 2.515625,-2.5 l -1.90625,2.125 C 0.5,-0.265625 0.5,-0.234375 0.5,0 H 4.203125 L 4.46875,-1.734375 H 4.234375 C 4.171875,-1.4375 4.109375,-1 4,-0.84375 3.9375,-0.765625 3.28125,-0.765625 3.0625,-0.765625 Z m 0,0"
           style="stroke:none" />
      </symbol>
      <symbol
         style="overflow:visible"
         id="glyph1-3"
         overflow="visible">
        <path
           id="path32"
           d="m 1.625,-4.5625 c -0.453125,-0.296875 -0.5,-0.625 -0.5,-0.796875 0,-0.609375 0.65625,-1.03125 1.359375,-1.03125 0.71875,0 1.359375,0.515625 1.359375,1.234375 0,0.578125 -0.390625,1.046875 -0.984375,1.390625 z m 1.453125,0.953125 C 3.796875,-3.984375 4.28125,-4.5 4.28125,-5.15625 c 0,-0.921875 -0.875,-1.484375 -1.78125,-1.484375 -1,0 -1.8125,0.734375 -1.8125,1.671875 0,0.171875 0.015625,0.625 0.4375,1.09375 0.109375,0.109375 0.484375,0.359375 0.734375,0.53125 C 1.28125,-3.046875 0.421875,-2.5 0.421875,-1.5 c 0,1.046875 1.015625,1.71875 2.0625,1.71875 1.125,0 2.078125,-0.828125 2.078125,-1.890625 0,-0.359375 -0.109375,-0.8125 -0.5,-1.234375 C 3.875,-3.109375 3.71875,-3.203125 3.078125,-3.609375 Z m -1,0.421875 1.234375,0.78125 c 0.28125,0.1875 0.75,0.484375 0.75,1.09375 0,0.734375 -0.75,1.25 -1.5625,1.25 -0.859375,0 -1.578125,-0.609375 -1.578125,-1.4375 0,-0.578125 0.3125,-1.21875 1.15625,-1.6875 z m 0,0"
           style="stroke:none" />
      </symbol>
      <symbol
         style="overflow:visible"
         id="glyph1-4"
         overflow="visible">
        <path
           id="path35"
           d="m 1.71875,-3.984375 h 1.4375 v -0.3125 H 1.71875 V -6.125 h -0.25 c 0,0.8125 -0.296875,1.875 -1.28125,1.921875 v 0.21875 h 0.84375 v 2.75 c 0,1.21875 0.9375,1.34375 1.296875,1.34375 0.703125,0 0.984375,-0.703125 0.984375,-1.34375 v -0.5625 h -0.25 V -1.25 c 0,0.734375 -0.296875,1.109375 -0.671875,1.109375 -0.671875,0 -0.671875,-0.90625 -0.671875,-1.078125 z m 0,0"
           style="stroke:none" />
      </symbol>
      <symbol
         style="overflow:visible"
         id="glyph1-5"
         overflow="visible">
        <path
           id="path38"
           d="m 1.09375,-0.75 c 0,0.4375 -0.109375,0.4375 -0.78125,0.4375 V 0 c 0.359375,-0.015625 0.859375,-0.03125 1.140625,-0.03125 0.25,0 0.765625,0.015625 1.109375,0.03125 v -0.3125 c -0.671875,0 -0.78125,0 -0.78125,-0.4375 V -2.59375 C 1.78125,-3.625 2.5,-4.1875 3.125,-4.1875 c 0.640625,0 0.75,0.53125 0.75,1.109375 V -0.75 c 0,0.4375 -0.109375,0.4375 -0.78125,0.4375 V 0 c 0.34375,-0.015625 0.859375,-0.03125 1.125,-0.03125 0.25,0 0.78125,0.015625 1.109375,0.03125 v -0.3125 c -0.515625,0 -0.765625,0 -0.765625,-0.296875 v -1.90625 c 0,-0.859375 0,-1.15625 -0.3125,-1.515625 -0.140625,-0.171875 -0.46875,-0.375 -1.046875,-0.375 -0.84375,0 -1.28125,0.59375 -1.453125,0.984375 v -3.5 L 0.3125,-6.8125 V -6.5 c 0.703125,0 0.78125,0.0625 0.78125,0.5625 z m 0,0"
           style="stroke:none" />
      </symbol>
      <symbol
         style="overflow:visible"
         id="glyph1-6"
         overflow="visible">
        <path
           id="path41"
           d="M 1.109375,-2.515625 C 1.171875,-4 2.015625,-4.25 2.359375,-4.25 c 1.015625,0 1.125,1.34375 1.125,1.734375 z m 0,0.21875 h 2.78125 c 0.21875,0 0.25,0 0.25,-0.21875 0,-0.984375 -0.546875,-1.953125 -1.78125,-1.953125 -1.15625,0 -2.078125,1.03125 -2.078125,2.28125 0,1.328125 1.046875,2.296875 2.1875,2.296875 C 3.6875,0.109375 4.140625,-1 4.140625,-1.1875 4.140625,-1.28125 4.0625,-1.3125 4,-1.3125 c -0.078125,0 -0.109375,0.0625 -0.125,0.140625 -0.34375,1.03125 -1.25,1.03125 -1.34375,1.03125 -0.5,0 -0.890625,-0.296875 -1.125,-0.671875 -0.296875,-0.46875 -0.296875,-1.125 -0.296875,-1.484375 z m 0,0"
           style="stroke:none" />
      </symbol>
      <symbol
         style="overflow:visible"
         id="glyph1-7"
         overflow="visible">
        <path
           id="path44"
           d="m 1.71875,-3.75 v -0.65625 l -1.4375,0.109375 v 0.3125 c 0.703125,0 0.78125,0.0625 0.78125,0.5 v 4.65625 C 1.0625,1.625 0.953125,1.625 0.28125,1.625 V 1.9375 C 0.625,1.921875 1.140625,1.90625 1.390625,1.90625 c 0.28125,0 0.78125,0.015625 1.125,0.03125 V 1.625 C 1.859375,1.625 1.75,1.625 1.75,1.171875 V -0.59375 c 0.046875,0.171875 0.46875,0.703125 1.21875,0.703125 1.1875,0 2.21875,-0.984375 2.21875,-2.265625 0,-1.265625 -0.953125,-2.25 -2.078125,-2.25 -0.78125,0 -1.203125,0.4375 -1.390625,0.65625 z M 1.75,-1.140625 v -2.21875 C 2.03125,-3.875 2.515625,-4.15625 3.03125,-4.15625 c 0.734375,0 1.328125,0.875 1.328125,2 0,1.203125 -0.6875,2.046875 -1.421875,2.046875 -0.40625,0 -0.78125,-0.203125 -1.046875,-0.609375 C 1.75,-0.921875 1.75,-0.9375 1.75,-1.140625 Z m 0,0"
           style="stroke:none" />
      </symbol>
      <symbol
         style="overflow:visible"
         id="glyph1-8"
         overflow="visible">
        <path
           id="path47"
           d="M 1.765625,-4.40625 0.375,-4.296875 v 0.3125 c 0.640625,0 0.734375,0.0625 0.734375,0.546875 V -0.75 c 0,0.4375 -0.109375,0.4375 -0.78125,0.4375 V 0 C 0.640625,-0.015625 1.1875,-0.03125 1.421875,-0.03125 1.78125,-0.03125 2.125,-0.015625 2.46875,0 v -0.3125 c -0.671875,0 -0.703125,-0.046875 -0.703125,-0.4375 z m 0.03125,-1.734375 c 0,-0.3125 -0.234375,-0.53125 -0.515625,-0.53125 -0.3125,0 -0.53125,0.265625 -0.53125,0.53125 0,0.265625 0.21875,0.53125 0.53125,0.53125 0.28125,0 0.515625,-0.21875 0.515625,-0.53125 z m 0,0"
           style="stroke:none" />
      </symbol>
      <symbol
         style="overflow:visible"
         id="glyph1-9"
         overflow="visible">
        <path
           id="path50"
           d="M 4.140625,-3.3125 C 4.234375,-3.546875 4.40625,-3.984375 5.0625,-3.984375 v -0.3125 c -0.234375,0.015625 -0.515625,0.03125 -0.75,0.03125 -0.234375,0 -0.6875,-0.015625 -0.859375,-0.03125 v 0.3125 c 0.359375,0 0.46875,0.234375 0.46875,0.421875 0,0.09375 -0.015625,0.140625 -0.046875,0.25 L 2.84375,-0.78125 1.734375,-3.5625 c -0.0625,-0.125 -0.0625,-0.140625 -0.0625,-0.171875 0,-0.25 0.390625,-0.25 0.578125,-0.25 v -0.3125 c -0.3125,0.015625 -0.859375,0.03125 -1.09375,0.03125 -0.265625,0 -0.671875,-0.015625 -0.96875,-0.03125 v 0.3125 c 0.625,0 0.671875,0.0625 0.796875,0.359375 l 1.4375,3.546875 C 2.484375,0.0625 2.5,0.109375 2.625,0.109375 c 0.140625,0 0.171875,-0.09375 0.21875,-0.1875 z m 0,0"
           style="stroke:none" />
      </symbol>
      <symbol
         style="overflow:visible"
         id="glyph1-10"
         overflow="visible">
        <path
           id="path53"
           d="M 4.6875,-2.140625 C 4.6875,-3.40625 3.703125,-4.46875 2.5,-4.46875 c -1.25,0 -2.21875,1.09375 -2.21875,2.328125 0,1.296875 1.03125,2.25 2.203125,2.25 1.203125,0 2.203125,-0.984375 2.203125,-2.25 z m -2.1875,2 c -0.4375,0 -0.875,-0.203125 -1.140625,-0.671875 -0.25,-0.4375 -0.25,-1.046875 -0.25,-1.40625 0,-0.390625 0,-0.921875 0.234375,-1.359375 C 1.609375,-4.03125 2.078125,-4.25 2.484375,-4.25 c 0.4375,0 0.859375,0.21875 1.125,0.65625 0.265625,0.421875 0.265625,1 0.265625,1.375 0,0.359375 0,0.90625 -0.21875,1.34375 C 3.421875,-0.421875 2.984375,-0.140625 2.5,-0.140625 Z m 0,0"
           style="stroke:none" />
      </symbol>
      <symbol
         style="overflow:visible"
         id="glyph1-11"
         overflow="visible">
        <path
           id="path56"
           d="m 2.078125,-1.9375 c 0.21875,0.046875 1.03125,0.203125 1.03125,0.921875 0,0.5 -0.34375,0.90625 -1.125,0.90625 -0.84375,0 -1.203125,-0.5625 -1.390625,-1.421875 C 0.5625,-1.65625 0.5625,-1.6875 0.453125,-1.6875 c -0.125,0 -0.125,0.0625 -0.125,0.234375 V -0.125 c 0,0.171875 0,0.234375 0.109375,0.234375 0.046875,0 0.0625,-0.015625 0.25,-0.203125 0.015625,-0.015625 0.015625,-0.03125 0.203125,-0.21875 0.4375,0.40625 0.890625,0.421875 1.09375,0.421875 1.140625,0 1.609375,-0.671875 1.609375,-1.390625 0,-0.515625 -0.296875,-0.828125 -0.421875,-0.9375 C 2.84375,-2.546875 2.453125,-2.625 2.03125,-2.703125 1.46875,-2.8125 0.8125,-2.9375 0.8125,-3.515625 c 0,-0.359375 0.25,-0.765625 1.109375,-0.765625 1.09375,0 1.15625,0.90625 1.171875,1.203125 0,0.09375 0.09375,0.09375 0.109375,0.09375 0.140625,0 0.140625,-0.046875 0.140625,-0.234375 v -1.015625 c 0,-0.15625 0,-0.234375 -0.109375,-0.234375 -0.046875,0 -0.078125,0 -0.203125,0.125 -0.03125,0.03125 -0.125,0.125 -0.171875,0.15625 -0.375,-0.28125 -0.78125,-0.28125 -0.9375,-0.28125 -1.21875,0 -1.59375,0.671875 -1.59375,1.234375 0,0.34375 0.15625,0.625 0.421875,0.84375 0.328125,0.25 0.609375,0.3125 1.328125,0.453125 z m 0,0"
           style="stroke:none" />
      </symbol>
      <symbol
         style="overflow:visible"
         id="glyph1-12"
         overflow="visible">
        <path
           id="path59"
           d="M 1.09375,-3.421875 V -0.75 c 0,0.4375 -0.109375,0.4375 -0.78125,0.4375 V 0 c 0.359375,-0.015625 0.859375,-0.03125 1.140625,-0.03125 0.25,0 0.765625,0.015625 1.109375,0.03125 v -0.3125 c -0.671875,0 -0.78125,0 -0.78125,-0.4375 V -2.59375 C 1.78125,-3.625 2.5,-4.1875 3.125,-4.1875 c 0.640625,0 0.75,0.53125 0.75,1.109375 V -0.75 c 0,0.4375 -0.109375,0.4375 -0.78125,0.4375 V 0 c 0.34375,-0.015625 0.859375,-0.03125 1.125,-0.03125 0.25,0 0.78125,0.015625 1.109375,0.03125 v -0.3125 c -0.515625,0 -0.765625,0 -0.765625,-0.296875 v -1.90625 c 0,-0.859375 0,-1.15625 -0.3125,-1.515625 -0.140625,-0.171875 -0.46875,-0.375 -1.046875,-0.375 C 2.46875,-4.40625 2,-3.984375 1.71875,-3.359375 V -4.40625 L 0.3125,-4.296875 v 0.3125 c 0.703125,0 0.78125,0.0625 0.78125,0.5625 z m 0,0"
           style="stroke:none" />
      </symbol>
      <symbol
         style="overflow:visible"
         id="glyph1-13"
         overflow="visible">
        <path
           id="path62"
           d="M 1.671875,-3.3125 V -4.40625 L 0.28125,-4.296875 v 0.3125 c 0.703125,0 0.78125,0.0625 0.78125,0.5625 V -0.75 c 0,0.4375 -0.109375,0.4375 -0.78125,0.4375 V 0 c 0.390625,-0.015625 0.859375,-0.03125 1.140625,-0.03125 0.390625,0 0.859375,0 1.265625,0.03125 V -0.3125 H 2.46875 c -0.734375,0 -0.75,-0.109375 -0.75,-0.46875 V -2.3125 c 0,-0.984375 0.421875,-1.875 1.171875,-1.875 0.0625,0 0.09375,0 0.109375,0.015625 -0.03125,0 -0.234375,0.125 -0.234375,0.390625 0,0.265625 0.21875,0.421875 0.4375,0.421875 0.171875,0 0.421875,-0.125 0.421875,-0.4375 0,-0.3125 -0.3125,-0.609375 -0.734375,-0.609375 -0.734375,0 -1.09375,0.671875 -1.21875,1.09375 z m 0,0"
           style="stroke:none" />
      </symbol>
      <symbol
         style="overflow:visible"
         id="glyph1-14"
         overflow="visible">
        <path
           id="path65"
           d="m 6.171875,-3.34375 c 0.171875,-0.5 0.484375,-0.640625 0.84375,-0.640625 v -0.3125 C 6.78125,-4.28125 6.5,-4.265625 6.28125,-4.265625 c -0.296875,0 -0.734375,-0.015625 -0.921875,-0.03125 v 0.3125 c 0.359375,0 0.578125,0.1875 0.578125,0.46875 0,0.0625 0,0.09375 -0.0625,0.21875 L 4.96875,-0.75 3.984375,-3.53125 C 3.953125,-3.65625 3.9375,-3.671875 3.9375,-3.71875 c 0,-0.265625 0.390625,-0.265625 0.59375,-0.265625 v -0.3125 c -0.296875,0.015625 -0.796875,0.03125 -1.046875,0.03125 -0.296875,0 -0.578125,-0.015625 -0.875,-0.03125 v 0.3125 c 0.359375,0 0.515625,0.015625 0.625,0.140625 0.046875,0.0625 0.15625,0.359375 0.21875,0.546875 L 2.609375,-0.875 1.65625,-3.53125 C 1.609375,-3.65625 1.609375,-3.671875 1.609375,-3.71875 1.609375,-3.984375 2,-3.984375 2.1875,-3.984375 v -0.3125 c -0.296875,0.015625 -0.859375,0.03125 -1.078125,0.03125 -0.046875,0 -0.578125,-0.015625 -0.9375,-0.03125 v 0.3125 c 0.5,0 0.625,0.03125 0.75,0.34375 l 1.25,3.53125 C 2.21875,0.03125 2.25,0.109375 2.375,0.109375 c 0.140625,0 0.15625,-0.0625 0.203125,-0.203125 l 1.015625,-2.8125 1.015625,2.828125 c 0.03125,0.109375 0.0625,0.1875 0.203125,0.1875 0.125,0 0.15625,-0.09375 0.1875,-0.1875 z m 0,0"
           style="stroke:none" />
      </symbol>
      <symbol
         style="overflow:visible"
         id="glyph1-15"
         overflow="visible">
        <path
           id="path68"
           d="m 2.03125,-0.015625 c 0,-0.625 -0.25,-1.046875 -0.640625,-1.046875 -0.359375,0 -0.53125,0.28125 -0.53125,0.53125 0,0.265625 0.171875,0.53125 0.53125,0.53125 0.15625,0 0.28125,-0.0625 0.375,-0.140625 L 1.78125,-0.15625 c 0.015625,0 0.015625,0 0.015625,0.140625 0,0.640625 -0.265625,1.25 -0.703125,1.71875 -0.0625,0.0625 -0.078125,0.078125 -0.078125,0.109375 0,0.078125 0.046875,0.109375 0.09375,0.109375 0.125,0 0.921875,-0.78125 0.921875,-1.9375 z m 0,0"
           style="stroke:none" />
      </symbol>
      <symbol
         style="overflow:visible"
         id="glyph1-16"
         overflow="visible">
        <path
           id="path71"
           d="m 1.171875,-2.171875 c 0,-1.625 0.8125,-2.046875 1.34375,-2.046875 0.09375,0 0.71875,0.015625 1.0625,0.375 -0.40625,0.03125 -0.46875,0.328125 -0.46875,0.453125 0,0.265625 0.1875,0.453125 0.453125,0.453125 0.265625,0 0.46875,-0.15625 0.46875,-0.46875 0,-0.671875 -0.765625,-1.0625 -1.53125,-1.0625 -1.25,0 -2.15625,1.078125 -2.15625,2.3125 0,1.28125 0.984375,2.265625 2.140625,2.265625 1.328125,0 1.65625,-1.203125 1.65625,-1.296875 0,-0.09375 -0.109375,-0.09375 -0.140625,-0.09375 -0.078125,0 -0.109375,0.03125 -0.125,0.09375 -0.28125,0.921875 -0.9375,1.046875 -1.296875,1.046875 -0.53125,0 -1.40625,-0.421875 -1.40625,-2.03125 z m 0,0"
           style="stroke:none" />
      </symbol>
      <symbol
         style="overflow:visible"
         id="glyph1-17"
         overflow="visible">
        <path
           id="path74"
           d="M 1.765625,-6.921875 0.328125,-6.8125 V -6.5 c 0.703125,0 0.78125,0.0625 0.78125,0.5625 V -0.75 c 0,0.4375 -0.109375,0.4375 -0.78125,0.4375 V 0 C 0.65625,-0.015625 1.1875,-0.03125 1.4375,-0.03125 c 0.25,0 0.734375,0.015625 1.109375,0.03125 v -0.3125 c -0.671875,0 -0.78125,0 -0.78125,-0.4375 z m 0,0"
           style="stroke:none" />
      </symbol>
      <symbol
         style="overflow:visible"
         id="glyph1-18"
         overflow="visible">
        <path
           id="path77"
           d="m 4.578125,-3.1875 c 0,-0.796875 -0.046875,-1.59375 -0.390625,-2.328125 -0.453125,-0.96875 -1.28125,-1.125 -1.6875,-1.125 -0.609375,0 -1.328125,0.265625 -1.75,1.1875 -0.3125,0.6875 -0.359375,1.46875 -0.359375,2.265625 0,0.75 0.03125,1.640625 0.453125,2.40625 0.421875,0.796875 1.15625,1 1.640625,1 0.53125,0 1.296875,-0.203125 1.734375,-1.15625 0.3125,-0.6875 0.359375,-1.46875 0.359375,-2.25 z M 2.484375,0 C 2.09375,0 1.5,-0.25 1.328125,-1.203125 1.21875,-1.796875 1.21875,-2.71875 1.21875,-3.3125 c 0,-0.640625 0,-1.296875 0.078125,-1.828125 0.1875,-1.1875 0.9375,-1.28125 1.1875,-1.28125 0.328125,0 0.984375,0.1875 1.171875,1.171875 0.109375,0.5625 0.109375,1.3125 0.109375,1.9375 0,0.75 0,1.421875 -0.109375,2.0625 C 3.5,-0.296875 2.9375,0 2.484375,0 Z m 0,0"
           style="stroke:none" />
      </symbol>
      <symbol
         style="overflow:visible"
         id="glyph1-19"
         overflow="visible">
        <path
           id="path80"
           d="M 2.75,-1.859375 V -2.4375 H 0.109375 v 0.578125 z m 0,0"
           style="stroke:none" />
      </symbol>
      <symbol
         style="overflow:visible"
         id="glyph1-20"
         overflow="visible">
        <path
           id="path83"
           d="M 2.25,-6.03125 C 2.25,-6.390625 2.265625,-6.5 3.0625,-6.5 h 0.25 v -0.3125 c -0.34375,0.03125 -1.125,0.03125 -1.515625,0.03125 -0.375,0 -1.171875,0 -1.515625,-0.03125 V -6.5 h 0.25 c 0.796875,0 0.828125,0.109375 0.828125,0.46875 v 5.25 c 0,0.359375 -0.03125,0.46875 -0.828125,0.46875 h -0.25 V 0 c 0.34375,-0.03125 1.140625,-0.03125 1.515625,-0.03125 0.390625,0 1.171875,0 1.515625,0.03125 v -0.3125 h -0.25 C 2.265625,-0.3125 2.25,-0.421875 2.25,-0.78125 Z m 0,0"
           style="stroke:none" />
      </symbol>
      <symbol
         style="overflow:visible"
         id="glyph1-21"
         overflow="visible">
        <path
           id="path86"
           d="m 1.71875,-3.765625 v -3.15625 L 0.28125,-6.8125 V -6.5 c 0.703125,0 0.78125,0.0625 0.78125,0.5625 V 0 h 0.25 c 0,-0.015625 0.078125,-0.15625 0.359375,-0.625 0.140625,0.234375 0.5625,0.734375 1.296875,0.734375 1.1875,0 2.21875,-0.984375 2.21875,-2.265625 0,-1.265625 -0.96875,-2.25 -2.109375,-2.25 -0.78125,0 -1.203125,0.46875 -1.359375,0.640625 z m 0.03125,2.625 V -3.1875 c 0,-0.1875 0,-0.203125 0.109375,-0.359375 C 2.25,-4.109375 2.796875,-4.1875 3.03125,-4.1875 c 0.453125,0 0.8125,0.265625 1.046875,0.640625 0.265625,0.40625 0.28125,0.96875 0.28125,1.390625 0,0.359375 -0.015625,0.953125 -0.296875,1.40625 -0.21875,0.3125 -0.59375,0.640625 -1.125,0.640625 -0.453125,0 -0.8125,-0.234375 -1.046875,-0.609375 C 1.75,-0.921875 1.75,-0.953125 1.75,-1.140625 Z m 0,0"
           style="stroke:none" />
      </symbol>
      <symbol
         style="overflow:visible"
         id="glyph1-22"
         overflow="visible">
        <path
           id="path89"
           d="M 1.09375,-3.421875 V -0.75 c 0,0.4375 -0.109375,0.4375 -0.78125,0.4375 V 0 c 0.359375,-0.015625 0.859375,-0.03125 1.140625,-0.03125 0.25,0 0.765625,0.015625 1.109375,0.03125 v -0.3125 c -0.671875,0 -0.78125,0 -0.78125,-0.4375 V -2.59375 C 1.78125,-3.625 2.5,-4.1875 3.125,-4.1875 c 0.640625,0 0.75,0.53125 0.75,1.109375 V -0.75 c 0,0.4375 -0.109375,0.4375 -0.78125,0.4375 V 0 c 0.34375,-0.015625 0.859375,-0.03125 1.125,-0.03125 0.25,0 0.78125,0.015625 1.109375,0.03125 v -0.3125 c -0.65625,0 -0.765625,0 -0.765625,-0.4375 v -1.84375 c 0,-1.03125 0.703125,-1.59375 1.34375,-1.59375 0.625,0 0.734375,0.53125 0.734375,1.109375 V -0.75 c 0,0.4375 -0.109375,0.4375 -0.78125,0.4375 V 0 c 0.34375,-0.015625 0.859375,-0.03125 1.125,-0.03125 0.265625,0 0.78125,0.015625 1.125,0.03125 v -0.3125 c -0.515625,0 -0.765625,0 -0.78125,-0.296875 v -1.90625 c 0,-0.859375 0,-1.15625 -0.3125,-1.515625 -0.140625,-0.171875 -0.46875,-0.375 -1.046875,-0.375 -0.828125,0 -1.28125,0.59375 -1.4375,0.984375 C 4.390625,-4.296875 3.65625,-4.40625 3.203125,-4.40625 2.46875,-4.40625 2,-3.984375 1.71875,-3.359375 V -4.40625 L 0.3125,-4.296875 v 0.3125 c 0.703125,0 0.78125,0.0625 0.78125,0.5625 z m 0,0"
           style="stroke:none" />
      </symbol>
      <symbol
         style="overflow:visible"
         id="glyph1-23"
         overflow="visible">
        <path
           id="path92"
           d="M 3.890625,-0.78125 V 0.109375 L 5.328125,0 V -0.3125 C 4.640625,-0.3125 4.5625,-0.375 4.5625,-0.875 v -3.53125 l -1.46875,0.109375 v 0.3125 c 0.6875,0 0.78125,0.0625 0.78125,0.5625 v 1.765625 c 0,0.875 -0.484375,1.546875 -1.21875,1.546875 -0.828125,0 -0.875,-0.46875 -0.875,-0.984375 v -3.3125 L 0.3125,-4.296875 v 0.3125 c 0.78125,0 0.78125,0.03125 0.78125,0.90625 v 1.5 c 0,0.78125 0,1.6875 1.515625,1.6875 0.5625,0 1,-0.28125 1.28125,-0.890625 z m 0,0"
           style="stroke:none" />
      </symbol>
      <symbol
         style="overflow:visible"
         id="glyph1-24"
         overflow="visible">
        <path
           id="path95"
           d="m 3.78125,-0.546875 v 0.65625 L 5.25,0 v -0.3125 c -0.6875,0 -0.78125,-0.0625 -0.78125,-0.5625 V -6.921875 L 3.046875,-6.8125 V -6.5 c 0.6875,0 0.765625,0.0625 0.765625,0.5625 v 2.15625 c -0.28125,-0.359375 -0.71875,-0.625 -1.25,-0.625 -1.171875,0 -2.21875,0.984375 -2.21875,2.265625 0,1.265625 0.96875,2.25 2.109375,2.25 0.640625,0 1.078125,-0.34375 1.328125,-0.65625 z m 0,-2.671875 v 2.046875 c 0,0.171875 0,0.1875 -0.109375,0.359375 C 3.375,-0.328125 2.9375,-0.109375 2.5,-0.109375 2.046875,-0.109375 1.6875,-0.375 1.453125,-0.75 1.203125,-1.15625 1.171875,-1.71875 1.171875,-2.140625 1.171875,-2.5 1.1875,-3.09375 1.46875,-3.546875 1.6875,-3.859375 2.0625,-4.1875 2.609375,-4.1875 c 0.34375,0 0.765625,0.15625 1.0625,0.59375 0.109375,0.171875 0.109375,0.1875 0.109375,0.375 z m 0,0"
           style="stroke:none" />
      </symbol>
      <symbol
         style="overflow:visible"
         id="glyph1-25"
         overflow="visible">
        <path
           id="path98"
           d="m 4.140625,-3.34375 c 0.25,-0.640625 0.765625,-0.640625 0.921875,-0.640625 v -0.3125 c -0.234375,0.015625 -0.515625,0.03125 -0.75,0.03125 -0.171875,0 -0.640625,-0.015625 -0.859375,-0.03125 v 0.3125 c 0.3125,0 0.46875,0.171875 0.46875,0.421875 0,0.109375 -0.015625,0.125 -0.0625,0.25 L 2.84375,-0.875 1.75,-3.546875 C 1.703125,-3.65625 1.6875,-3.6875 1.6875,-3.734375 c 0,-0.25 0.359375,-0.25 0.5625,-0.25 v -0.3125 c -0.265625,0.015625 -0.921875,0.03125 -1.09375,0.03125 -0.265625,0 -0.671875,-0.015625 -0.96875,-0.03125 v 0.3125 c 0.484375,0 0.671875,0 0.8125,0.34375 L 2.5,0 C 2.4375,0.125 2.296875,0.453125 2.25,0.59375 2.03125,1.140625 1.75,1.828125 1.109375,1.828125 c -0.046875,0 -0.28125,0 -0.46875,-0.1875 0.3125,-0.03125 0.390625,-0.25 0.390625,-0.421875 0,-0.25 -0.1875,-0.40625 -0.421875,-0.40625 -0.203125,0 -0.421875,0.125 -0.421875,0.421875 0,0.453125 0.421875,0.8125 0.921875,0.8125 0.625,0 1.03125,-0.578125 1.265625,-1.140625 z m 0,0"
           style="stroke:none" />
      </symbol>
      <symbol
         style="overflow:visible"
         id="glyph1-26"
         overflow="visible">
        <path
           id="path101"
           d="m 4.46875,-2 c 0,-1.1875 -0.8125,-2.1875 -1.890625,-2.1875 -0.46875,0 -0.90625,0.15625 -1.265625,0.515625 V -5.625 c 0.203125,0.0625 0.53125,0.125 0.84375,0.125 1.234375,0 1.9375,-0.90625 1.9375,-1.03125 0,-0.0625 -0.03125,-0.109375 -0.109375,-0.109375 0,0 -0.03125,0 -0.078125,0.03125 C 3.703125,-6.515625 3.21875,-6.3125 2.546875,-6.3125 2.15625,-6.3125 1.6875,-6.390625 1.21875,-6.59375 1.140625,-6.625 1.125,-6.625 1.109375,-6.625 1,-6.625 1,-6.546875 1,-6.390625 V -3.4375 c 0,0.171875 0,0.25 0.140625,0.25 0.078125,0 0.09375,-0.015625 0.140625,-0.078125 C 1.390625,-3.421875 1.75,-3.96875 2.5625,-3.96875 c 0.515625,0 0.765625,0.453125 0.84375,0.640625 0.15625,0.375 0.1875,0.75 0.1875,1.25 0,0.359375 0,0.953125 -0.25,1.375 C 3.109375,-0.3125 2.734375,-0.0625 2.28125,-0.0625 c -0.71875,0 -1.296875,-0.53125 -1.46875,-1.109375 0.03125,0 0.0625,0.015625 0.171875,0.015625 0.328125,0 0.5,-0.25 0.5,-0.484375 0,-0.25 -0.171875,-0.5 -0.5,-0.5 C 0.84375,-2.140625 0.5,-2.0625 0.5,-1.609375 0.5,-0.75 1.1875,0.21875 2.296875,0.21875 3.453125,0.21875 4.46875,-0.734375 4.46875,-2 Z m 0,0"
           style="stroke:none" />
      </symbol>
      <symbol
         style="overflow:visible"
         id="glyph1-27"
         overflow="visible">
        <path
           id="path104"
           d="m 1.75,-4.296875 v -1.15625 c 0,-0.875 0.46875,-1.359375 0.90625,-1.359375 0.03125,0 0.1875,0 0.328125,0.078125 C 2.875,-6.703125 2.6875,-6.5625 2.6875,-6.3125 c 0,0.21875 0.15625,0.421875 0.4375,0.421875 0.28125,0 0.4375,-0.203125 0.4375,-0.4375 0,-0.375 -0.375,-0.703125 -0.90625,-0.703125 -0.6875,0 -1.546875,0.53125 -1.546875,1.59375 v 1.140625 h -0.78125 v 0.3125 h 0.78125 V -0.75 C 1.109375,-0.3125 1,-0.3125 0.34375,-0.3125 V 0 c 0.390625,-0.015625 0.859375,-0.03125 1.125,-0.03125 0.40625,0 0.875,0 1.265625,0.03125 V -0.3125 H 2.53125 c -0.734375,0 -0.75,-0.109375 -0.75,-0.46875 v -3.203125 h 1.125 v -0.3125 z m 0,0"
           style="stroke:none" />
      </symbol>
      <symbol
         style="overflow:visible"
         id="glyph1-28"
         overflow="visible">
        <path
           id="path107"
           d="m 3.3125,-0.75 c 0.046875,0.390625 0.3125,0.8125 0.78125,0.8125 0.21875,0 0.828125,-0.140625 0.828125,-0.953125 v -0.5625 h -0.25 v 0.5625 c 0,0.578125 -0.25,0.640625 -0.359375,0.640625 -0.328125,0 -0.375,-0.453125 -0.375,-0.5 v -1.984375 c 0,-0.421875 0,-0.8125 -0.359375,-1.1875 C 3.1875,-4.3125 2.6875,-4.46875 2.21875,-4.46875 c -0.828125,0 -1.515625,0.46875 -1.515625,1.125 0,0.296875 0.203125,0.46875 0.46875,0.46875 0.28125,0 0.453125,-0.203125 0.453125,-0.453125 0,-0.125 -0.046875,-0.453125 -0.515625,-0.453125 C 1.390625,-4.140625 1.875,-4.25 2.1875,-4.25 c 0.5,0 1.0625,0.390625 1.0625,1.28125 v 0.359375 c -0.515625,0.03125 -1.203125,0.0625 -1.828125,0.359375 -0.75,0.34375 -1,0.859375 -1,1.296875 0,0.8125 0.96875,1.0625 1.59375,1.0625 0.65625,0 1.109375,-0.40625 1.296875,-0.859375 z M 3.25,-2.390625 v 1 c 0,0.9375 -0.71875,1.28125 -1.171875,1.28125 -0.484375,0 -0.890625,-0.34375 -0.890625,-0.84375 0,-0.546875 0.421875,-1.375 2.0625,-1.4375 z m 0,0"
           style="stroke:none" />
      </symbol>
      <symbol
         style="overflow:visible"
         id="glyph1-29"
         overflow="visible">
        <path
           id="path110"
           d="m 3.890625,-4 c 0.09375,-0.109375 0.09375,-0.125 0.09375,-0.171875 0,-0.125 -0.09375,-0.125 -0.265625,-0.125 H 0.53125 L 0.421875,-2.6875 h 0.25 c 0.0625,-1.015625 0.25,-1.390625 1.34375,-1.390625 H 3.15625 L 0.375,-0.3125 C 0.28125,-0.203125 0.28125,-0.1875 0.28125,-0.140625 0.28125,0 0.34375,0 0.53125,0 H 3.828125 L 4,-1.859375 H 3.75 C 3.65625,-0.6875 3.453125,-0.25 2.296875,-0.25 h -1.1875 z m 0,0"
           style="stroke:none" />
      </symbol>
      <symbol
         style="overflow:visible"
         id="glyph1-30"
         overflow="visible">
        <path
           id="path113"
           d="m 1.90625,-3.765625 c 0,-0.296875 -0.234375,-0.53125 -0.515625,-0.53125 -0.296875,0 -0.53125,0.234375 -0.53125,0.53125 0,0.28125 0.234375,0.53125 0.53125,0.53125 0.28125,0 0.515625,-0.25 0.515625,-0.53125 z m 0,3.234375 c 0,-0.28125 -0.234375,-0.53125 -0.515625,-0.53125 -0.296875,0 -0.53125,0.25 -0.53125,0.53125 C 0.859375,-0.234375 1.09375,0 1.390625,0 1.671875,0 1.90625,-0.234375 1.90625,-0.53125 Z m 0,0"
           style="stroke:none" />
      </symbol>
      <symbol
         style="overflow:visible"
         id="glyph1-31"
         overflow="visible">
        <path
           id="path116"
           d="m 6.84375,-3.265625 c 0.15625,0 0.34375,0 0.34375,-0.1875 C 7.1875,-3.65625 7,-3.65625 6.859375,-3.65625 h -5.96875 c -0.140625,0 -0.328125,0 -0.328125,0.203125 0,0.1875 0.1875,0.1875 0.328125,0.1875 z m 0.015625,1.9375 c 0.140625,0 0.328125,0 0.328125,-0.203125 0,-0.1875 -0.1875,-0.1875 -0.34375,-0.1875 H 0.890625 c -0.140625,0 -0.328125,0 -0.328125,0.1875 0,0.203125 0.1875,0.203125 0.328125,0.203125 z m 0,0"
           style="stroke:none" />
      </symbol>
      <symbol
         style="overflow:visible"
         id="glyph2-0"
         overflow="visible">
        <path
           id="path119"
           d=""
           style="stroke:none" />
      </symbol>
      <symbol
         style="overflow:visible"
         id="glyph2-1"
         overflow="visible">
        <path
           id="path122"
           d="M 7.0625,-2.328125 C 7.078125,-2.375 7.109375,-2.4375 7.109375,-2.46875 c 0,0 0,-0.109375 -0.125,-0.109375 -0.09375,0 -0.109375,0.0625 -0.125,0.125 C 6.203125,-0.984375 5.84375,-0.3125 4.140625,-0.3125 H 2.6875 c -0.140625,0 -0.171875,0 -0.21875,0 -0.109375,-0.015625 -0.140625,-0.03125 -0.140625,-0.109375 0,-0.03125 0,-0.046875 0.046875,-0.21875 L 3.0625,-3.375 h 0.984375 c 0.84375,0 0.84375,0.21875 0.84375,0.46875 0,0.0625 0,0.1875 -0.0625,0.484375 C 4.8125,-2.375 4.796875,-2.34375 4.796875,-2.3125 c 0,0.046875 0.03125,0.109375 0.125,0.109375 C 5,-2.203125 5.03125,-2.25 5.078125,-2.40625 l 0.5625,-2.328125 c 0,-0.0625 -0.046875,-0.109375 -0.125,-0.109375 -0.078125,0 -0.109375,0.0625 -0.125,0.171875 -0.21875,0.765625 -0.390625,1 -1.3125,1 h -0.9375 l 0.59375,-2.40625 C 3.828125,-6.4375 3.84375,-6.46875 4.28125,-6.46875 H 5.6875 c 1.203125,0 1.515625,0.28125 1.515625,1.109375 0,0.234375 0,0.25 -0.046875,0.53125 0,0.046875 -0.015625,0.125 -0.015625,0.171875 0,0.046875 0.03125,0.125 0.125,0.125 0.109375,0 0.125,-0.0625 0.140625,-0.25 L 7.609375,-6.515625 C 7.640625,-6.78125 7.59375,-6.78125 7.34375,-6.78125 H 2.296875 c -0.1875,0 -0.296875,0 -0.296875,0.203125 0,0.109375 0.09375,0.109375 0.28125,0.109375 0.375,0 0.65625,0 0.65625,0.171875 0,0.046875 0,0.0625 -0.0625,0.25 L 1.5625,-0.78125 c -0.09375,0.390625 -0.109375,0.46875 -0.90625,0.46875 -0.171875,0 -0.28125,0 -0.28125,0.1875 C 0.375,0 0.46875,0 0.65625,0 h 5.171875 c 0.234375,0 0.25,-0.015625 0.3125,-0.171875 z m 0,0"
           style="stroke:none" />
      </symbol>
      <symbol
         style="overflow:visible"
         id="glyph2-2"
         overflow="visible">
        <path
           id="path125"
           d="m 4.75,-2.359375 c 0,-1.5625 -0.921875,-2.046875 -1.65625,-2.046875 -1.375,0 -2.6875,1.421875 -2.6875,2.828125 0,0.9375 0.59375,1.6875 1.625,1.6875 0.625,0 1.34375,-0.234375 2.09375,-0.84375 0.125,0.53125 0.453125,0.84375 0.90625,0.84375 0.53125,0 0.84375,-0.546875 0.84375,-0.703125 0,-0.078125 -0.0625,-0.109375 -0.125,-0.109375 -0.0625,0 -0.09375,0.03125 -0.125,0.109375 -0.1875,0.484375 -0.546875,0.484375 -0.5625,0.484375 -0.3125,0 -0.3125,-0.78125 -0.3125,-1.015625 0,-0.203125 0,-0.234375 0.109375,-0.34375 C 5.796875,-2.65625 6,-3.8125 6,-3.8125 6,-3.84375 5.984375,-3.921875 5.875,-3.921875 c -0.09375,0 -0.09375,0.03125 -0.140625,0.21875 -0.1875,0.625 -0.515625,1.375 -0.984375,1.96875 z m -0.65625,1.375 c -0.890625,0.765625 -1.65625,0.875 -2.046875,0.875 -0.59375,0 -0.90625,-0.453125 -0.90625,-1.09375 0,-0.484375 0.265625,-1.5625 0.578125,-2.0625 C 2.1875,-4 2.734375,-4.1875 3.078125,-4.1875 c 0.984375,0 0.984375,1.3125 0.984375,2.078125 0,0.375 0,0.953125 0.03125,1.125 z m 0,0"
           style="stroke:none" />
      </symbol>
      <symbol
         style="overflow:visible"
         id="glyph3-0"
         overflow="visible">
        <path
           id="path128"
           d=""
           style="stroke:none" />
      </symbol>
      <symbol
         style="overflow:visible"
         id="glyph3-1"
         overflow="visible">
        <path
           id="path131"
           d="m 6.5625,-2.296875 c 0.171875,0 0.359375,0 0.359375,-0.203125 0,-0.1875 -0.1875,-0.1875 -0.359375,-0.1875 H 1.171875 c -0.171875,0 -0.34375,0 -0.34375,0.1875 0,0.203125 0.171875,0.203125 0.34375,0.203125 z m 0,0"
           style="stroke:none" />
      </symbol>
      <symbol
         style="overflow:visible"
         id="glyph4-0"
         overflow="visible">
        <path
           id="path134"
           d=""
           style="stroke:none" />
      </symbol>
      <symbol
         style="overflow:visible"
         id="glyph4-1"
         overflow="visible">
        <path
           id="path137"
           d="M 1.96875,-4.625 C 1.96875,-4.640625 2,-4.734375 2,-4.734375 2,-4.78125 1.96875,-4.84375 1.875,-4.84375 c -0.140625,0 -0.71875,0.0625 -0.890625,0.078125 -0.046875,0 -0.140625,0.015625 -0.140625,0.15625 0,0.09375 0.09375,0.09375 0.171875,0.09375 0.34375,0 0.34375,0.0625 0.34375,0.109375 0,0.046875 -0.015625,0.09375 -0.03125,0.15625 l -0.875,3.4375 C 0.4375,-0.734375 0.4375,-0.65625 0.4375,-0.59375 c 0,0.453125 0.390625,0.65625 0.71875,0.65625 0.171875,0 0.390625,-0.046875 0.5625,-0.359375 C 1.875,-0.5625 1.96875,-0.96875 1.96875,-1 c 0,-0.09375 -0.09375,-0.09375 -0.109375,-0.09375 -0.109375,0 -0.125,0.046875 -0.140625,0.171875 C 1.625,-0.578125 1.484375,-0.125 1.1875,-0.125 1,-0.125 0.953125,-0.296875 0.953125,-0.46875 0.953125,-0.546875 0.96875,-0.671875 1,-0.75 Z m 0,0"
           style="stroke:none" />
      </symbol>
      <symbol
         style="overflow:visible"
         id="glyph4-2"
         overflow="visible">
        <path
           id="path140"
           d="m 0.515625,0.84375 c -0.046875,0.203125 -0.0625,0.25 -0.328125,0.25 -0.09375,0 -0.1875,0 -0.1875,0.15625 0,0.078125 0.0625,0.109375 0.09375,0.109375 0.171875,0 0.40625,-0.03125 0.59375,-0.03125 0.234375,0 0.5,0.03125 0.734375,0.03125 0.0625,0 0.140625,-0.03125 0.140625,-0.15625 0,-0.109375 -0.09375,-0.109375 -0.1875,-0.109375 -0.15625,0 -0.34375,0 -0.34375,-0.078125 0,-0.03125 0.0625,-0.21875 0.078125,-0.3125 0.09375,-0.375 0.1875,-0.75 0.265625,-1.046875 0.078125,0.140625 0.296875,0.40625 0.71875,0.40625 0.84375,0 1.78125,-0.9375 1.78125,-1.96875 0,-0.8125 -0.5625,-1.171875 -1.03125,-1.171875 -0.4375,0 -0.8125,0.296875 -1,0.5 -0.109375,-0.40625 -0.5,-0.5 -0.71875,-0.5 -0.265625,0 -0.4375,0.1875 -0.546875,0.375 -0.140625,0.234375 -0.25,0.65625 -0.25,0.703125 0,0.078125 0.09375,0.078125 0.125,0.078125 0.09375,0 0.09375,-0.015625 0.140625,-0.203125 0.109375,-0.40625 0.25,-0.75 0.515625,-0.75 0.1875,0 0.234375,0.15625 0.234375,0.34375 0,0.078125 -0.015625,0.15625 -0.03125,0.203125 z M 1.84375,-2.234375 C 2.25,-2.78125 2.59375,-2.875 2.8125,-2.875 c 0.28125,0 0.515625,0.203125 0.515625,0.671875 0,0.28125 -0.15625,1 -0.359375,1.40625 -0.1875,0.34375 -0.515625,0.671875 -0.875,0.671875 -0.5,0 -0.625,-0.53125 -0.625,-0.609375 0,-0.03125 0.015625,-0.078125 0.015625,-0.109375 z m 0,0"
           style="stroke:none" />
      </symbol>
    </g>
  </defs>
  <g
     transform="translate(-148.87926,-124.80078)"
     id="surface1">
    <g
       id="g149"
       style="fill:#000000;fill-opacity:1">
      <use
         height="100%"
         width="100%"
         id="use147"
         y="129.85001"
         x="231.32001"
         xlink:href="#glyph0-1" />
    </g>
    <g
       id="g153"
       style="fill:#000000;fill-opacity:1">
      <use
         height="100%"
         width="100%"
         id="use151"
         y="147.384"
         x="231.32001"
         xlink:href="#glyph0-2" />
    </g>
    <g
       id="g157"
       style="fill:#000000;fill-opacity:1">
      <use
         height="100%"
         width="100%"
         id="use155"
         y="153.362"
         x="231.32001"
         xlink:href="#glyph0-2" />
    </g>
    <g
       id="g161"
       style="fill:#000000;fill-opacity:1">
      <use
         height="100%"
         width="100%"
         id="use159"
         y="159.73801"
         x="231.32001"
         xlink:href="#glyph0-3" />
    </g>
    <g
       id="g165"
       style="fill:#000000;fill-opacity:1">
      <use
         height="100%"
         width="100%"
         id="use163"
         y="129.85001"
         x="335.87799"
         xlink:href="#glyph0-4" />
    </g>
    <g
       id="g169"
       style="fill:#000000;fill-opacity:1">
      <use
         height="100%"
         width="100%"
         id="use167"
         y="147.384"
         x="335.87799"
         xlink:href="#glyph0-5" />
    </g>
    <g
       id="g173"
       style="fill:#000000;fill-opacity:1">
      <use
         height="100%"
         width="100%"
         id="use171"
         y="153.362"
         x="335.87799"
         xlink:href="#glyph0-5" />
    </g>
    <g
       id="g177"
       style="fill:#000000;fill-opacity:1">
      <use
         height="100%"
         width="100%"
         id="use175"
         y="159.73801"
         x="335.87799"
         xlink:href="#glyph0-6" />
    </g>
    <g
       id="g181"
       style="fill:#000000;fill-opacity:1">
      <use
         height="100%"
         width="100%"
         id="use179"
         y="133.17101"
         x="240.037"
         xlink:href="#glyph1-1" />
    </g>
    <g
       id="g185"
       style="fill:#000000;fill-opacity:1">
      <use
         height="100%"
         width="100%"
         id="use183"
         y="133.17101"
         x="263.34949"
         xlink:href="#glyph1-2" />
    </g>
    <g
       id="g189"
       style="fill:#000000;fill-opacity:1">
      <use
         height="100%"
         width="100%"
         id="use187"
         y="133.17101"
         x="288.32571"
         xlink:href="#glyph1-2" />
    </g>
    <g
       id="g193"
       style="fill:#000000;fill-opacity:1">
      <use
         height="100%"
         width="100%"
         id="use191"
         y="133.17101"
         x="308.57968"
         xlink:href="#glyph1-1" />
    </g>
    <path
       id="path195"
       transform="matrix(1,0,0,-1,321.399,136.757)"
       d="M -5.625e-4,-8.125e-4 V 11.956219"
       style="fill:none;stroke:#000000;stroke-width:0.398;stroke-linecap:butt;stroke-linejoin:miter;stroke-miterlimit:10;stroke-opacity:1" />
    <g
       id="g199"
       style="fill:#000000;fill-opacity:1">
      <use
         height="100%"
         width="100%"
         id="use197"
         y="133.17101"
         x="329.23599"
         xlink:href="#glyph1-3" />
    </g>
    <g
       id="g207"
       style="fill:#000000;fill-opacity:1">
      <use
         height="100%"
         width="100%"
         id="use201"
         y="133.17101"
         x="357.79877"
         xlink:href="#glyph1-4" />
      <use
         height="100%"
         width="100%"
         id="use203"
         y="133.17101"
         x="361.67322"
         xlink:href="#glyph1-5" />
      <use
         height="100%"
         width="100%"
         id="use205"
         y="133.17101"
         x="367.20844"
         xlink:href="#glyph1-6" />
    </g>
    <g
       id="g215"
       style="fill:#000000;fill-opacity:1">
      <use
         height="100%"
         width="100%"
         id="use209"
         y="133.17101"
         x="374.95337"
         xlink:href="#glyph1-7" />
      <use
         height="100%"
         width="100%"
         id="use211"
         y="133.17101"
         x="380.48859"
         xlink:href="#glyph1-8" />
      <use
         height="100%"
         width="100%"
         id="use213"
         y="133.17101"
         x="383.2562"
         xlink:href="#glyph1-9" />
    </g>
    <g
       id="g221"
       style="fill:#000000;fill-opacity:1">
      <use
         height="100%"
         width="100%"
         id="use217"
         y="133.17101"
         x="388.2355"
         xlink:href="#glyph1-10" />
      <use
         height="100%"
         width="100%"
         id="use219"
         y="133.17101"
         x="393.21683"
         xlink:href="#glyph1-4" />
    </g>
    <g
       id="g227"
       style="fill:#000000;fill-opacity:1">
      <use
         height="100%"
         width="100%"
         id="use223"
         y="133.17101"
         x="400.40881"
         xlink:href="#glyph1-8" />
      <use
         height="100%"
         width="100%"
         id="use225"
         y="133.17101"
         x="403.17642"
         xlink:href="#glyph1-11" />
    </g>
    <g
       id="g233"
       style="fill:#000000;fill-opacity:1">
      <use
         height="100%"
         width="100%"
         id="use229"
         y="133.17101"
         x="410.4332"
         xlink:href="#glyph1-8" />
      <use
         height="100%"
         width="100%"
         id="use231"
         y="133.17101"
         x="413.20081"
         xlink:href="#glyph1-12" />
    </g>
    <g
       id="g239"
       style="fill:#000000;fill-opacity:1">
      <use
         height="100%"
         width="100%"
         id="use235"
         y="133.17101"
         x="422.05356"
         xlink:href="#glyph1-13" />
      <use
         height="100%"
         width="100%"
         id="use237"
         y="133.17101"
         x="425.9559"
         xlink:href="#glyph1-10" />
    </g>
    <g
       id="g243"
       style="fill:#000000;fill-opacity:1">
      <use
         height="100%"
         width="100%"
         id="use241"
         y="133.17101"
         x="430.65826"
         xlink:href="#glyph1-14" />
    </g>
    <g
       id="g249"
       style="fill:#000000;fill-opacity:1">
      <use
         height="100%"
         width="100%"
         id="use245"
         y="133.17101"
         x="441.18076"
         xlink:href="#glyph1-2" />
      <use
         height="100%"
         width="100%"
         id="use247"
         y="133.17101"
         x="446.16205"
         xlink:href="#glyph1-15" />
    </g>
    <g
       id="g257"
       style="fill:#000000;fill-opacity:1">
      <use
         height="100%"
         width="100%"
         id="use251"
         y="133.17101"
         x="452.24722"
         xlink:href="#glyph1-16" />
      <use
         height="100%"
         width="100%"
         id="use253"
         y="133.17101"
         x="456.67459"
         xlink:href="#glyph1-10" />
      <use
         height="100%"
         width="100%"
         id="use255"
         y="133.17101"
         x="461.65588"
         xlink:href="#glyph1-17" />
    </g>
    <g
       id="g261"
       style="fill:#000000;fill-opacity:1">
      <use
         height="100%"
         width="100%"
         id="use259"
         y="133.17101"
         x="467.74106"
         xlink:href="#glyph1-2" />
    </g>
    <g
       id="g265"
       style="fill:#000000;fill-opacity:1">
      <use
         height="100%"
         width="100%"
         id="use263"
         y="149.554"
         x="240.037"
         xlink:href="#glyph1-18" />
    </g>
    <path
       id="path267"
       d="m 256.97266,155.92969 h 17.73437 v -19.17188 h -17.73437 z m 0,0"
       style="fill:#fff000;fill-opacity:1;fill-rule:nonzero;stroke:none" />
    <g
       id="g271"
       style="fill:#8a0000;fill-opacity:1">
      <use
         height="100%"
         width="100%"
         id="use269"
         y="149.554"
         x="263.35001"
         xlink:href="#glyph1-1" />
    </g>
    <path
       id="path273"
       transform="matrix(1,0,0,-1,259.962,139.945)"
       d="M -0.0010625,-3.125e-4 H 11.75675"
       style="fill:none;stroke:#8a0000;stroke-width:0.398;stroke-linecap:butt;stroke-linejoin:miter;stroke-miterlimit:10;stroke-opacity:1" />
    <path
       id="path275"
       transform="matrix(1,0,0,-1,260.161,152.742)"
       d="M -8.4375e-4,-1.875e-4 V 12.796687"
       style="fill:none;stroke:#8a0000;stroke-width:0.398;stroke-linecap:butt;stroke-linejoin:miter;stroke-miterlimit:10;stroke-opacity:1" />
    <path
       id="path277"
       transform="matrix(1,0,0,-1,271.519,152.742)"
       d="M 5.3125e-4,-1.875e-4 V 12.796687"
       style="fill:none;stroke:#8a0000;stroke-width:0.398;stroke-linecap:butt;stroke-linejoin:miter;stroke-miterlimit:10;stroke-opacity:1" />
    <path
       id="path279"
       transform="matrix(1,0,0,-1,259.962,152.742)"
       d="M -0.0010625,-1.875e-4 H 11.75675"
       style="fill:none;stroke:#8a0000;stroke-width:0.398;stroke-linecap:butt;stroke-linejoin:miter;stroke-miterlimit:10;stroke-opacity:1" />
    <g
       id="g285"
       style="fill:#000000;fill-opacity:1">
      <use
         height="100%"
         width="100%"
         id="use281"
         y="149.554"
         x="286.66199"
         xlink:href="#glyph1-19" />
      <use
         height="100%"
         width="100%"
         id="use283"
         y="149.554"
         x="289.98254"
         xlink:href="#glyph1-1" />
    </g>
    <g
       id="g289"
       style="fill:#000000;fill-opacity:1">
      <use
         height="100%"
         width="100%"
         id="use287"
         y="149.554"
         x="308.5827"
         xlink:href="#glyph1-18" />
    </g>
    <path
       id="path291"
       transform="matrix(1,0,0,-1,321.399,155.93)"
       d="M -5.625e-4,3.125e-4 V 19.172187"
       style="fill:none;stroke:#000000;stroke-width:0.398;stroke-linecap:butt;stroke-linejoin:miter;stroke-miterlimit:10;stroke-opacity:1" />
    <g
       id="g295"
       style="fill:#000000;fill-opacity:1">
      <use
         height="100%"
         width="100%"
         id="use293"
         y="149.554"
         x="329.23599"
         xlink:href="#glyph1-18" />
    </g>
    <g
       id="g301"
       style="fill:#000000;fill-opacity:1">
      <use
         height="100%"
         width="100%"
         id="use297"
         y="149.554"
         x="357.79877"
         xlink:href="#glyph1-20" />
      <use
         height="100%"
         width="100%"
         id="use299"
         y="149.554"
         x="361.39627"
         xlink:href="#glyph1-4" />
    </g>
    <g
       id="g311"
       style="fill:#000000;fill-opacity:1">
      <use
         height="100%"
         width="100%"
         id="use303"
         y="149.554"
         x="368.58826"
         xlink:href="#glyph1-14" />
      <use
         height="100%"
         width="100%"
         id="use305"
         y="149.554"
         x="375.78326"
         xlink:href="#glyph1-8" />
      <use
         height="100%"
         width="100%"
         id="use307"
         y="149.554"
         x="378.55087"
         xlink:href="#glyph1-17" />
      <use
         height="100%"
         width="100%"
         id="use309"
         y="149.554"
         x="381.31848"
         xlink:href="#glyph1-17" />
    </g>
    <g
       id="g315"
       style="fill:#000000;fill-opacity:1">
      <use
         height="100%"
         width="100%"
         id="use313"
         y="149.554"
         x="387.40363"
         xlink:href="#glyph1-21" />
    </g>
    <g
       id="g319"
       style="fill:#000000;fill-opacity:1">
      <use
         height="100%"
         width="100%"
         id="use317"
         y="149.554"
         x="393.2178"
         xlink:href="#glyph1-6" />
    </g>
    <g
       id="g323"
       style="fill:#000000;fill-opacity:1">
      <use
         height="100%"
         width="100%"
         id="use321"
         y="149.554"
         x="400.96274"
         xlink:href="#glyph1-22" />
    </g>
    <g
       id="g343"
       style="fill:#000000;fill-opacity:1">
      <use
         height="100%"
         width="100%"
         id="use325"
         y="149.554"
         x="408.99557"
         xlink:href="#glyph1-23" />
      <use
         height="100%"
         width="100%"
         id="use327"
         y="149.554"
         x="414.53079"
         xlink:href="#glyph1-17" />
      <use
         height="100%"
         width="100%"
         id="use329"
         y="149.554"
         x="417.2984"
         xlink:href="#glyph1-4" />
      <use
         height="100%"
         width="100%"
         id="use331"
         y="149.554"
         x="421.17285"
         xlink:href="#glyph1-8" />
      <use
         height="100%"
         width="100%"
         id="use333"
         y="149.554"
         x="423.94049"
         xlink:href="#glyph1-7" />
      <use
         height="100%"
         width="100%"
         id="use335"
         y="149.554"
         x="429.47571"
         xlink:href="#glyph1-17" />
      <use
         height="100%"
         width="100%"
         id="use337"
         y="149.554"
         x="432.24332"
         xlink:href="#glyph1-8" />
      <use
         height="100%"
         width="100%"
         id="use339"
         y="149.554"
         x="435.01093"
         xlink:href="#glyph1-6" />
      <use
         height="100%"
         width="100%"
         id="use341"
         y="149.554"
         x="439.43829"
         xlink:href="#glyph1-24" />
    </g>
    <g
       id="g347"
       style="fill:#000000;fill-opacity:1">
      <use
         height="100%"
         width="100%"
         id="use345"
         y="149.554"
         x="448.29108"
         xlink:href="#glyph1-21" />
    </g>
    <g
       id="g351"
       style="fill:#000000;fill-opacity:1">
      <use
         height="100%"
         width="100%"
         id="use349"
         y="149.554"
         x="453.54733"
         xlink:href="#glyph1-25" />
    </g>
    <g
       id="g355"
       style="fill:#000000;fill-opacity:1">
      <use
         height="100%"
         width="100%"
         id="use353"
         y="165.339"
         x="240.037"
         xlink:href="#glyph1-18" />
    </g>
    <path
       id="path357"
       d="m 258.69922,168.32812 h 14.28125 v -12.39843 h -14.28125 z m 0,0"
       style="fill:#fff000;fill-opacity:1;fill-rule:nonzero;stroke:none" />
    <g
       id="g363"
       style="fill:#8a0000;fill-opacity:1">
      <use
         height="100%"
         width="100%"
         id="use359"
         y="165.339"
         x="261.689"
         xlink:href="#glyph1-19" />
      <use
         height="100%"
         width="100%"
         id="use361"
         y="165.339"
         x="265.00952"
         xlink:href="#glyph1-2" />
    </g>
    <g
       id="g367"
       style="fill:#000000;fill-opacity:1">
      <use
         height="100%"
         width="100%"
         id="use365"
         y="165.339"
         x="288.32202"
         xlink:href="#glyph1-1" />
    </g>
    <g
       id="g373"
       style="fill:#000000;fill-opacity:1">
      <use
         height="100%"
         width="100%"
         id="use369"
         y="165.339"
         x="306.92218"
         xlink:href="#glyph1-19" />
      <use
         height="100%"
         width="100%"
         id="use371"
         y="165.339"
         x="310.24274"
         xlink:href="#glyph1-2" />
    </g>
    <path
       id="path375"
       transform="matrix(1,0,0,-1,321.399,168.925)"
       d="M -5.625e-4,-7.8125e-4 V 12.995312"
       style="fill:none;stroke:#000000;stroke-width:0.398;stroke-linecap:butt;stroke-linejoin:miter;stroke-miterlimit:10;stroke-opacity:1" />
    <g
       id="g381"
       style="fill:#000000;fill-opacity:1">
      <use
         height="100%"
         width="100%"
         id="use377"
         y="165.339"
         x="327.57501"
         xlink:href="#glyph1-19" />
      <use
         height="100%"
         width="100%"
         id="use379"
         y="165.339"
         x="330.89554"
         xlink:href="#glyph1-26" />
    </g>
    <g
       id="g387"
       style="fill:#000000;fill-opacity:1">
      <use
         height="100%"
         width="100%"
         id="use383"
         y="165.339"
         x="357.79456"
         xlink:href="#glyph1-6" />
      <use
         height="100%"
         width="100%"
         id="use385"
         y="165.339"
         x="362.22192"
         xlink:href="#glyph1-12" />
    </g>
    <g
       id="g399"
       style="fill:#000000;fill-opacity:1">
      <use
         height="100%"
         width="100%"
         id="use389"
         y="165.339"
         x="367.47821"
         xlink:href="#glyph1-4" />
      <use
         height="100%"
         width="100%"
         id="use391"
         y="165.339"
         x="371.35266"
         xlink:href="#glyph1-13" />
      <use
         height="100%"
         width="100%"
         id="use393"
         y="165.339"
         x="375.255"
         xlink:href="#glyph1-8" />
      <use
         height="100%"
         width="100%"
         id="use395"
         y="165.339"
         x="378.02261"
         xlink:href="#glyph1-6" />
      <use
         height="100%"
         width="100%"
         id="use397"
         y="165.339"
         x="382.45001"
         xlink:href="#glyph1-11" />
    </g>
    <g
       id="g405"
       style="fill:#000000;fill-opacity:1">
      <use
         height="100%"
         width="100%"
         id="use401"
         y="165.339"
         x="389.70676"
         xlink:href="#glyph1-8" />
      <use
         height="100%"
         width="100%"
         id="use403"
         y="165.339"
         x="392.47437"
         xlink:href="#glyph1-12" />
    </g>
    <g
       id="g419"
       style="fill:#000000;fill-opacity:1">
      <use
         height="100%"
         width="100%"
         id="use407"
         y="165.339"
         x="401.32712"
         xlink:href="#glyph1-16" />
      <use
         height="100%"
         width="100%"
         id="use409"
         y="165.339"
         x="405.75452"
         xlink:href="#glyph1-10" />
      <use
         height="100%"
         width="100%"
         id="use411"
         y="165.339"
         x="410.73581"
         xlink:href="#glyph1-17" />
      <use
         height="100%"
         width="100%"
         id="use413"
         y="165.339"
         x="413.50342"
         xlink:href="#glyph1-23" />
      <use
         height="100%"
         width="100%"
         id="use415"
         y="165.339"
         x="419.03864"
         xlink:href="#glyph1-22" />
      <use
         height="100%"
         width="100%"
         id="use417"
         y="165.339"
         x="427.34048"
         xlink:href="#glyph1-12" />
    </g>
    <g
       id="g423"
       style="fill:#000000;fill-opacity:1">
      <use
         height="100%"
         width="100%"
         id="use421"
         y="165.339"
         x="436.19324"
         xlink:href="#glyph1-1" />
    </g>
    <g
       id="g429"
       style="fill:#000000;fill-opacity:1">
      <use
         height="100%"
         width="100%"
         id="use425"
         y="165.339"
         x="444.50204"
         xlink:href="#glyph1-10" />
      <use
         height="100%"
         width="100%"
         id="use427"
         y="165.339"
         x="449.48334"
         xlink:href="#glyph1-27" />
    </g>
    <g
       id="g433"
       style="fill:#000000;fill-opacity:1">
      <use
         height="100%"
         width="100%"
         id="use431"
         y="165.339"
         x="455.845"
         xlink:href="#glyph2-1" />
    </g>
    <g
       id="g437"
       style="fill:#000000;fill-opacity:1">
      <use
         height="100%"
         width="100%"
         id="use435"
         y="178.33501"
         x="240.037"
         xlink:href="#glyph1-18" />
    </g>
    <path
       id="path439"
       d="m 258.69922,181.32422 h 14.28125 v -12.39844 h -14.28125 z m 0,0"
       style="fill:#fff000;fill-opacity:1;fill-rule:nonzero;stroke:none" />
    <g
       id="g443"
       style="fill:#8a0000;fill-opacity:1">
      <use
         height="100%"
         width="100%"
         id="use441"
         y="178.33501"
         x="265.01001"
         xlink:href="#glyph1-1" />
    </g>
    <g
       id="g449"
       style="fill:#000000;fill-opacity:1">
      <use
         height="100%"
         width="100%"
         id="use445"
         y="178.33501"
         x="286.65872"
         xlink:href="#glyph1-19" />
      <use
         height="100%"
         width="100%"
         id="use447"
         y="178.33501"
         x="289.97928"
         xlink:href="#glyph1-1" />
    </g>
    <g
       id="g453"
       style="fill:#000000;fill-opacity:1">
      <use
         height="100%"
         width="100%"
         id="use451"
         y="178.33501"
         x="308.57944"
         xlink:href="#glyph1-1" />
    </g>
    <path
       id="path455"
       transform="matrix(1,0,0,-1,321.399,181.921)"
       d="M -5.625e-4,-8.75e-4 V 12.995219"
       style="fill:none;stroke:#000000;stroke-width:0.398;stroke-linecap:butt;stroke-linejoin:miter;stroke-miterlimit:10;stroke-opacity:1" />
    <g
       id="g459"
       style="fill:#000000;fill-opacity:1">
      <use
         height="100%"
         width="100%"
         id="use457"
         y="178.33501"
         x="329.23599"
         xlink:href="#glyph1-2" />
    </g>
    <g
       id="g463"
       style="fill:#000000;fill-opacity:1">
      <use
         height="100%"
         width="100%"
         id="use461"
         y="189.036"
         x="145.97301"
         xlink:href="#glyph0-1" />
    </g>
    <g
       id="g467"
       style="fill:#000000;fill-opacity:1">
      <use
         height="100%"
         width="100%"
         id="use465"
         y="206.57001"
         x="145.97301"
         xlink:href="#glyph0-2" />
    </g>
    <g
       id="g471"
       style="fill:#000000;fill-opacity:1">
      <use
         height="100%"
         width="100%"
         id="use469"
         y="212.548"
         x="145.97301"
         xlink:href="#glyph0-2" />
    </g>
    <g
       id="g475"
       style="fill:#000000;fill-opacity:1">
      <use
         height="100%"
         width="100%"
         id="use473"
         y="218.924"
         x="145.97301"
         xlink:href="#glyph0-3" />
    </g>
    <g
       id="g479"
       style="fill:#000000;fill-opacity:1">
      <use
         height="100%"
         width="100%"
         id="use477"
         y="189.036"
         x="226.42101"
         xlink:href="#glyph0-4" />
    </g>
    <g
       id="g483"
       style="fill:#000000;fill-opacity:1">
      <use
         height="100%"
         width="100%"
         id="use481"
         y="206.57001"
         x="226.42101"
         xlink:href="#glyph0-5" />
    </g>
    <g
       id="g487"
       style="fill:#000000;fill-opacity:1">
      <use
         height="100%"
         width="100%"
         id="use485"
         y="212.548"
         x="226.42101"
         xlink:href="#glyph0-5" />
    </g>
    <g
       id="g491"
       style="fill:#000000;fill-opacity:1">
      <use
         height="100%"
         width="100%"
         id="use489"
         y="218.924"
         x="226.42101"
         xlink:href="#glyph0-6" />
    </g>
    <g
       id="g495"
       style="fill:#000000;fill-opacity:1">
      <use
         height="100%"
         width="100%"
         id="use493"
         y="189.036"
         x="231.32001"
         xlink:href="#glyph0-1" />
    </g>
    <g
       id="g499"
       style="fill:#000000;fill-opacity:1">
      <use
         height="100%"
         width="100%"
         id="use497"
         y="206.57001"
         x="231.32001"
         xlink:href="#glyph0-2" />
    </g>
    <g
       id="g503"
       style="fill:#000000;fill-opacity:1">
      <use
         height="100%"
         width="100%"
         id="use501"
         y="212.548"
         x="231.32001"
         xlink:href="#glyph0-2" />
    </g>
    <g
       id="g507"
       style="fill:#000000;fill-opacity:1">
      <use
         height="100%"
         width="100%"
         id="use505"
         y="218.924"
         x="231.32001"
         xlink:href="#glyph0-3" />
    </g>
    <g
       id="g511"
       style="fill:#000000;fill-opacity:1">
      <use
         height="100%"
         width="100%"
         id="use509"
         y="189.036"
         x="335.87799"
         xlink:href="#glyph0-4" />
    </g>
    <g
       id="g515"
       style="fill:#000000;fill-opacity:1">
      <use
         height="100%"
         width="100%"
         id="use513"
         y="206.57001"
         x="335.87799"
         xlink:href="#glyph0-5" />
    </g>
    <g
       id="g519"
       style="fill:#000000;fill-opacity:1">
      <use
         height="100%"
         width="100%"
         id="use517"
         y="212.548"
         x="335.87799"
         xlink:href="#glyph0-5" />
    </g>
    <g
       id="g523"
       style="fill:#000000;fill-opacity:1">
      <use
         height="100%"
         width="100%"
         id="use521"
         y="218.924"
         x="335.87799"
         xlink:href="#glyph0-6" />
    </g>
    <g
       id="g531"
       style="fill:#000000;fill-opacity:1">
      <use
         height="100%"
         width="100%"
         id="use525"
         y="195.679"
         x="357.79501"
         xlink:href="#glyph1-4" />
      <use
         height="100%"
         width="100%"
         id="use527"
         y="195.679"
         x="361.66946"
         xlink:href="#glyph1-5" />
      <use
         height="100%"
         width="100%"
         id="use529"
         y="195.679"
         x="367.20468"
         xlink:href="#glyph1-6" />
    </g>
    <g
       id="g537"
       style="fill:#000000;fill-opacity:1">
      <use
         height="100%"
         width="100%"
         id="use533"
         y="195.679"
         x="374.94962"
         xlink:href="#glyph1-6" />
      <use
         height="100%"
         width="100%"
         id="use535"
         y="195.679"
         x="379.37698"
         xlink:href="#glyph1-12" />
    </g>
    <g
       id="g549"
       style="fill:#000000;fill-opacity:1">
      <use
         height="100%"
         width="100%"
         id="use539"
         y="195.679"
         x="384.64322"
         xlink:href="#glyph1-4" />
      <use
         height="100%"
         width="100%"
         id="use541"
         y="195.679"
         x="388.51767"
         xlink:href="#glyph1-13" />
      <use
         height="100%"
         width="100%"
         id="use543"
         y="195.679"
         x="392.42001"
         xlink:href="#glyph1-8" />
      <use
         height="100%"
         width="100%"
         id="use545"
         y="195.679"
         x="395.18762"
         xlink:href="#glyph1-6" />
      <use
         height="100%"
         width="100%"
         id="use547"
         y="195.679"
         x="399.61502"
         xlink:href="#glyph1-11" />
    </g>
    <g
       id="g553"
       style="fill:#000000;fill-opacity:1">
      <use
         height="100%"
         width="100%"
         id="use551"
         y="195.679"
         x="406.86179"
         xlink:href="#glyph1-21" />
    </g>
    <g
       id="g561"
       style="fill:#000000;fill-opacity:1">
      <use
         height="100%"
         width="100%"
         id="use555"
         y="195.679"
         x="412.67596"
         xlink:href="#glyph1-6" />
      <use
         height="100%"
         width="100%"
         id="use557"
         y="195.679"
         x="417.10336"
         xlink:href="#glyph1-17" />
      <use
         height="100%"
         width="100%"
         id="use559"
         y="195.679"
         x="419.87097"
         xlink:href="#glyph1-10" />
    </g>
    <g
       id="g565"
       style="fill:#000000;fill-opacity:1">
      <use
         height="100%"
         width="100%"
         id="use563"
         y="195.679"
         x="424.5733"
         xlink:href="#glyph1-14" />
    </g>
    <g
       id="g573"
       style="fill:#000000;fill-opacity:1">
      <use
         height="100%"
         width="100%"
         id="use567"
         y="195.679"
         x="435.08585"
         xlink:href="#glyph1-4" />
      <use
         height="100%"
         width="100%"
         id="use569"
         y="195.679"
         x="438.9603"
         xlink:href="#glyph1-5" />
      <use
         height="100%"
         width="100%"
         id="use571"
         y="195.679"
         x="444.49551"
         xlink:href="#glyph1-6" />
    </g>
    <g
       id="g581"
       style="fill:#000000;fill-opacity:1">
      <use
         height="100%"
         width="100%"
         id="use575"
         y="195.679"
         x="452.2504"
         xlink:href="#glyph1-7" />
      <use
         height="100%"
         width="100%"
         id="use577"
         y="195.679"
         x="457.78564"
         xlink:href="#glyph1-8" />
      <use
         height="100%"
         width="100%"
         id="use579"
         y="195.679"
         x="460.55325"
         xlink:href="#glyph1-9" />
    </g>
    <g
       id="g587"
       style="fill:#000000;fill-opacity:1">
      <use
         height="100%"
         width="100%"
         id="use583"
         y="195.679"
         x="465.53256"
         xlink:href="#glyph1-10" />
      <use
         height="100%"
         width="100%"
         id="use585"
         y="195.679"
         x="470.51385"
         xlink:href="#glyph1-4" />
    </g>
    <g
       id="g595"
       style="fill:#000000;fill-opacity:1">
      <use
         height="100%"
         width="100%"
         id="use589"
         y="207.634"
         x="357.79501"
         xlink:href="#glyph1-28" />
      <use
         height="100%"
         width="100%"
         id="use591"
         y="207.634"
         x="362.77631"
         xlink:href="#glyph1-13" />
      <use
         height="100%"
         width="100%"
         id="use593"
         y="207.634"
         x="366.67865"
         xlink:href="#glyph1-6" />
    </g>
    <g
       id="g605"
       style="fill:#000000;fill-opacity:1">
      <use
         height="100%"
         width="100%"
         id="use597"
         y="207.634"
         x="374.42358"
         xlink:href="#glyph1-29" />
      <use
         height="100%"
         width="100%"
         id="use599"
         y="207.634"
         x="378.85095"
         xlink:href="#glyph1-6" />
      <use
         height="100%"
         width="100%"
         id="use601"
         y="207.634"
         x="383.27832"
         xlink:href="#glyph1-13" />
      <use
         height="100%"
         width="100%"
         id="use603"
         y="207.634"
         x="387.18069"
         xlink:href="#glyph1-10" />
    </g>
    <g
       id="g611"
       style="fill:#000000;fill-opacity:1">
      <use
         height="100%"
         width="100%"
         id="use607"
         y="207.634"
         x="392.44095"
         xlink:href="#glyph1-6" />
      <use
         height="100%"
         width="100%"
         id="use609"
         y="207.634"
         x="396.86832"
         xlink:href="#glyph1-24" />
    </g>
    <g
       id="g621"
       style="fill:#000000;fill-opacity:1">
      <use
         height="100%"
         width="100%"
         id="use613"
         y="207.634"
         x="405.73105"
         xlink:href="#glyph1-10" />
      <use
         height="100%"
         width="100%"
         id="use615"
         y="207.634"
         x="410.71234"
         xlink:href="#glyph1-23" />
      <use
         height="100%"
         width="100%"
         id="use617"
         y="207.634"
         x="416.24756"
         xlink:href="#glyph1-4" />
      <use
         height="100%"
         width="100%"
         id="use619"
         y="207.634"
         x="420.12201"
         xlink:href="#glyph1-30" />
    </g>
    <g
       id="g629"
       style="fill:#000000;fill-opacity:1">
      <use
         height="100%"
         width="100%"
         id="use623"
         y="231.54401"
         x="367.758"
         xlink:href="#glyph1-23" />
      <use
         height="100%"
         width="100%"
         id="use625"
         y="231.54401"
         x="373.29321"
         xlink:href="#glyph1-11" />
      <use
         height="100%"
         width="100%"
         id="use627"
         y="231.54401"
         x="377.22247"
         xlink:href="#glyph1-6" />
    </g>
    <g
       id="g633"
       style="fill:#000000;fill-opacity:1">
      <use
         height="100%"
         width="100%"
         id="use631"
         y="231.54401"
         x="384.97101"
         xlink:href="#glyph2-2" />
    </g>
    <g
       id="g637"
       style="fill:#000000;fill-opacity:1">
      <use
         height="100%"
         width="100%"
         id="use635"
         y="231.54401"
         x="394.14899"
         xlink:href="#glyph1-31" />
    </g>
    <g
       id="g641"
       style="fill:#000000;fill-opacity:1">
      <use
         height="100%"
         width="100%"
         id="use639"
         y="231.54401"
         x="404.66501"
         xlink:href="#glyph3-1" />
    </g>
    <g
       id="g645"
       style="fill:#000000;fill-opacity:1">
      <use
         height="100%"
         width="100%"
         id="use643"
         y="227.62199"
         x="413.18701"
         xlink:href="#glyph4-1" />
    </g>
    <path
       id="path647"
       transform="matrix(1,0,0,-1,412.413,229.054)"
       d="M 0.0010625,-6.875e-4 H 4.106531"
       style="fill:none;stroke:#000000;stroke-width:0.398;stroke-linecap:butt;stroke-linejoin:miter;stroke-miterlimit:10;stroke-opacity:1" />
    <g
       id="g651"
       style="fill:#000000;fill-opacity:1">
      <use
         height="100%"
         width="100%"
         id="use649"
         y="234.98"
         x="412.41299"
         xlink:href="#glyph4-2" />
    </g>
    <g
       id="g655"
       style="fill:#000000;fill-opacity:1">
      <use
         height="100%"
         width="100%"
         id="use653"
         y="195.966"
         x="154.69"
         xlink:href="#glyph1-1" />
    </g>
    <path
       id="path657"
       d="m 178.82031,198.95312 h 13.72656 v -12.39453 h -13.72656 z m 0,0"
       style="fill:#fff000;fill-opacity:1;fill-rule:nonzero;stroke:none" />
    <g
       id="g661"
       style="fill:#8a0000;fill-opacity:1">
      <use
         height="100%"
         width="100%"
         id="use659"
         y="195.966"
         x="184.578"
         xlink:href="#glyph1-18" />
    </g>
    <g
       id="g665"
       style="fill:#000000;fill-opacity:1">
      <use
         height="100%"
         width="100%"
         id="use663"
         y="195.966"
         x="204.5032"
         xlink:href="#glyph1-18" />
    </g>
    <g
       id="g669"
       style="fill:#000000;fill-opacity:1">
      <use
         height="100%"
         width="100%"
         id="use667"
         y="195.966"
         x="221.43962"
         xlink:href="#glyph1-18" />
    </g>
    <g
       id="g673"
       style="fill:#000000;fill-opacity:1">
      <use
         height="100%"
         width="100%"
         id="use671"
         y="195.966"
         x="240.03979"
         xlink:href="#glyph1-1" />
    </g>
    <g
       id="g677"
       style="fill:#000000;fill-opacity:1">
      <use
         height="100%"
         width="100%"
         id="use675"
         y="195.966"
         x="263.35226"
         xlink:href="#glyph1-2" />
    </g>
    <g
       id="g681"
       style="fill:#000000;fill-opacity:1">
      <use
         height="100%"
         width="100%"
         id="use679"
         y="195.966"
         x="288.31854"
         xlink:href="#glyph1-2" />
    </g>
    <g
       id="g685"
       style="fill:#000000;fill-opacity:1">
      <use
         height="100%"
         width="100%"
         id="use683"
         y="195.966"
         x="308.58249"
         xlink:href="#glyph1-1" />
    </g>
    <path
       id="path687"
       transform="matrix(1,0,0,-1,321.399,199.552)"
       d="M -5.625e-4,0.00121875 V 12.997313"
       style="fill:none;stroke:#000000;stroke-width:0.398;stroke-linecap:butt;stroke-linejoin:miter;stroke-miterlimit:10;stroke-opacity:1" />
    <g
       id="g691"
       style="fill:#000000;fill-opacity:1">
      <use
         height="100%"
         width="100%"
         id="use689"
         y="195.966"
         x="329.23599"
         xlink:href="#glyph1-3" />
    </g>
    <g
       id="g695"
       style="fill:#000000;fill-opacity:1">
      <use
         height="100%"
         width="100%"
         id="use693"
         y="208.961"
         x="154.69"
         xlink:href="#glyph1-18" />
    </g>
    <path
       id="path697"
       d="m 178.82031,211.94922 h 13.72656 v -12.39844 h -13.72656 z m 0,0"
       style="fill:#fff000;fill-opacity:1;fill-rule:nonzero;stroke:none" />
    <g
       id="g701"
       style="fill:#8a0000;fill-opacity:1">
      <use
         height="100%"
         width="100%"
         id="use699"
         y="208.961"
         x="184.578"
         xlink:href="#glyph1-1" />
    </g>
    <g
       id="g705"
       style="fill:#000000;fill-opacity:1">
      <use
         height="100%"
         width="100%"
         id="use703"
         y="208.961"
         x="204.5032"
         xlink:href="#glyph1-18" />
    </g>
    <g
       id="g709"
       style="fill:#000000;fill-opacity:1">
      <use
         height="100%"
         width="100%"
         id="use707"
         y="208.961"
         x="221.43962"
         xlink:href="#glyph1-18" />
    </g>
    <g
       id="g713"
       style="fill:#000000;fill-opacity:1">
      <use
         height="100%"
         width="100%"
         id="use711"
         y="208.961"
         x="240.03979"
         xlink:href="#glyph1-18" />
    </g>
    <g
       id="g717"
       style="fill:#000000;fill-opacity:1">
      <use
         height="100%"
         width="100%"
         id="use715"
         y="208.961"
         x="263.35226"
         xlink:href="#glyph1-1" />
    </g>
    <g
       id="g723"
       style="fill:#000000;fill-opacity:1">
      <use
         height="100%"
         width="100%"
         id="use719"
         y="208.961"
         x="286.66476"
         xlink:href="#glyph1-19" />
      <use
         height="100%"
         width="100%"
         id="use721"
         y="208.961"
         x="289.98529"
         xlink:href="#glyph1-1" />
    </g>
    <g
       id="g727"
       style="fill:#000000;fill-opacity:1">
      <use
         height="100%"
         width="100%"
         id="use725"
         y="208.961"
         x="308.5755"
         xlink:href="#glyph1-18" />
    </g>
    <path
       id="path729"
       transform="matrix(1,0,0,-1,321.399,212.548)"
       d="M -5.625e-4,0.001125 V 12.997219"
       style="fill:none;stroke:#000000;stroke-width:0.398;stroke-linecap:butt;stroke-linejoin:miter;stroke-miterlimit:10;stroke-opacity:1" />
    <g
       id="g733"
       style="fill:#000000;fill-opacity:1">
      <use
         height="100%"
         width="100%"
         id="use731"
         y="208.961"
         x="329.23599"
         xlink:href="#glyph1-18" />
    </g>
    <g
       id="g737"
       style="fill:#000000;fill-opacity:1">
      <use
         height="100%"
         width="100%"
         id="use735"
         y="221.957"
         x="154.69"
         xlink:href="#glyph1-18" />
    </g>
    <path
       id="path739"
       d="m 178.82031,224.94531 h 13.72656 v -12.39844 h -13.72656 z m 0,0"
       style="fill:#fff000;fill-opacity:1;fill-rule:nonzero;stroke:none" />
    <g
       id="g743"
       style="fill:#8a0000;fill-opacity:1">
      <use
         height="100%"
         width="100%"
         id="use741"
         y="221.957"
         x="184.578"
         xlink:href="#glyph1-2" />
    </g>
    <g
       id="g747"
       style="fill:#000000;fill-opacity:1">
      <use
         height="100%"
         width="100%"
         id="use745"
         y="221.957"
         x="204.5032"
         xlink:href="#glyph1-1" />
    </g>
    <g
       id="g751"
       style="fill:#000000;fill-opacity:1">
      <use
         height="100%"
         width="100%"
         id="use749"
         y="221.957"
         x="221.43962"
         xlink:href="#glyph1-18" />
    </g>
    <g
       id="g755"
       style="fill:#000000;fill-opacity:1">
      <use
         height="100%"
         width="100%"
         id="use753"
         y="221.957"
         x="240.03979"
         xlink:href="#glyph1-18" />
    </g>
    <g
       id="g759"
       style="fill:#000000;fill-opacity:1">
      <use
         height="100%"
         width="100%"
         id="use757"
         y="221.957"
         x="263.35226"
         xlink:href="#glyph1-18" />
    </g>
    <g
       id="g765"
       style="fill:#000000;fill-opacity:1">
      <use
         height="100%"
         width="100%"
         id="use761"
         y="221.957"
         x="286.66476"
         xlink:href="#glyph1-19" />
      <use
         height="100%"
         width="100%"
         id="use763"
         y="221.957"
         x="289.98529"
         xlink:href="#glyph1-1" />
    </g>
    <g
       id="g771"
       style="fill:#000000;fill-opacity:1">
      <use
         height="100%"
         width="100%"
         id="use767"
         y="221.957"
         x="306.92172"
         xlink:href="#glyph1-19" />
      <use
         height="100%"
         width="100%"
         id="use769"
         y="221.957"
         x="310.24225"
         xlink:href="#glyph1-2" />
    </g>
    <path
       id="path773"
       transform="matrix(1,0,0,-1,321.399,225.544)"
       d="M -5.625e-4,0.00103125 V 12.997125"
       style="fill:none;stroke:#000000;stroke-width:0.398;stroke-linecap:butt;stroke-linejoin:miter;stroke-miterlimit:10;stroke-opacity:1" />
    <g
       id="g779"
       style="fill:#000000;fill-opacity:1">
      <use
         height="100%"
         width="100%"
         id="use775"
         y="221.957"
         x="327.57501"
         xlink:href="#glyph1-19" />
      <use
         height="100%"
         width="100%"
         id="use777"
         y="221.957"
         x="330.89554"
         xlink:href="#glyph1-26" />
    </g>
    <g
       id="g783"
       style="fill:#000000;fill-opacity:1">
      <use
         height="100%"
         width="100%"
         id="use781"
         y="234.953"
         x="154.69"
         xlink:href="#glyph1-18" />
    </g>
    <path
       id="path785"
       d="m 171.625,237.94141 h 17.60156 V 225.54297 H 171.625 Z m 0,0"
       style="fill:#fff000;fill-opacity:1;fill-rule:nonzero;stroke:none" />
    <g
       id="g791"
       style="fill:#8a0000;fill-opacity:1">
      <use
         height="100%"
         width="100%"
         id="use787"
         y="234.953"
         x="174.61501"
         xlink:href="#glyph1-19" />
      <use
         height="100%"
         width="100%"
         id="use789"
         y="234.953"
         x="177.93553"
         xlink:href="#glyph1-1" />
    </g>
    <g
       id="g795"
       style="fill:#000000;fill-opacity:1">
      <use
         height="100%"
         width="100%"
         id="use793"
         y="234.953"
         x="204.50578"
         xlink:href="#glyph1-18" />
    </g>
    <g
       id="g799"
       style="fill:#000000;fill-opacity:1">
      <use
         height="100%"
         width="100%"
         id="use797"
         y="234.953"
         x="221.44221"
         xlink:href="#glyph1-1" />
    </g>
    <g
       id="g803"
       style="fill:#000000;fill-opacity:1">
      <use
         height="100%"
         width="100%"
         id="use801"
         y="234.953"
         x="240.03242"
         xlink:href="#glyph1-18" />
    </g>
    <g
       id="g807"
       style="fill:#000000;fill-opacity:1">
      <use
         height="100%"
         width="100%"
         id="use805"
         y="234.953"
         x="263.34491"
         xlink:href="#glyph1-18" />
    </g>
    <g
       id="g811"
       style="fill:#000000;fill-opacity:1">
      <use
         height="100%"
         width="100%"
         id="use809"
         y="234.953"
         x="288.32114"
         xlink:href="#glyph1-18" />
    </g>
    <g
       id="g815"
       style="fill:#000000;fill-opacity:1">
      <use
         height="100%"
         width="100%"
         id="use813"
         y="234.953"
         x="308.5751"
         xlink:href="#glyph1-1" />
    </g>
    <path
       id="path817"
       transform="matrix(1,0,0,-1,321.399,238.54)"
       d="M -5.625e-4,9.375e-4 V 12.997031"
       style="fill:none;stroke:#000000;stroke-width:0.398;stroke-linecap:butt;stroke-linejoin:miter;stroke-miterlimit:10;stroke-opacity:1" />
    <g
       id="g821"
       style="fill:#000000;fill-opacity:1">
      <use
         height="100%"
         width="100%"
         id="use819"
         y="234.953"
         x="329.23599"
         xlink:href="#glyph1-2" />
    </g>
  </g>
</svg>
