<?xml version="1.0" encoding="UTF-8" standalone="no"?>
<svg
   xmlns:dc="http://purl.org/dc/elements/1.1/"
   xmlns:cc="http://creativecommons.org/ns#"
   xmlns:rdf="http://www.w3.org/1999/02/22-rdf-syntax-ns#"
   xmlns:svg="http://www.w3.org/2000/svg"
   xmlns="http://www.w3.org/2000/svg"
   xmlns:xlink="http://www.w3.org/1999/xlink"
   id="svg452"
   version="1.1"
   viewBox="0 0 234.83064 59.765884"
   height="59.765884pt"
   width="234.83064pt">
  <metadata
     id="metadata456">
    <rdf:RDF>
      <cc:Work
         rdf:about="">
        <dc:format>image/svg+xml</dc:format>
        <dc:type
           rdf:resource="http://purl.org/dc/dcmitype/StillImage" />
      </cc:Work>
    </rdf:RDF>
  </metadata>
  <defs
     id="defs97">
    <g
       id="g95">
      <symbol
         style="overflow:visible"
         id="glyph0-0"
         overflow="visible">
        <path
           id="path2"
           d=""
           style="stroke:none" />
      </symbol>
      <symbol
         style="overflow:visible"
         id="glyph0-1"
         overflow="visible">
        <path
           id="path5"
           d="m 3.84375,-4.09375 c 0,-0.296875 -0.234375,-0.53125 -0.53125,-0.53125 -0.28125,0 -0.515625,0.234375 -0.515625,0.53125 0,0.28125 0.234375,0.53125 0.515625,0.53125 0.28125,0 0.53125,-0.234375 0.53125,-0.53125 z m 2.5,4.3125 c 0,-0.28125 -0.25,-0.53125 -0.53125,-0.53125 -0.296875,0 -0.53125,0.25 -0.53125,0.53125 0,0.296875 0.234375,0.53125 0.53125,0.53125 0.28125,0 0.53125,-0.234375 0.53125,-0.53125 z m -4.984375,0 c 0,-0.28125 -0.25,-0.53125 -0.53125,-0.53125 -0.296875,0 -0.53125,0.25 -0.53125,0.53125 0,0.296875 0.234375,0.53125 0.53125,0.53125 0.28125,0 0.53125,-0.234375 0.53125,-0.53125 z m 0,0"
           style="stroke:none" />
      </symbol>
      <symbol
         style="overflow:visible"
         id="glyph1-0"
         overflow="visible">
        <path
           id="path8"
           d=""
           style="stroke:none" />
      </symbol>
      <symbol
         style="overflow:visible"
         id="glyph1-1"
         overflow="visible">
        <path
           id="path11"
           d="M 3.734375,17.640625 C 3.953125,17.640625 4,17.640625 4,17.5 4.03125,10.515625 4.828125,4.71875 8.328125,-0.15625 c 0.0625,-0.09375 0.0625,-0.109375 0.0625,-0.140625 0,-0.09375 -0.0625,-0.09375 -0.21875,-0.09375 -0.171875,0 -0.1875,0 -0.203125,0.015625 -0.046875,0.03125 -1.3125,1.484375 -2.3125,3.5 -1.3125,2.625 -2.140625,5.640625 -2.515625,9.28125 -0.03125,0.296875 -0.234375,2.375 -0.234375,4.734375 v 0.390625 c 0,0.109375 0.0625,0.109375 0.28125,0.109375 z m 0,0"
           style="stroke:none" />
      </symbol>
      <symbol
         style="overflow:visible"
         id="glyph1-2"
         overflow="visible">
        <path
           id="path14"
           d="M 4,0.171875 C 4,-0.09375 4,-0.09375 3.734375,-0.09375 H 3.1875 c -0.28125,0 -0.28125,0 -0.28125,0.265625 V 5.8125 c 0,0.265625 0,0.265625 0.28125,0.265625 H 3.734375 C 4,6.078125 4,6.078125 4,5.8125 Z m 0,0"
           style="stroke:none" />
      </symbol>
      <symbol
         style="overflow:visible"
         id="glyph1-3"
         overflow="visible">
        <path
           id="path17"
           d="m 3.1875,-0.5 c -0.21875,0 -0.28125,0 -0.28125,0.109375 V 0 c 0,6.09375 1.078125,9.65625 1.390625,10.671875 C 4.96875,12.875 6.078125,15.21875 7.75,17.265625 7.890625,17.453125 7.9375,17.5 7.96875,17.515625 8,17.53125 8,17.53125 8.171875,17.53125 c 0.15625,0 0.21875,0 0.21875,-0.09375 0,-0.01563 0,-0.04687 -0.0625,-0.125 C 5.015625,12.703125 4.015625,7.15625 4,-0.359375 4,-0.5 3.953125,-0.5 3.734375,-0.5 Z m 0,0"
           style="stroke:none" />
      </symbol>
      <symbol
         style="overflow:visible"
         id="glyph1-4"
         overflow="visible">
        <path
           id="path20"
           d="M 5.8125,17.140625 C 5.8125,11.0625 4.71875,7.484375 4.421875,6.484375 3.734375,4.265625 2.625,1.9375 0.96875,-0.125 0.8125,-0.296875 0.78125,-0.34375 0.734375,-0.375 c -0.015625,0 -0.03125,-0.015625 -0.1875,-0.015625 -0.140625,0 -0.234375,0 -0.234375,0.09375 0,0.03125 0,0.046875 0.140625,0.234375 3.46875,4.84375 4.234375,10.8125 4.25,17.5625 0,0.140625 0.0625,0.140625 0.28125,0.140625 H 5.53125 c 0.203125,0 0.265625,0 0.28125,-0.109375 z m 0,0"
           style="stroke:none" />
      </symbol>
      <symbol
         style="overflow:visible"
         id="glyph1-5"
         overflow="visible">
        <path
           id="path23"
           d="M 5.8125,0.171875 C 5.8125,-0.09375 5.796875,-0.09375 5.53125,-0.09375 H 4.984375 c -0.265625,0 -0.28125,0 -0.28125,0.265625 V 5.8125 c 0,0.265625 0.015625,0.265625 0.28125,0.265625 H 5.53125 c 0.265625,0 0.28125,0 0.28125,-0.265625 z m 0,0"
           style="stroke:none" />
      </symbol>
      <symbol
         style="overflow:visible"
         id="glyph1-6"
         overflow="visible">
        <path
           id="path26"
           d="M 5.8125,-0.390625 C 5.796875,-0.5 5.734375,-0.5 5.53125,-0.5 H 4.984375 c -0.21875,0 -0.28125,0 -0.28125,0.140625 0,1.03125 -0.015625,3.40625 -0.265625,5.875 C 3.890625,10.671875 2.578125,14.25 0.390625,17.3125 0.3125,17.390625 0.3125,17.421875 0.3125,17.4375 c 0,0.09375 0.09375,0.09375 0.234375,0.09375 0.15625,0 0.1875,0 0.203125,-0.01563 C 0.78125,17.484375 2.046875,16.03125 3.0625,14.03125 4.375,11.390625 5.203125,8.375 5.578125,4.75 5.609375,4.4375 5.8125,2.359375 5.8125,0 Z m 0,0"
           style="stroke:none" />
      </symbol>
      <symbol
         style="overflow:visible"
         id="glyph2-0"
         overflow="visible">
        <path
           id="path29"
           d=""
           style="stroke:none" />
      </symbol>
      <symbol
         style="overflow:visible"
         id="glyph2-1"
         overflow="visible">
        <path
           id="path32"
           d="M 3.328125,-3.015625 C 3.390625,-3.265625 3.625,-4.1875 4.3125,-4.1875 c 0.046875,0 0.296875,0 0.5,0.125 C 4.53125,-4 4.34375,-3.765625 4.34375,-3.515625 c 0,0.15625 0.109375,0.34375 0.375,0.34375 0.21875,0 0.53125,-0.171875 0.53125,-0.578125 0,-0.515625 -0.578125,-0.65625 -0.921875,-0.65625 -0.578125,0 -0.921875,0.53125 -1.046875,0.75 -0.25,-0.65625 -0.78125,-0.75 -1.078125,-0.75 -1.03125,0 -1.609375,1.28125 -1.609375,1.53125 0,0.109375 0.109375,0.109375 0.125,0.109375 0.078125,0 0.109375,-0.03125 0.125,-0.109375 0.34375,-1.0625 1,-1.3125 1.34375,-1.3125 0.1875,0 0.53125,0.09375 0.53125,0.671875 0,0.3125 -0.171875,0.96875 -0.53125,2.375 -0.15625,0.609375 -0.515625,1.03125 -0.953125,1.03125 -0.0625,0 -0.28125,0 -0.5,-0.125 0.25,-0.0625 0.46875,-0.265625 0.46875,-0.546875 0,-0.265625 -0.21875,-0.34375 -0.359375,-0.34375 -0.3125,0 -0.546875,0.25 -0.546875,0.578125 0,0.453125 0.484375,0.65625 0.921875,0.65625 0.671875,0 1.03125,-0.703125 1.046875,-0.75 0.125,0.359375 0.484375,0.75 1.078125,0.75 1.03125,0 1.59375,-1.28125 1.59375,-1.53125 0,-0.109375 -0.078125,-0.109375 -0.109375,-0.109375 -0.09375,0 -0.109375,0.046875 -0.140625,0.109375 -0.328125,1.078125 -1,1.3125 -1.3125,1.3125 -0.390625,0 -0.546875,-0.3125 -0.546875,-0.65625 0,-0.21875 0.046875,-0.4375 0.15625,-0.875 z m 0,0"
           style="stroke:none" />
      </symbol>
      <symbol
         style="overflow:visible"
         id="glyph2-2"
         overflow="visible">
        <path
           id="path35"
           d="m 4.75,-2.359375 c 0,-1.5625 -0.921875,-2.046875 -1.65625,-2.046875 -1.375,0 -2.6875,1.421875 -2.6875,2.828125 0,0.9375 0.59375,1.6875 1.625,1.6875 0.625,0 1.34375,-0.234375 2.09375,-0.84375 0.125,0.53125 0.453125,0.84375 0.90625,0.84375 0.53125,0 0.84375,-0.546875 0.84375,-0.703125 0,-0.078125 -0.0625,-0.109375 -0.125,-0.109375 -0.0625,0 -0.09375,0.03125 -0.125,0.109375 -0.1875,0.484375 -0.546875,0.484375 -0.5625,0.484375 -0.3125,0 -0.3125,-0.78125 -0.3125,-1.015625 0,-0.203125 0,-0.234375 0.109375,-0.34375 C 5.796875,-2.65625 6,-3.8125 6,-3.8125 6,-3.84375 5.984375,-3.921875 5.875,-3.921875 c -0.09375,0 -0.09375,0.03125 -0.140625,0.21875 -0.1875,0.625 -0.515625,1.375 -0.984375,1.96875 z m -0.65625,1.375 c -0.890625,0.765625 -1.65625,0.875 -2.046875,0.875 -0.59375,0 -0.90625,-0.453125 -0.90625,-1.09375 0,-0.484375 0.265625,-1.5625 0.578125,-2.0625 C 2.1875,-4 2.734375,-4.1875 3.078125,-4.1875 c 0.984375,0 0.984375,1.3125 0.984375,2.078125 0,0.375 0,0.953125 0.03125,1.125 z m 0,0"
           style="stroke:none" />
      </symbol>
      <symbol
         style="overflow:visible"
         id="glyph2-3"
         overflow="visible">
        <path
           id="path38"
           d="m 5.734375,-5.671875 c 0,-0.75 -0.546875,-1.359375 -1.359375,-1.359375 -0.578125,0 -0.859375,0.15625 -1.203125,0.40625 C 2.625,-6.21875 2.078125,-5.25 1.890625,-4.5 L 0.296875,1.828125 C 0.296875,1.875 0.34375,1.9375 0.421875,1.9375 0.5,1.9375 0.53125,1.90625 0.53125,1.890625 L 1.234375,-0.875 c 0.1875,0.609375 0.625,0.96875 1.359375,0.96875 C 3.3125,0.09375 4.0625,-0.25 4.515625,-0.6875 5,-1.140625 5.3125,-1.78125 5.3125,-2.515625 c 0,-0.71875 -0.375,-1.25 -0.734375,-1.484375 0.578125,-0.34375 1.15625,-0.953125 1.15625,-1.671875 z M 3.9375,-4.015625 c -0.125,0.046875 -0.234375,0.0625 -0.484375,0.0625 -0.140625,0 -0.328125,0.015625 -0.4375,-0.03125 0.03125,-0.109375 0.390625,-0.078125 0.5,-0.078125 0.203125,0 0.296875,0 0.421875,0.046875 z M 5.171875,-5.90625 c 0,0.703125 -0.375,1.421875 -0.890625,1.734375 C 4,-4.28125 3.8125,-4.296875 3.515625,-4.296875 c -0.21875,0 -0.78125,-0.015625 -0.78125,0.3125 0,0.28125 0.515625,0.25 0.6875,0.25 0.375,0 0.53125,0 0.828125,-0.125 0.375,0.359375 0.421875,0.671875 0.4375,1.125 0.015625,0.578125 -0.21875,1.328125 -0.5,1.71875 C 3.796875,-0.484375 3.125,-0.125 2.5625,-0.125 c -0.765625,0 -1.140625,-0.578125 -1.140625,-1.28125 0,-0.09375 0,-0.25 0.046875,-0.4375 L 2.109375,-4.359375 C 2.328125,-5.21875 3.046875,-6.8125 4.25,-6.8125 c 0.578125,0 0.921875,0.3125 0.921875,0.90625 z m 0,0"
           style="stroke:none" />
      </symbol>
      <symbol
         style="overflow:visible"
         id="glyph3-0"
         overflow="visible">
        <path
           id="path41"
           d=""
           style="stroke:none" />
      </symbol>
      <symbol
         style="overflow:visible"
         id="glyph3-1"
         overflow="visible">
        <path
           id="path44"
           d="m 2.328125,-4.4375 c 0,-0.1875 0,-0.1875 -0.203125,-0.1875 -0.453125,0.4375 -1.078125,0.4375 -1.359375,0.4375 v 0.25 c 0.15625,0 0.625,0 1,-0.1875 v 3.546875 c 0,0.234375 0,0.328125 -0.6875,0.328125 H 0.8125 V 0 c 0.125,0 0.984375,-0.03125 1.234375,-0.03125 0.21875,0 1.09375,0.03125 1.25,0.03125 V -0.25 H 3.03125 c -0.703125,0 -0.703125,-0.09375 -0.703125,-0.328125 z m 0,0"
           style="stroke:none" />
      </symbol>
      <symbol
         style="overflow:visible"
         id="glyph3-2"
         overflow="visible">
        <path
           id="path47"
           d="M 3.515625,-1.265625 H 3.28125 c -0.015625,0.15625 -0.09375,0.5625 -0.1875,0.625 C 3.046875,-0.59375 2.515625,-0.59375 2.40625,-0.59375 H 1.125 c 0.734375,-0.640625 0.984375,-0.84375 1.390625,-1.171875 0.515625,-0.40625 1,-0.84375 1,-1.5 0,-0.84375 -0.734375,-1.359375 -1.625,-1.359375 -0.859375,0 -1.453125,0.609375 -1.453125,1.25 0,0.34375 0.296875,0.390625 0.375,0.390625 0.15625,0 0.359375,-0.125 0.359375,-0.375 0,-0.125 -0.046875,-0.375 -0.40625,-0.375 C 0.984375,-4.21875 1.453125,-4.375 1.78125,-4.375 c 0.703125,0 1.0625,0.546875 1.0625,1.109375 0,0.609375 -0.4375,1.078125 -0.65625,1.328125 L 0.515625,-0.265625 C 0.4375,-0.203125 0.4375,-0.1875 0.4375,0 h 2.875 z m 0,0"
           style="stroke:none" />
      </symbol>
      <symbol
         style="overflow:visible"
         id="glyph3-3"
         overflow="visible">
        <path
           id="path50"
           d="m 1.90625,-2.328125 c 0.546875,0 0.9375,0.375 0.9375,1.125 0,0.859375 -0.515625,1.125 -0.90625,1.125 -0.28125,0 -0.90625,-0.078125 -1.1875,-0.5 0.328125,0 0.40625,-0.234375 0.40625,-0.390625 0,-0.21875 -0.171875,-0.375 -0.390625,-0.375 -0.1875,0 -0.390625,0.125 -0.390625,0.40625 0,0.65625 0.71875,1.078125 1.5625,1.078125 0.96875,0 1.640625,-0.65625 1.640625,-1.34375 0,-0.546875 -0.4375,-1.09375 -1.203125,-1.25 0.71875,-0.265625 0.984375,-0.78125 0.984375,-1.21875 0,-0.546875 -0.625,-0.953125 -1.40625,-0.953125 -0.765625,0 -1.359375,0.375 -1.359375,0.9375 0,0.234375 0.15625,0.359375 0.359375,0.359375 0.21875,0 0.359375,-0.15625 0.359375,-0.34375 0,-0.203125 -0.140625,-0.359375 -0.359375,-0.375 0.25,-0.296875 0.71875,-0.375 0.984375,-0.375 0.3125,0 0.75,0.15625 0.75,0.75 0,0.296875 -0.09375,0.625 -0.28125,0.828125 -0.21875,0.265625 -0.421875,0.28125 -0.765625,0.3125 -0.171875,0.015625 -0.1875,0.015625 -0.21875,0.015625 -0.015625,0 -0.078125,0.015625 -0.078125,0.09375 0,0.09375 0.0625,0.09375 0.1875,0.09375 z m 0,0"
           style="stroke:none" />
      </symbol>
      <symbol
         style="overflow:visible"
         id="glyph3-4"
         overflow="visible">
        <path
           id="path53"
           d="m 3.6875,-1.140625 v -0.25 H 2.90625 V -4.5 c 0,-0.140625 0,-0.203125 -0.140625,-0.203125 -0.09375,0 -0.125,0 -0.1875,0.109375 l -2.3125,3.203125 v 0.25 h 2.0625 v 0.5625 c 0,0.25 0,0.328125 -0.578125,0.328125 H 1.5625 V 0 C 1.921875,-0.015625 2.359375,-0.03125 2.609375,-0.03125 2.875,-0.03125 3.3125,-0.015625 3.671875,0 v -0.25 h -0.1875 C 2.90625,-0.25 2.90625,-0.328125 2.90625,-0.578125 v -0.5625 z M 2.375,-3.9375 v 2.546875 H 0.53125 Z m 0,0"
           style="stroke:none" />
      </symbol>
      <symbol
         style="overflow:visible"
         id="glyph3-5"
         overflow="visible">
        <path
           id="path56"
           d="m 1.078125,-3.890625 c 0.359375,0.09375 0.5625,0.09375 0.671875,0.09375 0.921875,0 1.46875,-0.625 1.46875,-0.734375 0,-0.078125 -0.046875,-0.09375 -0.078125,-0.09375 -0.015625,0 -0.03125,0 -0.0625,0.015625 -0.171875,0.0625 -0.53125,0.203125 -1.046875,0.203125 -0.203125,0 -0.5625,-0.015625 -1.015625,-0.1875 C 0.9375,-4.625 0.921875,-4.625 0.921875,-4.625 c -0.09375,0 -0.09375,0.078125 -0.09375,0.1875 v 2.046875 c 0,0.125 0,0.203125 0.109375,0.203125 0.0625,0 0.078125,0 0.140625,-0.09375 0.296875,-0.375 0.734375,-0.4375 0.96875,-0.4375 0.421875,0 0.609375,0.328125 0.640625,0.390625 0.125,0.234375 0.171875,0.5 0.171875,0.90625 0,0.203125 0,0.609375 -0.21875,0.921875 -0.171875,0.25 -0.46875,0.421875 -0.8125,0.421875 -0.453125,0 -0.921875,-0.25 -1.09375,-0.71875 0.265625,0.015625 0.40625,-0.15625 0.40625,-0.34375 0,-0.296875 -0.265625,-0.34375 -0.359375,-0.34375 0,0 -0.34375,0 -0.34375,0.375 0,0.625 0.578125,1.25 1.40625,1.25 0.890625,0 1.671875,-0.65625 1.671875,-1.546875 0,-0.78125 -0.59375,-1.5 -1.453125,-1.5 -0.3125,0 -0.671875,0.0625 -0.984375,0.328125 z m 0,0"
           style="stroke:none" />
      </symbol>
      <symbol
         style="overflow:visible"
         id="glyph4-0"
         overflow="visible">
        <path
           id="path59"
           d=""
           style="stroke:none" />
      </symbol>
      <symbol
         style="overflow:visible"
         id="glyph4-1"
         overflow="visible">
        <path
           id="path62"
           d="m 6.84375,-3.265625 c 0.15625,0 0.34375,0 0.34375,-0.1875 C 7.1875,-3.65625 7,-3.65625 6.859375,-3.65625 h -5.96875 c -0.140625,0 -0.328125,0 -0.328125,0.203125 0,0.1875 0.1875,0.1875 0.328125,0.1875 z m 0.015625,1.9375 c 0.140625,0 0.328125,0 0.328125,-0.203125 0,-0.1875 -0.1875,-0.1875 -0.34375,-0.1875 H 0.890625 c -0.140625,0 -0.328125,0 -0.328125,0.1875 0,0.203125 0.1875,0.203125 0.328125,0.203125 z m 0,0"
           style="stroke:none" />
      </symbol>
      <symbol
         style="overflow:visible"
         id="glyph4-2"
         overflow="visible">
        <path
           id="path65"
           d="m 4.75,-6.078125 c 0.078125,-0.109375 0.078125,-0.125 0.078125,-0.34375 H 2.40625 c -1.203125,0 -1.234375,-0.125 -1.265625,-0.3125 h -0.25 L 0.5625,-4.6875 h 0.25 c 0.03125,-0.15625 0.109375,-0.78125 0.25,-0.90625 0.0625,-0.0625 0.84375,-0.0625 0.96875,-0.0625 h 2.0625 C 3.984375,-5.5 3.203125,-4.40625 2.984375,-4.078125 2.078125,-2.734375 1.75,-1.34375 1.75,-0.328125 c 0,0.09375 0,0.546875 0.46875,0.546875 0.453125,0 0.453125,-0.453125 0.453125,-0.546875 V -0.84375 c 0,-0.546875 0.03125,-1.09375 0.109375,-1.625 0.046875,-0.234375 0.171875,-1.09375 0.625,-1.703125 z m 0,0"
           style="stroke:none" />
      </symbol>
      <symbol
         style="overflow:visible"
         id="glyph4-3"
         overflow="visible">
        <path
           id="path68"
           d="m 4.46875,-2 c 0,-1.1875 -0.8125,-2.1875 -1.890625,-2.1875 -0.46875,0 -0.90625,0.15625 -1.265625,0.515625 V -5.625 c 0.203125,0.0625 0.53125,0.125 0.84375,0.125 1.234375,0 1.9375,-0.90625 1.9375,-1.03125 0,-0.0625 -0.03125,-0.109375 -0.109375,-0.109375 0,0 -0.03125,0 -0.078125,0.03125 C 3.703125,-6.515625 3.21875,-6.3125 2.546875,-6.3125 2.15625,-6.3125 1.6875,-6.390625 1.21875,-6.59375 1.140625,-6.625 1.125,-6.625 1.109375,-6.625 1,-6.625 1,-6.546875 1,-6.390625 V -3.4375 c 0,0.171875 0,0.25 0.140625,0.25 0.078125,0 0.09375,-0.015625 0.140625,-0.078125 C 1.390625,-3.421875 1.75,-3.96875 2.5625,-3.96875 c 0.515625,0 0.765625,0.453125 0.84375,0.640625 0.15625,0.375 0.1875,0.75 0.1875,1.25 0,0.359375 0,0.953125 -0.25,1.375 C 3.109375,-0.3125 2.734375,-0.0625 2.28125,-0.0625 c -0.71875,0 -1.296875,-0.53125 -1.46875,-1.109375 0.03125,0 0.0625,0.015625 0.171875,0.015625 0.328125,0 0.5,-0.25 0.5,-0.484375 0,-0.25 -0.171875,-0.5 -0.5,-0.5 C 0.84375,-2.140625 0.5,-2.0625 0.5,-1.609375 0.5,-0.75 1.1875,0.21875 2.296875,0.21875 3.453125,0.21875 4.46875,-0.734375 4.46875,-2 Z m 0,0"
           style="stroke:none" />
      </symbol>
      <symbol
         style="overflow:visible"
         id="glyph4-4"
         overflow="visible">
        <path
           id="path71"
           d="m 4.578125,-3.1875 c 0,-0.796875 -0.046875,-1.59375 -0.390625,-2.328125 -0.453125,-0.96875 -1.28125,-1.125 -1.6875,-1.125 -0.609375,0 -1.328125,0.265625 -1.75,1.1875 -0.3125,0.6875 -0.359375,1.46875 -0.359375,2.265625 0,0.75 0.03125,1.640625 0.453125,2.40625 0.421875,0.796875 1.15625,1 1.640625,1 0.53125,0 1.296875,-0.203125 1.734375,-1.15625 0.3125,-0.6875 0.359375,-1.46875 0.359375,-2.25 z M 2.484375,0 C 2.09375,0 1.5,-0.25 1.328125,-1.203125 1.21875,-1.796875 1.21875,-2.71875 1.21875,-3.3125 c 0,-0.640625 0,-1.296875 0.078125,-1.828125 0.1875,-1.1875 0.9375,-1.28125 1.1875,-1.28125 0.328125,0 0.984375,0.1875 1.171875,1.171875 0.109375,0.5625 0.109375,1.3125 0.109375,1.9375 0,0.75 0,1.421875 -0.109375,2.0625 C 3.5,-0.296875 2.9375,0 2.484375,0 Z m 0,0"
           style="stroke:none" />
      </symbol>
      <symbol
         style="overflow:visible"
         id="glyph4-5"
         overflow="visible">
        <path
           id="path74"
           d="m 2.890625,-3.515625 c 0.8125,-0.265625 1.390625,-0.953125 1.390625,-1.75 0,-0.8125 -0.875,-1.375 -1.828125,-1.375 -1,0 -1.765625,0.59375 -1.765625,1.359375 0,0.328125 0.21875,0.515625 0.515625,0.515625 0.296875,0 0.5,-0.21875 0.5,-0.515625 0,-0.484375 -0.46875,-0.484375 -0.609375,-0.484375 0.296875,-0.5 0.953125,-0.625 1.3125,-0.625 0.421875,0 0.96875,0.21875 0.96875,1.109375 0,0.125 -0.03125,0.703125 -0.28125,1.140625 C 2.796875,-3.65625 2.453125,-3.625 2.203125,-3.625 2.125,-3.609375 1.890625,-3.59375 1.8125,-3.59375 c -0.078125,0.015625 -0.140625,0.03125 -0.140625,0.125 0,0.109375 0.0625,0.109375 0.234375,0.109375 h 0.4375 c 0.8125,0 1.1875,0.671875 1.1875,1.65625 0,1.359375 -0.6875,1.640625 -1.125,1.640625 -0.4375,0 -1.1875,-0.171875 -1.53125,-0.75 0.34375,0.046875 0.65625,-0.171875 0.65625,-0.546875 0,-0.359375 -0.265625,-0.5625 -0.546875,-0.5625 -0.25,0 -0.5625,0.140625 -0.5625,0.578125 0,0.90625 0.921875,1.5625 2.015625,1.5625 1.21875,0 2.125,-0.90625 2.125,-1.921875 0,-0.8125 -0.640625,-1.59375 -1.671875,-1.8125 z m 0,0"
           style="stroke:none" />
      </symbol>
      <symbol
         style="overflow:visible"
         id="glyph4-6"
         overflow="visible">
        <path
           id="path77"
           d="m 4.078125,-2.296875 h 2.78125 C 7,-2.296875 7.1875,-2.296875 7.1875,-2.5 7.1875,-2.6875 7,-2.6875 6.859375,-2.6875 h -2.78125 v -2.796875 c 0,-0.140625 0,-0.328125 -0.203125,-0.328125 -0.203125,0 -0.203125,0.1875 -0.203125,0.328125 V -2.6875 h -2.78125 c -0.140625,0 -0.328125,0 -0.328125,0.1875 0,0.203125 0.1875,0.203125 0.328125,0.203125 h 2.78125 V 0.5 c 0,0.140625 0,0.328125 0.203125,0.328125 0.203125,0 0.203125,-0.1875 0.203125,-0.328125 z m 0,0"
           style="stroke:none" />
      </symbol>
      <symbol
         style="overflow:visible"
         id="glyph4-7"
         overflow="visible">
        <path
           id="path80"
           d="m 1.265625,-0.765625 1.0625,-1.03125 c 1.546875,-1.375 2.140625,-1.90625 2.140625,-2.90625 0,-1.140625 -0.890625,-1.9375 -2.109375,-1.9375 -1.125,0 -1.859375,0.921875 -1.859375,1.8125 0,0.546875 0.5,0.546875 0.53125,0.546875 0.171875,0 0.515625,-0.109375 0.515625,-0.53125 0,-0.25 -0.1875,-0.515625 -0.53125,-0.515625 -0.078125,0 -0.09375,0 -0.125,0.015625 0.21875,-0.65625 0.765625,-1.015625 1.34375,-1.015625 0.90625,0 1.328125,0.8125 1.328125,1.625 C 3.5625,-3.90625 3.078125,-3.125 2.515625,-2.5 l -1.90625,2.125 C 0.5,-0.265625 0.5,-0.234375 0.5,0 H 4.203125 L 4.46875,-1.734375 H 4.234375 C 4.171875,-1.4375 4.109375,-1 4,-0.84375 3.9375,-0.765625 3.28125,-0.765625 3.0625,-0.765625 Z m 0,0"
           style="stroke:none" />
      </symbol>
      <symbol
         style="overflow:visible"
         id="glyph4-8"
         overflow="visible">
        <path
           id="path83"
           d="m 2.9375,-6.375 c 0,-0.25 0,-0.265625 -0.234375,-0.265625 C 2.078125,-6 1.203125,-6 0.890625,-6 v 0.3125 c 0.203125,0 0.78125,0 1.296875,-0.265625 v 5.171875 c 0,0.359375 -0.03125,0.46875 -0.921875,0.46875 h -0.3125 V 0 c 0.34375,-0.03125 1.203125,-0.03125 1.609375,-0.03125 0.390625,0 1.265625,0 1.609375,0.03125 v -0.3125 h -0.3125 c -0.90625,0 -0.921875,-0.109375 -0.921875,-0.46875 z m 0,0"
           style="stroke:none" />
      </symbol>
      <symbol
         style="overflow:visible"
         id="glyph4-9"
         overflow="visible">
        <path
           id="path86"
           d="m 2.9375,-1.640625 v 0.859375 c 0,0.359375 -0.03125,0.46875 -0.765625,0.46875 H 1.96875 V 0 C 2.375,-0.03125 2.890625,-0.03125 3.3125,-0.03125 c 0.421875,0 0.9375,0 1.359375,0.03125 v -0.3125 h -0.21875 c -0.734375,0 -0.75,-0.109375 -0.75,-0.46875 V -1.640625 H 4.6875 v -0.3125 H 3.703125 v -4.53125 c 0,-0.203125 0,-0.265625 -0.171875,-0.265625 -0.078125,0 -0.109375,0 -0.1875,0.125 l -3.0625,4.671875 v 0.3125 z m 0.046875,-0.3125 H 0.5625 l 2.421875,-3.71875 z m 0,0"
           style="stroke:none" />
      </symbol>
      <symbol
         style="overflow:visible"
         id="glyph5-0"
         overflow="visible">
        <path
           id="path89"
           d=""
           style="stroke:none" />
      </symbol>
      <symbol
         style="overflow:visible"
         id="glyph5-1"
         overflow="visible">
        <path
           id="path92"
           d="m 6.5625,-2.296875 c 0.171875,0 0.359375,0 0.359375,-0.203125 0,-0.1875 -0.1875,-0.1875 -0.359375,-0.1875 H 1.171875 c -0.171875,0 -0.34375,0 -0.34375,0.1875 0,0.203125 0.171875,0.203125 0.34375,0.203125 z m 0,0"
           style="stroke:none" />
      </symbol>
    </g>
  </defs>
  <g
     transform="translate(-151.77687,-124.80937)"
     id="surface1">
    <g
       id="g101"
       style="fill:#000000;fill-opacity:1">
      <use
         height="100%"
         width="100%"
         id="use99"
         y="157.181"
         x="151.48"
         xlink:href="#glyph0-1" />
    </g>
    <g
       id="g105"
       style="fill:#000000;fill-opacity:1">
      <use
         height="100%"
         width="100%"
         id="use103"
         y="125.2"
         x="163.65601"
         xlink:href="#glyph1-1" />
    </g>
    <g
       id="g109"
       style="fill:#000000;fill-opacity:1">
      <use
         height="100%"
         width="100%"
         id="use107"
         y="142.735"
         x="163.65601"
         xlink:href="#glyph1-2" />
    </g>
    <g
       id="g113"
       style="fill:#000000;fill-opacity:1">
      <use
         height="100%"
         width="100%"
         id="use111"
         y="148.713"
         x="163.65601"
         xlink:href="#glyph1-2" />
    </g>
    <g
       id="g117"
       style="fill:#000000;fill-opacity:1">
      <use
         height="100%"
         width="100%"
         id="use115"
         y="154.69"
         x="163.65601"
         xlink:href="#glyph1-2" />
    </g>
    <g
       id="g121"
       style="fill:#000000;fill-opacity:1">
      <use
         height="100%"
         width="100%"
         id="use119"
         y="160.668"
         x="163.65601"
         xlink:href="#glyph1-2" />
    </g>
    <g
       id="g125"
       style="fill:#000000;fill-opacity:1">
      <use
         height="100%"
         width="100%"
         id="use123"
         y="167.04401"
         x="163.65601"
         xlink:href="#glyph1-3" />
    </g>
    <g
       id="g129"
       style="fill:#000000;fill-opacity:1">
      <use
         height="100%"
         width="100%"
         id="use127"
         y="133.17101"
         x="177.355"
         xlink:href="#glyph2-1" />
    </g>
    <g
       id="g133"
       style="fill:#000000;fill-opacity:1">
      <use
         height="100%"
         width="100%"
         id="use131"
         y="134.66499"
         x="183.049"
         xlink:href="#glyph3-1" />
    </g>
    <g
       id="g137"
       style="fill:#000000;fill-opacity:1">
      <use
         height="100%"
         width="100%"
         id="use135"
         y="145.12601"
         x="177.355"
         xlink:href="#glyph2-1" />
    </g>
    <g
       id="g141"
       style="fill:#000000;fill-opacity:1">
      <use
         height="100%"
         width="100%"
         id="use139"
         y="146.62"
         x="183.049"
         xlink:href="#glyph3-2" />
    </g>
    <g
       id="g145"
       style="fill:#000000;fill-opacity:1">
      <use
         height="100%"
         width="100%"
         id="use143"
         y="157.08099"
         x="177.355"
         xlink:href="#glyph2-1" />
    </g>
    <g
       id="g149"
       style="fill:#000000;fill-opacity:1">
      <use
         height="100%"
         width="100%"
         id="use147"
         y="158.576"
         x="183.049"
         xlink:href="#glyph3-3" />
    </g>
    <g
       id="g153"
       style="fill:#000000;fill-opacity:1">
      <use
         height="100%"
         width="100%"
         id="use151"
         y="169.036"
         x="177.355"
         xlink:href="#glyph2-1" />
    </g>
    <g
       id="g157"
       style="fill:#000000;fill-opacity:1">
      <use
         height="100%"
         width="100%"
         id="use155"
         y="170.53101"
         x="183.049"
         xlink:href="#glyph3-4" />
    </g>
    <g
       id="g161"
       style="fill:#000000;fill-opacity:1">
      <use
         height="100%"
         width="100%"
         id="use159"
         y="180.992"
         x="177.355"
         xlink:href="#glyph2-1" />
    </g>
    <g
       id="g165"
       style="fill:#000000;fill-opacity:1">
      <use
         height="100%"
         width="100%"
         id="use163"
         y="182.48599"
         x="183.049"
         xlink:href="#glyph3-5" />
    </g>
    <g
       id="g169"
       style="fill:#000000;fill-opacity:1">
      <use
         height="100%"
         width="100%"
         id="use167"
         y="125.2"
         x="192.49899"
         xlink:href="#glyph1-4" />
    </g>
    <g
       id="g173"
       style="fill:#000000;fill-opacity:1">
      <use
         height="100%"
         width="100%"
         id="use171"
         y="142.735"
         x="192.49899"
         xlink:href="#glyph1-5" />
    </g>
    <g
       id="g177"
       style="fill:#000000;fill-opacity:1">
      <use
         height="100%"
         width="100%"
         id="use175"
         y="148.713"
         x="192.49899"
         xlink:href="#glyph1-5" />
    </g>
    <g
       id="g181"
       style="fill:#000000;fill-opacity:1">
      <use
         height="100%"
         width="100%"
         id="use179"
         y="154.69"
         x="192.49899"
         xlink:href="#glyph1-5" />
    </g>
    <g
       id="g185"
       style="fill:#000000;fill-opacity:1">
      <use
         height="100%"
         width="100%"
         id="use183"
         y="160.668"
         x="192.49899"
         xlink:href="#glyph1-5" />
    </g>
    <g
       id="g189"
       style="fill:#000000;fill-opacity:1">
      <use
         height="100%"
         width="100%"
         id="use187"
         y="167.04401"
         x="192.49899"
         xlink:href="#glyph1-6" />
    </g>
    <g
       id="g193"
       style="fill:#000000;fill-opacity:1">
      <use
         height="100%"
         width="100%"
         id="use191"
         y="157.181"
         x="203.98399"
         xlink:href="#glyph4-1" />
    </g>
    <g
       id="g197"
       style="fill:#000000;fill-opacity:1">
      <use
         height="100%"
         width="100%"
         id="use195"
         y="153.258"
         x="215.696"
         xlink:href="#glyph3-1" />
    </g>
    <path
       id="path199"
       transform="matrix(1,0,0,-1,72,72)"
       d="m 143.69531,-82.691406 h 3.97266"
       style="fill:none;stroke:#000000;stroke-width:0.3985;stroke-linecap:butt;stroke-linejoin:miter;stroke-miterlimit:10;stroke-opacity:1" />
    <g
       id="g203"
       style="fill:#000000;fill-opacity:1">
      <use
         height="100%"
         width="100%"
         id="use201"
         y="160.616"
         x="215.696"
         xlink:href="#glyph3-2" />
    </g>
    <g
       id="g207"
       style="fill:#000000;fill-opacity:1">
      <use
         height="100%"
         width="100%"
         id="use205"
         y="125.2"
         x="222.52299"
         xlink:href="#glyph1-1" />
    </g>
    <g
       id="g211"
       style="fill:#000000;fill-opacity:1">
      <use
         height="100%"
         width="100%"
         id="use209"
         y="142.735"
         x="222.52299"
         xlink:href="#glyph1-2" />
    </g>
    <g
       id="g215"
       style="fill:#000000;fill-opacity:1">
      <use
         height="100%"
         width="100%"
         id="use213"
         y="148.713"
         x="222.52299"
         xlink:href="#glyph1-2" />
    </g>
    <g
       id="g219"
       style="fill:#000000;fill-opacity:1">
      <use
         height="100%"
         width="100%"
         id="use217"
         y="154.69"
         x="222.52299"
         xlink:href="#glyph1-2" />
    </g>
    <g
       id="g223"
       style="fill:#000000;fill-opacity:1">
      <use
         height="100%"
         width="100%"
         id="use221"
         y="160.668"
         x="222.52299"
         xlink:href="#glyph1-2" />
    </g>
    <g
       id="g227"
       style="fill:#000000;fill-opacity:1">
      <use
         height="100%"
         width="100%"
         id="use225"
         y="167.04401"
         x="222.52299"
         xlink:href="#glyph1-3" />
    </g>
    <g
       id="g231"
       style="fill:#000000;fill-opacity:1">
      <use
         height="100%"
         width="100%"
         id="use229"
         y="133.17101"
         x="236.22099"
         xlink:href="#glyph5-1" />
    </g>
    <g
       id="g235"
       style="fill:#000000;fill-opacity:1">
      <use
         height="100%"
         width="100%"
         id="use233"
         y="133.17101"
         x="243.97"
         xlink:href="#glyph4-2" />
    </g>
    <g
       id="g239"
       style="fill:#000000;fill-opacity:1">
      <use
         height="100%"
         width="100%"
         id="use237"
         y="145.12601"
         x="243.97"
         xlink:href="#glyph4-3" />
    </g>
    <g
       id="g243"
       style="fill:#000000;fill-opacity:1">
      <use
         height="100%"
         width="100%"
         id="use241"
         y="157.08099"
         x="243.97"
         xlink:href="#glyph4-4" />
    </g>
    <g
       id="g247"
       style="fill:#000000;fill-opacity:1">
      <use
         height="100%"
         width="100%"
         id="use245"
         y="169.036"
         x="243.97"
         xlink:href="#glyph4-5" />
    </g>
    <g
       id="g251"
       style="fill:#000000;fill-opacity:1">
      <use
         height="100%"
         width="100%"
         id="use249"
         y="180.992"
         x="243.97"
         xlink:href="#glyph4-4" />
    </g>
    <g
       id="g255"
       style="fill:#000000;fill-opacity:1">
      <use
         height="100%"
         width="100%"
         id="use253"
         y="125.2"
         x="253.933"
         xlink:href="#glyph1-4" />
    </g>
    <g
       id="g259"
       style="fill:#000000;fill-opacity:1">
      <use
         height="100%"
         width="100%"
         id="use257"
         y="142.735"
         x="253.933"
         xlink:href="#glyph1-5" />
    </g>
    <g
       id="g263"
       style="fill:#000000;fill-opacity:1">
      <use
         height="100%"
         width="100%"
         id="use261"
         y="148.713"
         x="253.933"
         xlink:href="#glyph1-5" />
    </g>
    <g
       id="g267"
       style="fill:#000000;fill-opacity:1">
      <use
         height="100%"
         width="100%"
         id="use265"
         y="154.69"
         x="253.933"
         xlink:href="#glyph1-5" />
    </g>
    <g
       id="g271"
       style="fill:#000000;fill-opacity:1">
      <use
         height="100%"
         width="100%"
         id="use269"
         y="160.668"
         x="253.933"
         xlink:href="#glyph1-5" />
    </g>
    <g
       id="g275"
       style="fill:#000000;fill-opacity:1">
      <use
         height="100%"
         width="100%"
         id="use273"
         y="167.04401"
         x="253.933"
         xlink:href="#glyph1-6" />
    </g>
    <g
       id="g279"
       style="fill:#000000;fill-opacity:1">
      <use
         height="100%"
         width="100%"
         id="use277"
         y="157.181"
         x="264.86401"
         xlink:href="#glyph4-6" />
    </g>
    <g
       id="g283"
       style="fill:#000000;fill-opacity:1">
      <use
         height="100%"
         width="100%"
         id="use281"
         y="157.181"
         x="274.827"
         xlink:href="#glyph2-2" />
    </g>
    <g
       id="g287"
       style="fill:#000000;fill-opacity:1">
      <use
         height="100%"
         width="100%"
         id="use285"
         y="125.2"
         x="282.897"
         xlink:href="#glyph1-1" />
    </g>
    <g
       id="g291"
       style="fill:#000000;fill-opacity:1">
      <use
         height="100%"
         width="100%"
         id="use289"
         y="142.735"
         x="282.897"
         xlink:href="#glyph1-2" />
    </g>
    <g
       id="g295"
       style="fill:#000000;fill-opacity:1">
      <use
         height="100%"
         width="100%"
         id="use293"
         y="148.713"
         x="282.897"
         xlink:href="#glyph1-2" />
    </g>
    <g
       id="g299"
       style="fill:#000000;fill-opacity:1">
      <use
         height="100%"
         width="100%"
         id="use297"
         y="154.69"
         x="282.897"
         xlink:href="#glyph1-2" />
    </g>
    <g
       id="g303"
       style="fill:#000000;fill-opacity:1">
      <use
         height="100%"
         width="100%"
         id="use301"
         y="160.668"
         x="282.897"
         xlink:href="#glyph1-2" />
    </g>
    <g
       id="g307"
       style="fill:#000000;fill-opacity:1">
      <use
         height="100%"
         width="100%"
         id="use305"
         y="167.04401"
         x="282.897"
         xlink:href="#glyph1-3" />
    </g>
    <g
       id="g311"
       style="fill:#000000;fill-opacity:1">
      <use
         height="100%"
         width="100%"
         id="use309"
         y="133.17101"
         x="304.34399"
         xlink:href="#glyph4-7" />
    </g>
    <g
       id="g315"
       style="fill:#000000;fill-opacity:1">
      <use
         height="100%"
         width="100%"
         id="use313"
         y="145.12601"
         x="296.59601"
         xlink:href="#glyph5-1" />
    </g>
    <g
       id="g319"
       style="fill:#000000;fill-opacity:1">
      <use
         height="100%"
         width="100%"
         id="use317"
         y="145.12601"
         x="304.34399"
         xlink:href="#glyph4-8" />
    </g>
    <g
       id="g323"
       style="fill:#000000;fill-opacity:1">
      <use
         height="100%"
         width="100%"
         id="use321"
         y="157.08099"
         x="304.34399"
         xlink:href="#glyph4-8" />
    </g>
    <g
       id="g327"
       style="fill:#000000;fill-opacity:1">
      <use
         height="100%"
         width="100%"
         id="use325"
         y="169.036"
         x="304.34399"
         xlink:href="#glyph4-4" />
    </g>
    <g
       id="g331"
       style="fill:#000000;fill-opacity:1">
      <use
         height="100%"
         width="100%"
         id="use329"
         y="180.992"
         x="304.34399"
         xlink:href="#glyph4-4" />
    </g>
    <g
       id="g335"
       style="fill:#000000;fill-opacity:1">
      <use
         height="100%"
         width="100%"
         id="use333"
         y="125.2"
         x="314.30701"
         xlink:href="#glyph1-4" />
    </g>
    <g
       id="g339"
       style="fill:#000000;fill-opacity:1">
      <use
         height="100%"
         width="100%"
         id="use337"
         y="142.735"
         x="314.30701"
         xlink:href="#glyph1-5" />
    </g>
    <g
       id="g343"
       style="fill:#000000;fill-opacity:1">
      <use
         height="100%"
         width="100%"
         id="use341"
         y="148.713"
         x="314.30701"
         xlink:href="#glyph1-5" />
    </g>
    <g
       id="g347"
       style="fill:#000000;fill-opacity:1">
      <use
         height="100%"
         width="100%"
         id="use345"
         y="154.69"
         x="314.30701"
         xlink:href="#glyph1-5" />
    </g>
    <g
       id="g351"
       style="fill:#000000;fill-opacity:1">
      <use
         height="100%"
         width="100%"
         id="use349"
         y="160.668"
         x="314.30701"
         xlink:href="#glyph1-5" />
    </g>
    <g
       id="g355"
       style="fill:#000000;fill-opacity:1">
      <use
         height="100%"
         width="100%"
         id="use353"
         y="167.04401"
         x="314.30701"
         xlink:href="#glyph1-6" />
    </g>
    <g
       id="g359"
       style="fill:#000000;fill-opacity:1">
      <use
         height="100%"
         width="100%"
         id="use357"
         y="157.181"
         x="325.23801"
         xlink:href="#glyph4-6" />
    </g>
    <g
       id="g363"
       style="fill:#000000;fill-opacity:1">
      <use
         height="100%"
         width="100%"
         id="use361"
         y="153.258"
         x="336.396"
         xlink:href="#glyph3-1" />
    </g>
    <path
       id="path365"
       transform="matrix(1,0,0,-1,72,72)"
       d="m 264.39453,-82.691406 h 3.97266"
       style="fill:none;stroke:#000000;stroke-width:0.3985;stroke-linecap:butt;stroke-linejoin:miter;stroke-miterlimit:10;stroke-opacity:1" />
    <g
       id="g369"
       style="fill:#000000;fill-opacity:1">
      <use
         height="100%"
         width="100%"
         id="use367"
         y="160.616"
         x="336.396"
         xlink:href="#glyph3-4" />
    </g>
    <g
       id="g373"
       style="fill:#000000;fill-opacity:1">
      <use
         height="100%"
         width="100%"
         id="use371"
         y="157.181"
         x="341.56299"
         xlink:href="#glyph2-3" />
    </g>
    <g
       id="g377"
       style="fill:#000000;fill-opacity:1">
      <use
         height="100%"
         width="100%"
         id="use375"
         y="125.2"
         x="349.384"
         xlink:href="#glyph1-1" />
    </g>
    <g
       id="g381"
       style="fill:#000000;fill-opacity:1">
      <use
         height="100%"
         width="100%"
         id="use379"
         y="142.735"
         x="349.38501"
         xlink:href="#glyph1-2" />
    </g>
    <g
       id="g385"
       style="fill:#000000;fill-opacity:1">
      <use
         height="100%"
         width="100%"
         id="use383"
         y="148.713"
         x="349.384"
         xlink:href="#glyph1-2" />
    </g>
    <g
       id="g389"
       style="fill:#000000;fill-opacity:1">
      <use
         height="100%"
         width="100%"
         id="use387"
         y="154.69"
         x="349.38501"
         xlink:href="#glyph1-2" />
    </g>
    <g
       id="g393"
       style="fill:#000000;fill-opacity:1">
      <use
         height="100%"
         width="100%"
         id="use391"
         y="160.668"
         x="349.384"
         xlink:href="#glyph1-2" />
    </g>
    <g
       id="g397"
       style="fill:#000000;fill-opacity:1">
      <use
         height="100%"
         width="100%"
         id="use395"
         y="167.04401"
         x="349.38501"
         xlink:href="#glyph1-3" />
    </g>
    <g
       id="g401"
       style="fill:#000000;fill-opacity:1">
      <use
         height="100%"
         width="100%"
         id="use399"
         y="133.17101"
         x="370.832"
         xlink:href="#glyph4-3" />
    </g>
    <g
       id="g405"
       style="fill:#000000;fill-opacity:1">
      <use
         height="100%"
         width="100%"
         id="use403"
         y="145.12601"
         x="363.08301"
         xlink:href="#glyph5-1" />
    </g>
    <g
       id="g409"
       style="fill:#000000;fill-opacity:1">
      <use
         height="100%"
         width="100%"
         id="use407"
         y="145.12601"
         x="370.832"
         xlink:href="#glyph4-5" />
    </g>
    <g
       id="g413"
       style="fill:#000000;fill-opacity:1">
      <use
         height="100%"
         width="100%"
         id="use411"
         y="157.08099"
         x="370.832"
         xlink:href="#glyph4-4" />
    </g>
    <g
       id="g417"
       style="fill:#000000;fill-opacity:1">
      <use
         height="100%"
         width="100%"
         id="use415"
         y="169.036"
         x="363.08301"
         xlink:href="#glyph5-1" />
    </g>
    <g
       id="g421"
       style="fill:#000000;fill-opacity:1">
      <use
         height="100%"
         width="100%"
         id="use419"
         y="169.036"
         x="370.832"
         xlink:href="#glyph4-8" />
    </g>
    <g
       id="g425"
       style="fill:#000000;fill-opacity:1">
      <use
         height="100%"
         width="100%"
         id="use423"
         y="180.992"
         x="370.832"
         xlink:href="#glyph4-9" />
    </g>
    <g
       id="g429"
       style="fill:#000000;fill-opacity:1">
      <use
         height="100%"
         width="100%"
         id="use427"
         y="125.2"
         x="380.79501"
         xlink:href="#glyph1-4" />
    </g>
    <g
       id="g433"
       style="fill:#000000;fill-opacity:1">
      <use
         height="100%"
         width="100%"
         id="use431"
         y="142.735"
         x="380.79501"
         xlink:href="#glyph1-5" />
    </g>
    <g
       id="g437"
       style="fill:#000000;fill-opacity:1">
      <use
         height="100%"
         width="100%"
         id="use435"
         y="148.713"
         x="380.79501"
         xlink:href="#glyph1-5" />
    </g>
    <g
       id="g441"
       style="fill:#000000;fill-opacity:1">
      <use
         height="100%"
         width="100%"
         id="use439"
         y="154.69"
         x="380.79501"
         xlink:href="#glyph1-5" />
    </g>
    <g
       id="g445"
       style="fill:#000000;fill-opacity:1">
      <use
         height="100%"
         width="100%"
         id="use443"
         y="160.668"
         x="380.79501"
         xlink:href="#glyph1-5" />
    </g>
    <g
       id="g449"
       style="fill:#000000;fill-opacity:1">
      <use
         height="100%"
         width="100%"
         id="use447"
         y="167.04401"
         x="380.79501"
         xlink:href="#glyph1-6" />
    </g>
  </g>
</svg>
