<?xml version="1.0" encoding="UTF-8" standalone="no"?>
<svg
   xmlns:dc="http://purl.org/dc/elements/1.1/"
   xmlns:cc="http://creativecommons.org/ns#"
   xmlns:rdf="http://www.w3.org/1999/02/22-rdf-syntax-ns#"
   xmlns:svg="http://www.w3.org/2000/svg"
   xmlns="http://www.w3.org/2000/svg"
   xmlns:xlink="http://www.w3.org/1999/xlink"
   width="121.55489pt"
   height="64.032249pt"
   viewBox="0 0 121.55489 64.032249"
   version="1.1"
   id="svg167">
  <metadata
     id="metadata171">
    <rdf:RDF>
      <cc:Work
         rdf:about="">
        <dc:format>image/svg+xml</dc:format>
        <dc:type
           rdf:resource="http://purl.org/dc/dcmitype/StillImage" />
      </cc:Work>
    </rdf:RDF>
  </metadata>
  <defs
     id="defs46">
    <g
       id="g44">
      <symbol
         overflow="visible"
         id="glyph0-0">
        <path
           style="stroke:none"
           d=""
           id="path2" />
      </symbol>
      <symbol
         overflow="visible"
         id="glyph0-1">
        <path
           style="stroke:none"
           d="m 4.46875,-2 c 0,-1.1875 -0.8125,-2.1875 -1.890625,-2.1875 -0.46875,0 -0.90625,0.15625 -1.265625,0.515625 V -5.625 c 0.203125,0.0625 0.53125,0.125 0.84375,0.125 1.234375,0 1.9375,-0.90625 1.9375,-1.03125 0,-0.0625 -0.03125,-0.109375 -0.109375,-0.109375 0,0 -0.03125,0 -0.078125,0.03125 C 3.703125,-6.515625 3.21875,-6.3125 2.546875,-6.3125 2.15625,-6.3125 1.6875,-6.390625 1.21875,-6.59375 1.140625,-6.625 1.125,-6.625 1.109375,-6.625 1,-6.625 1,-6.546875 1,-6.390625 V -3.4375 c 0,0.171875 0,0.25 0.140625,0.25 0.078125,0 0.09375,-0.015625 0.140625,-0.078125 C 1.390625,-3.421875 1.75,-3.96875 2.5625,-3.96875 c 0.515625,0 0.765625,0.453125 0.84375,0.640625 0.15625,0.375 0.1875,0.75 0.1875,1.25 0,0.359375 0,0.953125 -0.25,1.375 C 3.109375,-0.3125 2.734375,-0.0625 2.28125,-0.0625 c -0.71875,0 -1.296875,-0.53125 -1.46875,-1.109375 0.03125,0 0.0625,0.015625 0.171875,0.015625 0.328125,0 0.5,-0.25 0.5,-0.484375 0,-0.25 -0.171875,-0.5 -0.5,-0.5 C 0.84375,-2.140625 0.5,-2.0625 0.5,-1.609375 0.5,-0.75 1.1875,0.21875 2.296875,0.21875 3.453125,0.21875 4.46875,-0.734375 4.46875,-2 Z m 0,0"
           id="path5" />
      </symbol>
      <symbol
         overflow="visible"
         id="glyph0-2">
        <path
           style="stroke:none"
           d="m 2.890625,-3.515625 c 0.8125,-0.265625 1.390625,-0.953125 1.390625,-1.75 0,-0.8125 -0.875,-1.375 -1.828125,-1.375 -1,0 -1.765625,0.59375 -1.765625,1.359375 0,0.328125 0.21875,0.515625 0.515625,0.515625 0.296875,0 0.5,-0.21875 0.5,-0.515625 0,-0.484375 -0.46875,-0.484375 -0.609375,-0.484375 0.296875,-0.5 0.953125,-0.625 1.3125,-0.625 0.421875,0 0.96875,0.21875 0.96875,1.109375 0,0.125 -0.03125,0.703125 -0.28125,1.140625 C 2.796875,-3.65625 2.453125,-3.625 2.203125,-3.625 2.125,-3.609375 1.890625,-3.59375 1.8125,-3.59375 c -0.078125,0.015625 -0.140625,0.03125 -0.140625,0.125 0,0.109375 0.0625,0.109375 0.234375,0.109375 h 0.4375 c 0.8125,0 1.1875,0.671875 1.1875,1.65625 0,1.359375 -0.6875,1.640625 -1.125,1.640625 -0.4375,0 -1.1875,-0.171875 -1.53125,-0.75 0.34375,0.046875 0.65625,-0.171875 0.65625,-0.546875 0,-0.359375 -0.265625,-0.5625 -0.546875,-0.5625 -0.25,0 -0.5625,0.140625 -0.5625,0.578125 0,0.90625 0.921875,1.5625 2.015625,1.5625 1.21875,0 2.125,-0.90625 2.125,-1.921875 0,-0.8125 -0.640625,-1.59375 -1.671875,-1.8125 z m 0,0"
           id="path8" />
      </symbol>
      <symbol
         overflow="visible"
         id="glyph0-3">
        <path
           style="stroke:none"
           d="m 2.9375,-6.375 c 0,-0.25 0,-0.265625 -0.234375,-0.265625 C 2.078125,-6 1.203125,-6 0.890625,-6 v 0.3125 c 0.203125,0 0.78125,0 1.296875,-0.265625 v 5.171875 c 0,0.359375 -0.03125,0.46875 -0.921875,0.46875 h -0.3125 V 0 c 0.34375,-0.03125 1.203125,-0.03125 1.609375,-0.03125 0.390625,0 1.265625,0 1.609375,0.03125 v -0.3125 h -0.3125 c -0.90625,0 -0.921875,-0.109375 -0.921875,-0.46875 z m 0,0"
           id="path11" />
      </symbol>
      <symbol
         overflow="visible"
         id="glyph0-4">
        <path
           style="stroke:none"
           d="m 1.265625,-0.765625 1.0625,-1.03125 c 1.546875,-1.375 2.140625,-1.90625 2.140625,-2.90625 0,-1.140625 -0.890625,-1.9375 -2.109375,-1.9375 -1.125,0 -1.859375,0.921875 -1.859375,1.8125 0,0.546875 0.5,0.546875 0.53125,0.546875 0.171875,0 0.515625,-0.109375 0.515625,-0.53125 0,-0.25 -0.1875,-0.515625 -0.53125,-0.515625 -0.078125,0 -0.09375,0 -0.125,0.015625 0.21875,-0.65625 0.765625,-1.015625 1.34375,-1.015625 0.90625,0 1.328125,0.8125 1.328125,1.625 C 3.5625,-3.90625 3.078125,-3.125 2.515625,-2.5 l -1.90625,2.125 C 0.5,-0.265625 0.5,-0.234375 0.5,0 H 4.203125 L 4.46875,-1.734375 H 4.234375 C 4.171875,-1.4375 4.109375,-1 4,-0.84375 3.9375,-0.765625 3.28125,-0.765625 3.0625,-0.765625 Z m 0,0"
           id="path14" />
      </symbol>
      <symbol
         overflow="visible"
         id="glyph0-5">
        <path
           style="stroke:none"
           d="m 4.578125,-3.1875 c 0,-0.796875 -0.046875,-1.59375 -0.390625,-2.328125 -0.453125,-0.96875 -1.28125,-1.125 -1.6875,-1.125 -0.609375,0 -1.328125,0.265625 -1.75,1.1875 -0.3125,0.6875 -0.359375,1.46875 -0.359375,2.265625 0,0.75 0.03125,1.640625 0.453125,2.40625 0.421875,0.796875 1.15625,1 1.640625,1 0.53125,0 1.296875,-0.203125 1.734375,-1.15625 0.3125,-0.6875 0.359375,-1.46875 0.359375,-2.25 z M 2.484375,0 C 2.09375,0 1.5,-0.25 1.328125,-1.203125 1.21875,-1.796875 1.21875,-2.71875 1.21875,-3.3125 c 0,-0.640625 0,-1.296875 0.078125,-1.828125 0.1875,-1.1875 0.9375,-1.28125 1.1875,-1.28125 0.328125,0 0.984375,0.1875 1.171875,1.171875 0.109375,0.5625 0.109375,1.3125 0.109375,1.9375 0,0.75 0,1.421875 -0.109375,2.0625 C 3.5,-0.296875 2.9375,0 2.484375,0 Z m 0,0"
           id="path17" />
      </symbol>
      <symbol
         overflow="visible"
         id="glyph0-6">
        <path
           style="stroke:none"
           d="m 4.75,-6.078125 c 0.078125,-0.109375 0.078125,-0.125 0.078125,-0.34375 H 2.40625 c -1.203125,0 -1.234375,-0.125 -1.265625,-0.3125 h -0.25 L 0.5625,-4.6875 h 0.25 c 0.03125,-0.15625 0.109375,-0.78125 0.25,-0.90625 0.0625,-0.0625 0.84375,-0.0625 0.96875,-0.0625 h 2.0625 C 3.984375,-5.5 3.203125,-4.40625 2.984375,-4.078125 2.078125,-2.734375 1.75,-1.34375 1.75,-0.328125 c 0,0.09375 0,0.546875 0.46875,0.546875 0.453125,0 0.453125,-0.453125 0.453125,-0.546875 V -0.84375 c 0,-0.546875 0.03125,-1.09375 0.109375,-1.625 0.046875,-0.234375 0.171875,-1.09375 0.625,-1.703125 z m 0,0"
           id="path20" />
      </symbol>
      <symbol
         overflow="visible"
         id="glyph0-7">
        <path
           style="stroke:none"
           d="m 2.9375,-1.640625 v 0.859375 c 0,0.359375 -0.03125,0.46875 -0.765625,0.46875 H 1.96875 V 0 C 2.375,-0.03125 2.890625,-0.03125 3.3125,-0.03125 c 0.421875,0 0.9375,0 1.359375,0.03125 v -0.3125 h -0.21875 c -0.734375,0 -0.75,-0.109375 -0.75,-0.46875 V -1.640625 H 4.6875 v -0.3125 H 3.703125 v -4.53125 c 0,-0.203125 0,-0.265625 -0.171875,-0.265625 -0.078125,0 -0.109375,0 -0.1875,0.125 l -3.0625,4.671875 v 0.3125 z m 0.046875,-0.3125 H 0.5625 l 2.421875,-3.71875 z m 0,0"
           id="path23" />
      </symbol>
      <symbol
         overflow="visible"
         id="glyph0-8">
        <path
           style="stroke:none"
           d="m 3.65625,-3.171875 v 0.328125 c 0,2.328125 -1.03125,2.78125 -1.609375,2.78125 -0.171875,0 -0.71875,-0.015625 -0.984375,-0.359375 0.4375,0 0.515625,-0.28125 0.515625,-0.453125 0,-0.3125 -0.234375,-0.453125 -0.453125,-0.453125 -0.15625,0 -0.453125,0.078125 -0.453125,0.46875 0,0.671875 0.53125,1.078125 1.375,1.078125 1.296875,0 2.515625,-1.359375 2.515625,-3.5 0,-2.6875 -1.15625,-3.359375 -2.046875,-3.359375 -0.546875,0 -1.03125,0.1875 -1.453125,0.625 -0.421875,0.453125 -0.640625,0.875 -0.640625,1.625 0,1.234375 0.875,2.21875 1.984375,2.21875 0.609375,0 1.015625,-0.421875 1.25,-1 z M 2.421875,-2.40625 c -0.15625,0 -0.625,0 -0.921875,-0.625 -0.1875,-0.375 -0.1875,-0.859375 -0.1875,-1.359375 0,-0.53125 0,-1 0.21875,-1.375 0.265625,-0.5 0.640625,-0.625 0.984375,-0.625 0.46875,0 0.796875,0.34375 0.96875,0.78125 0.109375,0.328125 0.15625,0.953125 0.15625,1.40625 0,0.828125 -0.34375,1.796875 -1.21875,1.796875 z m 0,0"
           id="path26" />
      </symbol>
      <symbol
         overflow="visible"
         id="glyph1-0">
        <path
           style="stroke:none"
           d=""
           id="path29" />
      </symbol>
      <symbol
         overflow="visible"
         id="glyph1-1">
        <path
           style="stroke:none"
           d="m 6.5625,-2.296875 c 0.171875,0 0.359375,0 0.359375,-0.203125 0,-0.1875 -0.1875,-0.1875 -0.359375,-0.1875 H 1.171875 c -0.171875,0 -0.34375,0 -0.34375,0.1875 0,0.203125 0.171875,0.203125 0.34375,0.203125 z m 0,0"
           id="path32" />
      </symbol>
      <symbol
         overflow="visible"
         id="glyph2-0">
        <path
           style="stroke:none"
           d=""
           id="path35" />
      </symbol>
      <symbol
         overflow="visible"
         id="glyph2-1">
        <path
           style="stroke:none"
           d="m 7.546875,29.390625 c 0,-0.01563 0,-0.04687 -0.0625,-0.109375 C 6.53125,28.125 5.734375,26.84375 5.140625,25.453125 3.84375,22.40625 3.3125,18.84375 3.3125,14.546875 3.3125,10.3125 3.8125,6.578125 5.28125,3.3125 5.859375,2.046875 6.625,0.875 7.5,-0.203125 c 0.03125,-0.03125 0.046875,-0.0625 0.046875,-0.09375 0,-0.109375 -0.0625,-0.109375 -0.21875,-0.109375 -0.15625,0 -0.171875,0 -0.1875,0.03125 -0.015625,0 -0.625,0.609375 -1.40625,1.703125 C 4,3.78125 3.125,6.703125 2.671875,9.671875 c -0.234375,1.609375 -0.3125,3.25 -0.3125,4.875 0,3.71875 0.46875,7.53125 2.0625,10.9375 C 5.125,27 6.078125,28.375 7.0625,29.40625 7.140625,29.484375 7.15625,29.5 7.328125,29.5 c 0.15625,0 0.21875,0 0.21875,-0.109375 z m 0,0"
           id="path38" />
      </symbol>
      <symbol
         overflow="visible"
         id="glyph2-2">
        <path
           style="stroke:none"
           d="m 5.53125,14.546875 c 0,-3.71875 -0.46875,-7.53125 -2.0625,-10.9375 C 2.765625,2.09375 1.8125,0.734375 0.828125,-0.3125 0.734375,-0.390625 0.734375,-0.40625 0.5625,-0.40625 c -0.140625,0 -0.21875,0 -0.21875,0.109375 0,0.03125 0.03125,0.09375 0.0625,0.125 0.953125,1.15625 1.75,2.421875 2.328125,3.8125 1.3125,3.046875 1.828125,6.625 1.828125,10.90625 0,4.25 -0.484375,7.96875 -1.953125,11.25 C 2.03125,27.0625 1.265625,28.234375 0.375,29.3125 c 0,0.01563 -0.03125,0.0625 -0.03125,0.07813 C 0.34375,29.5 0.421875,29.5 0.5625,29.5 c 0.140625,0 0.171875,0 0.1875,-0.01563 0,-0.01563 0.625,-0.609375 1.40625,-1.71875 1.734375,-2.4375 2.609375,-5.375 3.0625,-8.34375 0.234375,-1.609375 0.3125,-3.25 0.3125,-4.875 z m 0,0"
           id="path41" />
      </symbol>
    </g>
  </defs>
  <g
     id="surface1"
     transform="translate(-137.39337,-122.07775)">
    <g
       style="fill:#ff0000;fill-opacity:1"
       id="g50">
      <use
         xlink:href="#glyph0-1"
         x="196.862"
         y="134.211"
         id="use48"
         width="100%"
         height="100%" />
    </g>
    <g
       style="fill:#ff0000;fill-opacity:1"
       id="g54">
      <use
         xlink:href="#glyph0-2"
         x="219.554"
         y="134.211"
         id="use52"
         width="100%"
         height="100%" />
    </g>
    <path
       style="fill:none;stroke:#000000;stroke-width:0.3985;stroke-linecap:butt;stroke-linejoin:miter;stroke-miterlimit:10;stroke-opacity:1"
       d="m 157.71484,-66.03125 v 13.230469"
       transform="matrix(1,0,0,-1,72,72)"
       id="path56" />
    <g
       style="fill:#ff0000;fill-opacity:1"
       id="g60">
      <use
         xlink:href="#glyph1-1"
         x="234.897"
         y="134.211"
         id="use58"
         width="100%"
         height="100%" />
    </g>
    <g
       style="fill:#ff0000;fill-opacity:1"
       id="g64">
      <use
         xlink:href="#glyph0-3"
         x="242.646"
         y="134.211"
         id="use62"
         width="100%"
         height="100%" />
    </g>
    <g
       style="fill:#ff0000;fill-opacity:1"
       id="g68">
      <use
         xlink:href="#glyph0-3"
         x="196.862"
         y="147.439"
         id="use66"
         width="100%"
         height="100%" />
    </g>
    <g
       style="fill:#ff0000;fill-opacity:1"
       id="g72">
      <use
         xlink:href="#glyph1-1"
         x="211.806"
         y="147.439"
         id="use70"
         width="100%"
         height="100%" />
    </g>
    <g
       style="fill:#ff0000;fill-opacity:1"
       id="g76">
      <use
         xlink:href="#glyph0-4"
         x="219.55499"
         y="147.439"
         id="use74"
         width="100%"
         height="100%" />
    </g>
    <path
       style="fill:none;stroke:#000000;stroke-width:0.3985;stroke-linecap:butt;stroke-linejoin:miter;stroke-miterlimit:10;stroke-opacity:1"
       d="M 157.71484,-79.257812 V -66.03125"
       transform="matrix(1,0,0,-1,72,72)"
       id="path78" />
    <g
       style="fill:#ff0000;fill-opacity:1"
       id="g82">
      <use
         xlink:href="#glyph0-5"
         x="242.645"
         y="147.439"
         id="use80"
         width="100%"
         height="100%" />
    </g>
    <g
       style="fill:#ff0000;fill-opacity:1"
       id="g86">
      <use
         xlink:href="#glyph0-3"
         x="148.71201"
         y="166.33701"
         id="use84"
         width="100%"
         height="100%" />
    </g>
    <g
       style="fill:#ff0000;fill-opacity:1"
       id="g90">
      <use
         xlink:href="#glyph0-4"
         x="163.65601"
         y="166.33701"
         id="use88"
         width="100%"
         height="100%" />
    </g>
    <g
       style="fill:#000000;fill-opacity:1"
       id="g94">
      <use
         xlink:href="#glyph0-6"
         x="196.862"
         y="166.33701"
         id="use92"
         width="100%"
         height="100%" />
    </g>
    <g
       style="fill:#000000;fill-opacity:1"
       id="g98">
      <use
         xlink:href="#glyph1-1"
         x="211.806"
         y="166.33701"
         id="use96"
         width="100%"
         height="100%" />
    </g>
    <g
       style="fill:#000000;fill-opacity:1"
       id="g102">
      <use
         xlink:href="#glyph0-3"
         x="219.55499"
         y="166.33701"
         id="use100"
         width="100%"
         height="100%" />
    </g>
    <path
       style="fill:none;stroke:#000000;stroke-width:0.3985;stroke-linecap:butt;stroke-linejoin:miter;stroke-miterlimit:10;stroke-opacity:1"
       d="m 157.71484,-98.15625 v 13.226562"
       transform="matrix(1,0,0,-1,72,72)"
       id="path104" />
    <g
       style="fill:#000000;fill-opacity:1"
       id="g108">
      <use
         xlink:href="#glyph1-1"
         x="234.897"
         y="166.33701"
         id="use106"
         width="100%"
         height="100%" />
    </g>
    <g
       style="fill:#000000;fill-opacity:1"
       id="g112">
      <use
         xlink:href="#glyph0-3"
         x="242.646"
         y="166.33701"
         id="use110"
         width="100%"
         height="100%" />
    </g>
    <g
       style="fill:#ff0000;fill-opacity:1"
       id="g116">
      <use
         xlink:href="#glyph0-2"
         x="148.71201"
         y="179.565"
         id="use114"
         width="100%"
         height="100%" />
    </g>
    <g
       style="fill:#ff0000;fill-opacity:1"
       id="g120">
      <use
         xlink:href="#glyph0-7"
         x="163.65601"
         y="179.565"
         id="use118"
         width="100%"
         height="100%" />
    </g>
    <g
       style="fill:#000000;fill-opacity:1"
       id="g126">
      <use
         xlink:href="#glyph0-3"
         x="191.881"
         y="179.565"
         id="use122"
         width="100%"
         height="100%" />
      <use
         xlink:href="#glyph0-8"
         x="196.8623"
         y="179.565"
         id="use124"
         width="100%"
         height="100%" />
    </g>
    <g
       style="fill:#000000;fill-opacity:1"
       id="g130">
      <use
         xlink:href="#glyph0-3"
         x="219.554"
         y="179.565"
         id="use128"
         width="100%"
         height="100%" />
    </g>
    <path
       style="fill:none;stroke:#000000;stroke-width:0.3985;stroke-linecap:butt;stroke-linejoin:miter;stroke-miterlimit:10;stroke-opacity:1"
       d="m 157.71484,-111.38281 v 13.22656"
       transform="matrix(1,0,0,-1,72,72)"
       id="path132" />
    <g
       style="fill:#000000;fill-opacity:1"
       id="g136">
      <use
         xlink:href="#glyph1-1"
         x="234.897"
         y="179.565"
         id="use134"
         width="100%"
         height="100%" />
    </g>
    <g
       style="fill:#000000;fill-opacity:1"
       id="g140">
      <use
         xlink:href="#glyph0-2"
         x="242.646"
         y="179.565"
         id="use138"
         width="100%"
         height="100%" />
    </g>
    <g
       style="fill:#000000;fill-opacity:1"
       id="g144">
      <use
         xlink:href="#glyph2-1"
         x="136.034"
         y="155.61"
         id="use142"
         width="100%"
         height="100%" />
    </g>
    <g
       style="fill:#000000;fill-opacity:1"
       id="g148">
      <use
         xlink:href="#glyph2-2"
         x="173.427"
         y="155.61"
         id="use146"
         width="100%"
         height="100%" />
    </g>
    <g
       style="fill:#000000;fill-opacity:1"
       id="g152">
      <use
         xlink:href="#glyph2-1"
         x="179.202"
         y="123.484"
         id="use150"
         width="100%"
         height="100%" />
    </g>
    <g
       style="fill:#000000;fill-opacity:1"
       id="g156">
      <use
         xlink:href="#glyph2-2"
         x="252.41701"
         y="123.484"
         id="use154"
         width="100%"
         height="100%" />
    </g>
    <g
       style="fill:#000000;fill-opacity:1"
       id="g160">
      <use
         xlink:href="#glyph2-1"
         x="179.202"
         y="155.61"
         id="use158"
         width="100%"
         height="100%" />
    </g>
    <g
       style="fill:#000000;fill-opacity:1"
       id="g164">
      <use
         xlink:href="#glyph2-2"
         x="252.41701"
         y="155.61"
         id="use162"
         width="100%"
         height="100%" />
    </g>
  </g>
</svg>
