<?xml version="1.0" standalone="no"?>

<svg 
     version="1.1"
     baseProfile="full"
     xmlns="http://www.w3.org/2000/svg"
     xmlns:xlink="http://www.w3.org/1999/xlink"
     xmlns:ev="http://www.w3.org/2001/xml-events"
     x="0px"
     y="0px"
     width="523px"
     height="448px"
     viewBox="0 0 523 448"
     >
<title></title>
<desc>Creator: FreeHEP Graphics2D Driver Producer: geogebra.export.SVGExtensions Revision: 12753  Source:  Date: Wednesday, March 18, 2020 at 9:46:48 AM Eastern Daylight Time</desc>
<g stroke-dashoffset="0" stroke-linejoin="miter" stroke-dasharray="none" stroke-width="1" stroke-linecap="square" stroke-miterlimit="10">
<g transform="matrix(0.5669291338582676, 0, 0, 0.5669291338582676, 0, 0)">
<g fill="#ffffff" fill-rule="nonzero" fill-opacity="1" stroke="none">
  <path d="M 0 0 L 924 0 L 924 791 L 0 791 L 0 0 z"/>
</g> <!-- drawing style -->
</g> <!-- transform -->
<g transform="matrix(0.5669291338582676, 0, 0, 0.5669291338582676, 0, 0)">
<g stroke-opacity="1" stroke-linejoin="round" stroke-dasharray="5,4" fill="none" stroke="#c0c0c0" stroke-linecap="butt">
  <path d="M 10.999999999999943 0 L 10.999999999999943 791"/>
</g> <!-- drawing style -->
</g> <!-- transform -->
<g transform="matrix(0.5669291338582676, 0, 0, 0.5669291338582676, 0, 0)">
<g stroke-opacity="1" stroke-linejoin="round" stroke-dasharray="5,4" fill="none" stroke="#c0c0c0" stroke-linecap="butt">
  <path d="M 10.999999999999943 0 L 10.999999999999943 791"/>
</g> <!-- drawing style -->
</g> <!-- transform -->
<g transform="matrix(0.5669291338582676, 0, 0, 0.5669291338582676, 0, 0)">
<g stroke-opacity="1" stroke-linejoin="round" stroke-dasharray="5,4" fill="none" stroke="#c0c0c0" stroke-linecap="butt">
  <path d="M 60.99999999999995 0 L 60.99999999999995 791"/>
</g> <!-- drawing style -->
</g> <!-- transform -->
<g transform="matrix(0.5669291338582676, 0, 0, 0.5669291338582676, 0, 0)">
<g stroke-opacity="1" stroke-linejoin="round" stroke-dasharray="5,4" fill="none" stroke="#c0c0c0" stroke-linecap="butt">
  <path d="M 110.99999999999996 0 L 110.99999999999996 791"/>
</g> <!-- drawing style -->
</g> <!-- transform -->
<g transform="matrix(0.5669291338582676, 0, 0, 0.5669291338582676, 0, 0)">
<g stroke-opacity="1" stroke-linejoin="round" stroke-dasharray="5,4" fill="none" stroke="#c0c0c0" stroke-linecap="butt">
  <path d="M 160.99999999999997 0 L 160.99999999999997 791"/>
</g> <!-- drawing style -->
</g> <!-- transform -->
<g transform="matrix(0.5669291338582676, 0, 0, 0.5669291338582676, 0, 0)">
<g stroke-opacity="1" stroke-linejoin="round" stroke-dasharray="5,4" fill="none" stroke="#c0c0c0" stroke-linecap="butt">
  <path d="M 210.99999999999997 0 L 210.99999999999997 791"/>
</g> <!-- drawing style -->
</g> <!-- transform -->
<g transform="matrix(0.5669291338582676, 0, 0, 0.5669291338582676, 0, 0)">
<g stroke-opacity="1" stroke-linejoin="round" stroke-dasharray="5,4" fill="none" stroke="#c0c0c0" stroke-linecap="butt">
  <path d="M 261 0 L 261 791"/>
</g> <!-- drawing style -->
</g> <!-- transform -->
<g transform="matrix(0.5669291338582676, 0, 0, 0.5669291338582676, 0, 0)">
<g stroke-opacity="1" stroke-linejoin="round" stroke-dasharray="5,4" fill="none" stroke="#c0c0c0" stroke-linecap="butt">
  <path d="M 311 0 L 311 791"/>
</g> <!-- drawing style -->
</g> <!-- transform -->
<g transform="matrix(0.5669291338582676, 0, 0, 0.5669291338582676, 0, 0)">
<g stroke-opacity="1" stroke-linejoin="round" stroke-dasharray="5,4" fill="none" stroke="#c0c0c0" stroke-linecap="butt">
  <path d="M 361 0 L 361 791"/>
</g> <!-- drawing style -->
</g> <!-- transform -->
<g transform="matrix(0.5669291338582676, 0, 0, 0.5669291338582676, 0, 0)">
<g stroke-opacity="1" stroke-linejoin="round" stroke-dasharray="5,4" fill="none" stroke="#c0c0c0" stroke-linecap="butt">
  <path d="M 411 0 L 411 791"/>
</g> <!-- drawing style -->
</g> <!-- transform -->
<g transform="matrix(0.5669291338582676, 0, 0, 0.5669291338582676, 0, 0)">
<g stroke-opacity="1" stroke-linejoin="round" stroke-dasharray="5,4" fill="none" stroke="#c0c0c0" stroke-linecap="butt">
  <path d="M 461 0 L 461 791"/>
</g> <!-- drawing style -->
</g> <!-- transform -->
<g transform="matrix(0.5669291338582676, 0, 0, 0.5669291338582676, 0, 0)">
<g stroke-opacity="1" stroke-linejoin="round" stroke-dasharray="5,4" fill="none" stroke="#c0c0c0" stroke-linecap="butt">
  <path d="M 511 0 L 511 791"/>
</g> <!-- drawing style -->
</g> <!-- transform -->
<g transform="matrix(0.5669291338582676, 0, 0, 0.5669291338582676, 0, 0)">
<g stroke-opacity="1" stroke-linejoin="round" stroke-dasharray="5,4" fill="none" stroke="#c0c0c0" stroke-linecap="butt">
  <path d="M 561 0 L 561 791"/>
</g> <!-- drawing style -->
</g> <!-- transform -->
<g transform="matrix(0.5669291338582676, 0, 0, 0.5669291338582676, 0, 0)">
<g stroke-opacity="1" stroke-linejoin="round" stroke-dasharray="5,4" fill="none" stroke="#c0c0c0" stroke-linecap="butt">
  <path d="M 611 0 L 611 791"/>
</g> <!-- drawing style -->
</g> <!-- transform -->
<g transform="matrix(0.5669291338582676, 0, 0, 0.5669291338582676, 0, 0)">
<g stroke-opacity="1" stroke-linejoin="round" stroke-dasharray="5,4" fill="none" stroke="#c0c0c0" stroke-linecap="butt">
  <path d="M 661 0 L 661 791"/>
</g> <!-- drawing style -->
</g> <!-- transform -->
<g transform="matrix(0.5669291338582676, 0, 0, 0.5669291338582676, 0, 0)">
<g stroke-opacity="1" stroke-linejoin="round" stroke-dasharray="5,4" fill="none" stroke="#c0c0c0" stroke-linecap="butt">
  <path d="M 711 0 L 711 791"/>
</g> <!-- drawing style -->
</g> <!-- transform -->
<g transform="matrix(0.5669291338582676, 0, 0, 0.5669291338582676, 0, 0)">
<g stroke-opacity="1" stroke-linejoin="round" stroke-dasharray="5,4" fill="none" stroke="#c0c0c0" stroke-linecap="butt">
  <path d="M 761 0 L 761 791"/>
</g> <!-- drawing style -->
</g> <!-- transform -->
<g transform="matrix(0.5669291338582676, 0, 0, 0.5669291338582676, 0, 0)">
<g stroke-opacity="1" stroke-linejoin="round" stroke-dasharray="5,4" fill="none" stroke="#c0c0c0" stroke-linecap="butt">
  <path d="M 811 0 L 811 791"/>
</g> <!-- drawing style -->
</g> <!-- transform -->
<g transform="matrix(0.5669291338582676, 0, 0, 0.5669291338582676, 0, 0)">
<g stroke-opacity="1" stroke-linejoin="round" stroke-dasharray="5,4" fill="none" stroke="#c0c0c0" stroke-linecap="butt">
  <path d="M 861 0 L 861 791"/>
</g> <!-- drawing style -->
</g> <!-- transform -->
<g transform="matrix(0.5669291338582676, 0, 0, 0.5669291338582676, 0, 0)">
<g stroke-opacity="1" stroke-linejoin="round" stroke-dasharray="5,4" fill="none" stroke="#c0c0c0" stroke-linecap="butt">
  <path d="M 911 0 L 911 791"/>
</g> <!-- drawing style -->
</g> <!-- transform -->
<g transform="matrix(0.5669291338582676, 0, 0, 0.5669291338582676, 0, 0)">
<g stroke-opacity="1" stroke-linejoin="round" stroke-dasharray="5,4" fill="none" stroke="#c0c0c0" stroke-linecap="butt">
  <path d="M 0 62.666666666666714 L 924 62.666666666666714"/>
</g> <!-- drawing style -->
</g> <!-- transform -->
<g transform="matrix(0.5669291338582676, 0, 0, 0.5669291338582676, 0, 0)">
<g stroke-opacity="1" stroke-linejoin="round" stroke-dasharray="5,4" fill="none" stroke="#c0c0c0" stroke-linecap="butt">
  <path d="M 0 62.666666666666714 L 924 62.666666666666714"/>
</g> <!-- drawing style -->
</g> <!-- transform -->
<g transform="matrix(0.5669291338582676, 0, 0, 0.5669291338582676, 0, 0)">
<g stroke-opacity="1" stroke-linejoin="round" stroke-dasharray="5,4" fill="none" stroke="#c0c0c0" stroke-linecap="butt">
  <path d="M 0 129.33333333333337 L 924 129.33333333333337"/>
</g> <!-- drawing style -->
</g> <!-- transform -->
<g transform="matrix(0.5669291338582676, 0, 0, 0.5669291338582676, 0, 0)">
<g stroke-opacity="1" stroke-linejoin="round" stroke-dasharray="5,4" fill="none" stroke="#c0c0c0" stroke-linecap="butt">
  <path d="M 0 196.00000000000003 L 924 196.00000000000003"/>
</g> <!-- drawing style -->
</g> <!-- transform -->
<g transform="matrix(0.5669291338582676, 0, 0, 0.5669291338582676, 0, 0)">
<g stroke-opacity="1" stroke-linejoin="round" stroke-dasharray="5,4" fill="none" stroke="#c0c0c0" stroke-linecap="butt">
  <path d="M 0 262.6666666666667 L 924 262.6666666666667"/>
</g> <!-- drawing style -->
</g> <!-- transform -->
<g transform="matrix(0.5669291338582676, 0, 0, 0.5669291338582676, 0, 0)">
<g stroke-opacity="1" stroke-linejoin="round" stroke-dasharray="5,4" fill="none" stroke="#c0c0c0" stroke-linecap="butt">
  <path d="M 0 329.33333333333337 L 924 329.33333333333337"/>
</g> <!-- drawing style -->
</g> <!-- transform -->
<g transform="matrix(0.5669291338582676, 0, 0, 0.5669291338582676, 0, 0)">
<g stroke-opacity="1" stroke-linejoin="round" stroke-dasharray="5,4" fill="none" stroke="#c0c0c0" stroke-linecap="butt">
  <path d="M 0 396 L 924 396"/>
</g> <!-- drawing style -->
</g> <!-- transform -->
<g transform="matrix(0.5669291338582676, 0, 0, 0.5669291338582676, 0, 0)">
<g stroke-opacity="1" stroke-linejoin="round" stroke-dasharray="5,4" fill="none" stroke="#c0c0c0" stroke-linecap="butt">
  <path d="M 0 462.66666666666663 L 924 462.66666666666663"/>
</g> <!-- drawing style -->
</g> <!-- transform -->
<g transform="matrix(0.5669291338582676, 0, 0, 0.5669291338582676, 0, 0)">
<g stroke-opacity="1" stroke-linejoin="round" stroke-dasharray="5,4" fill="none" stroke="#c0c0c0" stroke-linecap="butt">
  <path d="M 0 529.3333333333334 L 924 529.3333333333334"/>
</g> <!-- drawing style -->
</g> <!-- transform -->
<g transform="matrix(0.5669291338582676, 0, 0, 0.5669291338582676, 0, 0)">
<g stroke-opacity="1" stroke-linejoin="round" stroke-dasharray="5,4" fill="none" stroke="#c0c0c0" stroke-linecap="butt">
  <path d="M 0 596 L 924 596"/>
</g> <!-- drawing style -->
</g> <!-- transform -->
<g transform="matrix(0.5669291338582676, 0, 0, 0.5669291338582676, 0, 0)">
<g stroke-opacity="1" stroke-linejoin="round" stroke-dasharray="5,4" fill="none" stroke="#c0c0c0" stroke-linecap="butt">
  <path d="M 0 662.6666666666666 L 924 662.6666666666666"/>
</g> <!-- drawing style -->
</g> <!-- transform -->
<g transform="matrix(0.5669291338582676, 0, 0, 0.5669291338582676, 0, 0)">
<g stroke-opacity="1" stroke-linejoin="round" stroke-dasharray="5,4" fill="none" stroke="#c0c0c0" stroke-linecap="butt">
  <path d="M 0 729.3333333333333 L 924 729.3333333333333"/>
</g> <!-- drawing style -->
</g> <!-- transform -->
<g id="misc">
</g><!-- misc -->
<g id="layer0">
<g transform="matrix(0.5669291338582676, 0, 0, 0.5669291338582676, 0, 0)">
<g stroke-opacity="1" stroke-linejoin="round" stroke-width="3.5" fill="none" stroke="#ff3333" stroke-linecap="round">
  <path d="M 411 796 L 411 -5"/>
</g> <!-- drawing style -->
</g> <!-- transform -->
<g transform="matrix(0.5669291338582676, 0, 0, 0.5669291338582676, 0, 0)">
<g stroke-opacity="1" stroke-linejoin="round" stroke-width="3.5" fill="none" stroke="#ff3333" stroke-linecap="round">
  <path d="M -5 396 L 929 396"/>
</g> <!-- drawing style -->
</g> <!-- transform -->
<g transform="matrix(0.5669291338582676, 0, 0, 0.5669291338582676, 0, 0)">
<g stroke-opacity="1" stroke-linejoin="round" stroke-width="2.5" fill="none" stroke="#000000" stroke-linecap="round">
  <path d="M 411 396 L 594.8723839331412 334.7092053556196"/>
</g> <!-- drawing style -->
</g> <!-- transform -->
<g transform="matrix(0.5669291338582676, 0, 0, 0.5669291338582676, 0, 0)">
<g fill="#000000" fill-rule="nonzero" fill-opacity="1" stroke="none">
  <path d="M 611 329.3333435058594 L 596.2163696289062 338.7411193847656 L 593.5284423828125 330.67730712890625 z"/>
</g> <!-- drawing style -->
</g> <!-- transform -->
<g transform="matrix(0.5669291338582676, 0, 0, 0.5669291338582676, 0, 0)">
<g stroke-opacity="1" stroke-linejoin="round" stroke-width="2.5" fill="none" stroke="#000000" stroke-linecap="round">
  <path d="M 411 396 L 365.12310562561765 579.5075774975294"/>
</g> <!-- drawing style -->
</g> <!-- transform -->
<g transform="matrix(0.5669291338582676, 0, 0, 0.5669291338582676, 0, 0)">
<g fill="#000000" fill-rule="nonzero" fill-opacity="1" stroke="none">
  <path d="M 361 596 L 361 578.476806640625 L 369.2462158203125 580.538330078125 z"/>
</g> <!-- drawing style -->
</g> <!-- transform -->
<g transform="matrix(0.5669291338582676, 0, 0, 0.5669291338582676, 0, 0)">
<g stroke-opacity="1" stroke-linejoin="round" stroke-width="2.5" fill="none" stroke="#3333ff" stroke-linecap="round">
  <path d="M 411 396 L 744 396"/>
</g> <!-- drawing style -->
</g> <!-- transform -->
<g transform="matrix(0.5669291338582676, 0, 0, 0.5669291338582676, 0, 0)">
<g fill="#3333ff" fill-rule="nonzero" fill-opacity="1" stroke="none">
  <path d="M 761 396 L 744 400.25 L 744 391.75 z"/>
</g> <!-- drawing style -->
</g> <!-- transform -->
<g transform="matrix(0.5669291338582676, 0, 0, 0.5669291338582676, 0, 0)">
<g stroke-opacity="1" stroke-linejoin="round" stroke-width="2.5" fill="none" stroke="#3333ff" stroke-linecap="round">
  <path d="M 411 396 L 411 146.33333333333337"/>
</g> <!-- drawing style -->
</g> <!-- transform -->
<g transform="matrix(0.5669291338582676, 0, 0, 0.5669291338582676, 0, 0)">
<g fill="#3333ff" fill-rule="nonzero" fill-opacity="1" stroke="none">
  <path d="M 411 129.3333282470703 L 415.25 146.3333282470703 L 406.75 146.3333282470703 z"/>
</g> <!-- drawing style -->
</g> <!-- transform -->
<g transform="matrix(0.3514960551355767, 0, 0, 0.3514960551355767, 323.1495998112235, 101.45510236484796)">
<clipPath id="clip1">
  <path d="M -919.3548408006468 -288.6379544877549 L -919.3548408006468 987.1685256416453 L 570.9677731558209 987.1685256416453 L 570.9677731558209 -288.6379544877549 z"/>
</clipPath>
<g clip-path="url(#clip1)">
<text font-weight="normal" font-size="100" font-family="Jlm_cmmi10" font-style="normal" fill="#000000" fill-opacity="1" stroke="none" x="0" y="0">x</text>
</g> <!-- clip1 -->
</g> <!-- transform -->
<g transform="matrix(0.3514960551355767, 0, 0, 0.3514960551355767, 343.2385846160528, 101.45510236484796)">
<clipPath id="clip2">
  <path d="M -976.507643830202 -288.6379544877549 L -976.507643830202 987.1685256416453 L 513.8149701262656 987.1685256416453 L 513.8149701262656 -288.6379544877549 z"/>
</clipPath>
<g clip-path="url(#clip2)">
<text font-weight="normal" font-size="100" font-family="Jlm_cmmi10" font-style="normal" fill="#000000" fill-opacity="1" stroke="none" x="0" y="0">y</text>
</g> <!-- clip2 -->
</g> <!-- transform -->
<g transform="matrix(0.3514960551355767, 0, 0, 0.3514960551355767, 371.49674646873166, 101.45510236484796)">
<clipPath id="clip3">
  <path d="M -1056.9016096793475 -288.6379544877549 L -1056.9016096793475 987.1685256416453 L 433.4210042771201 987.1685256416453 L 433.4210042771201 -288.6379544877549 z"/>
</clipPath>
<g clip-path="url(#clip3)">
<text font-weight="normal" font-size="100" font-family="Jlm_cmmi10" font-style="normal" fill="#000000" fill-opacity="1" stroke="none" x="0" y="0">&gt;</text>
</g> <!-- clip3 -->
</g> <!-- transform -->
<g transform="matrix(0.3514960551355767, 0, 0, 0.3514960551355767, 408.59925626018844, 101.45510236484796)">
<clipPath id="clip4">
  <path d="M -1162.4575874758716 -288.6379544877549 L -1162.4575874758716 987.1685256416453 L 327.86502648059604 987.1685256416453 L 327.86502648059604 -288.6379544877549 z"/>
</clipPath>
<g clip-path="url(#clip4)">
<text font-weight="normal" font-size="100" font-family="Jlm_cmr10" font-style="normal" fill="#000000" fill-opacity="1" stroke="none" x="0" y="0">0</text>
</g> <!-- clip4 -->
</g> <!-- transform -->
<g transform="matrix(0.3514960551355767, 0, 0, 0.3514960551355767, 39.685039234912296, 365.6440530611774)">
<clipPath id="clip5">
  <path d="M -112.90322794548932 -1040.2508014496595 L -112.90322794548932 235.5556786797406 L 1377.4193860109783 235.5556786797406 L 1377.4193860109783 -1040.2508014496595 z"/>
</clipPath>
<g clip-path="url(#clip5)">
<text font-weight="normal" font-size="100" font-family="Jlm_cmmi10" font-style="normal" fill="#000000" fill-opacity="1" stroke="none" x="0" y="0">x</text>
</g> <!-- clip5 -->
</g> <!-- transform -->
<g transform="matrix(0.3514960551355767, 0, 0, 0.3514960551355767, 59.77402403974156, 365.6440530611774)">
<clipPath id="clip6">
  <path d="M -170.05603097504445 -1040.2508014496595 L -170.05603097504445 235.5556786797406 L 1320.2665829814232 235.5556786797406 L 1320.2665829814232 -1040.2508014496595 z"/>
</clipPath>
<g clip-path="url(#clip6)">
<text font-weight="normal" font-size="100" font-family="Jlm_cmmi10" font-style="normal" fill="#000000" fill-opacity="1" stroke="none" x="0" y="0">y</text>
</g> <!-- clip6 -->
</g> <!-- transform -->
<g transform="matrix(0.3514960551355767, 0, 0, 0.3514960551355767, 88.03218589242047, 365.6440530611774)">
<clipPath id="clip7">
  <path d="M -250.44999682418992 -1040.2508014496595 L -250.44999682418992 235.5556786797406 L 1239.8726171322778 235.5556786797406 L 1239.8726171322778 -1040.2508014496595 z"/>
</clipPath>
<g clip-path="url(#clip7)">
<text font-weight="normal" font-size="100" font-family="Jlm_cmmi10" font-style="normal" fill="#000000" fill-opacity="1" stroke="none" x="0" y="0">&gt;</text>
</g> <!-- clip7 -->
</g> <!-- transform -->
<g transform="matrix(0.3514960551355767, 0, 0, 0.3514960551355767, 125.13469568387728, 365.6440530611774)">
<clipPath id="clip8">
  <path d="M -356.0059746207142 -1040.2508014496595 L -356.0059746207142 235.5556786797406 L 1134.3166393357535 235.5556786797406 L 1134.3166393357535 -1040.2508014496595 z"/>
</clipPath>
<g clip-path="url(#clip8)">
<text font-weight="normal" font-size="100" font-family="Jlm_cmr10" font-style="normal" fill="#000000" fill-opacity="1" stroke="none" x="0" y="0">0</text>
</g> <!-- clip8 -->
</g> <!-- transform -->
<g transform="matrix(0.3514960551355767, 0, 0, 0.3514960551355767, 39.685039234912296, 100.88817377165545)">
<clipPath id="clip9">
  <path d="M -112.90322794548932 -287.02505276408164 L -112.90322794548932 988.7814273653185 L 1377.4193860109783 988.7814273653185 L 1377.4193860109783 -287.02505276408164 z"/>
</clipPath>
<g clip-path="url(#clip9)">
<text font-weight="normal" font-size="100" font-family="Jlm_cmmi10" font-style="normal" fill="#000000" fill-opacity="1" stroke="none" x="0" y="0">x</text>
</g> <!-- clip9 -->
</g> <!-- transform -->
<g transform="matrix(0.3514960551355767, 0, 0, 0.3514960551355767, 59.77402403974156, 100.88817377165545)">
<clipPath id="clip10">
  <path d="M -170.05603097504445 -287.02505276408164 L -170.05603097504445 988.7814273653185 L 1320.2665829814232 988.7814273653185 L 1320.2665829814232 -287.02505276408164 z"/>
</clipPath>
<g clip-path="url(#clip10)">
<text font-weight="normal" font-size="100" font-family="Jlm_cmmi10" font-style="normal" fill="#000000" fill-opacity="1" stroke="none" x="0" y="0">y</text>
</g> <!-- clip10 -->
</g> <!-- transform -->
<g transform="matrix(0.3514960551355767, 0, 0, 0.3514960551355767, 88.03218589242047, 100.88817377165545)">
<clipPath id="clip11">
  <path d="M -250.44999682418992 -287.02505276408164 L -250.44999682418992 988.7814273653185 L 1239.8726171322778 988.7814273653185 L 1239.8726171322778 -287.02505276408164 z"/>
</clipPath>
<g clip-path="url(#clip11)">
<text font-weight="normal" font-size="100" font-family="Jlm_cmmi10" font-style="normal" fill="#000000" fill-opacity="1" stroke="none" x="0" y="0">&lt;</text>
</g> <!-- clip11 -->
</g> <!-- transform -->
<g transform="matrix(0.3514960551355767, 0, 0, 0.3514960551355767, 125.13469568387728, 100.88817377165545)">
<clipPath id="clip12">
  <path d="M -356.0059746207142 -287.02505276408164 L -356.0059746207142 988.7814273653185 L 1134.3166393357535 988.7814273653185 L 1134.3166393357535 -287.02505276408164 z"/>
</clipPath>
<g clip-path="url(#clip12)">
<text font-weight="normal" font-size="100" font-family="Jlm_cmr10" font-style="normal" fill="#000000" fill-opacity="1" stroke="none" x="0" y="0">0</text>
</g> <!-- clip12 -->
</g> <!-- transform -->
<g transform="matrix(0.3514960551355767, 0, 0, 0.3514960551355767, 323.1495998112235, 365.6440530611774)">
<clipPath id="clip13">
  <path d="M -919.3548408006468 -1040.2508014496595 L -919.3548408006468 235.5556786797406 L 570.9677731558209 235.5556786797406 L 570.9677731558209 -1040.2508014496595 z"/>
</clipPath>
<g clip-path="url(#clip13)">
<text font-weight="normal" font-size="100" font-family="Jlm_cmmi10" font-style="normal" fill="#000000" fill-opacity="1" stroke="none" x="0" y="0">x</text>
</g> <!-- clip13 -->
</g> <!-- transform -->
<g transform="matrix(0.3514960551355767, 0, 0, 0.3514960551355767, 343.2385846160528, 365.6440530611774)">
<clipPath id="clip14">
  <path d="M -976.507643830202 -1040.2508014496595 L -976.507643830202 235.5556786797406 L 513.8149701262656 235.5556786797406 L 513.8149701262656 -1040.2508014496595 z"/>
</clipPath>
<g clip-path="url(#clip14)">
<text font-weight="normal" font-size="100" font-family="Jlm_cmmi10" font-style="normal" fill="#000000" fill-opacity="1" stroke="none" x="0" y="0">y</text>
</g> <!-- clip14 -->
</g> <!-- transform -->
<g transform="matrix(0.3514960551355767, 0, 0, 0.3514960551355767, 371.49674646873166, 365.6440530611774)">
<clipPath id="clip15">
  <path d="M -1056.9016096793475 -1040.2508014496595 L -1056.9016096793475 235.5556786797406 L 433.4210042771201 235.5556786797406 L 433.4210042771201 -1040.2508014496595 z"/>
</clipPath>
<g clip-path="url(#clip15)">
<text font-weight="normal" font-size="100" font-family="Jlm_cmmi10" font-style="normal" fill="#000000" fill-opacity="1" stroke="none" x="0" y="0">&lt;</text>
</g> <!-- clip15 -->
</g> <!-- transform -->
<g transform="matrix(0.3514960551355767, 0, 0, 0.3514960551355767, 408.59925626018844, 365.6440530611774)">
<clipPath id="clip16">
  <path d="M -1162.4575874758716 -1040.2508014496595 L -1162.4575874758716 235.5556786797406 L 327.86502648059604 235.5556786797406 L 327.86502648059604 -1040.2508014496595 z"/>
</clipPath>
<g clip-path="url(#clip16)">
<text font-weight="normal" font-size="100" font-family="Jlm_cmr10" font-style="normal" fill="#000000" fill-opacity="1" stroke="none" x="0" y="0">0</text>
</g> <!-- clip16 -->
</g> <!-- transform -->
<g transform="matrix(0.3514960551355767, 0, 0, 0.3514960551355767, 239.24410097617798, 44.76218857352188)">
<clipPath id="clip17">
  <path d="M -680.6451949621407 -127.34762714835168 L -680.6451949621407 1148.4588529810485 L 809.6774189943269 1148.4588529810485 L 809.6774189943269 -127.34762714835168 z"/>
</clipPath>
<g clip-path="url(#clip17)">
<text font-weight="normal" font-size="100" font-family="Jlm_cmmi10" font-style="normal" fill="#ff3333" fill-opacity="1" stroke="none" x="0" y="0">x</text>
</g> <!-- clip17 -->
</g> <!-- transform -->
<g transform="matrix(0.3514960551355767, 0, 0, 0.3514960551355767, 269.09689510525675, 44.76218857352188)">
<clipPath id="clip18">
  <path d="M -765.5758611614076 -127.34762714835168 L -765.5758611614076 1148.4588529810485 L 724.74675279506 1148.4588529810485 L 724.74675279506 -127.34762714835168 z"/>
</clipPath>
<g clip-path="url(#clip18)">
<text font-weight="normal" font-size="100" font-family="Jlm_cmr10" font-style="normal" fill="#ff3333" fill-opacity="1" stroke="none" x="0" y="0">=</text>
</g> <!-- clip18 -->
</g> <!-- transform -->
<g transform="matrix(0.3514960551355767, 0, 0, 0.3514960551355767, 306.1993986114742, 44.76218857352188)">
<clipPath id="clip19">
  <path d="M -871.1318210765381 -127.34762714835168 L -871.1318210765381 1148.4588529810485 L 619.1907928799295 1148.4588529810485 L 619.1907928799295 -127.34762714835168 z"/>
</clipPath>
<g clip-path="url(#clip19)">
<text font-weight="normal" font-size="100" font-family="Jlm_cmr10" font-style="normal" fill="#ff3333" fill-opacity="1" stroke="none" x="0" y="0">0</text>
</g> <!-- clip19 -->
</g> <!-- transform -->
<g transform="matrix(0.3514960551355767, 0, 0, 0.3514960551355767, 11.338582339249257, 214.84092994750011)">
<clipPath id="clip20">
  <path d="M -32.25806427578772 -611.2186091665612 L -32.25806427578772 664.5878709628389 L 1458.0645496806799 664.5878709628389 L 1458.0645496806799 -611.2186091665612 z"/>
</clipPath>
<g clip-path="url(#clip20)">
<text font-weight="normal" font-size="100" font-family="Jlm_cmmi10" font-style="normal" fill="#ff3333" fill-opacity="1" stroke="none" x="0" y="0">y</text>
</g> <!-- clip20 -->
</g> <!-- transform -->
<g transform="matrix(0.3514960551355767, 0, 0, 0.3514960551355767, 39.59674419192817, 214.84092994750011)">
<clipPath id="clip21">
  <path d="M -112.6520301249332 -611.2186091665612 L -112.6520301249332 664.5878709628389 L 1377.6705838315345 664.5878709628389 L 1377.6705838315345 -611.2186091665612 z"/>
</clipPath>
<g clip-path="url(#clip21)">
<text font-weight="normal" font-size="100" font-family="Jlm_cmr10" font-style="normal" fill="#ff3333" fill-opacity="1" stroke="none" x="0" y="0">=</text>
</g> <!-- clip21 -->
</g> <!-- transform -->
<g transform="matrix(0.3514960551355767, 0, 0, 0.3514960551355767, 76.69924769814558, 214.84092994750011)">
<clipPath id="clip22">
  <path d="M -218.20799004006366 -611.2186091665612 L -218.20799004006366 664.5878709628389 L 1272.114623916404 664.5878709628389 L 1272.114623916404 -611.2186091665612 z"/>
</clipPath>
<g clip-path="url(#clip22)">
<text font-weight="normal" font-size="100" font-family="Jlm_cmr10" font-style="normal" fill="#ff3333" fill-opacity="1" stroke="none" x="0" y="0">0</text>
</g> <!-- clip22 -->
</g> <!-- transform -->
<g transform="matrix(0.2664566869576146, 0, 0, 0.2664566869576146, 299.33857240451596, 188.9212425712525)">
<clipPath id="clip23">
  <path d="M -1123.4042418763988 -709.0129533934507 L -1123.4042418763988 973.965807628311 L 842.553248874686 973.965807628311 L 842.553248874686 -709.0129533934507 z"/>
</clipPath>
<g clip-path="url(#clip23)">
<text font-weight="normal" font-size="100" font-family="Jlm_cmmi10" font-style="normal" fill="#000000" fill-opacity="1" stroke="none" x="0" y="0">v</text>
</g> <!-- clip23 -->
</g> <!-- transform -->
<g transform="matrix(0.18651967838875888, 0, 0, 0.18651967838875888, 312.25436899981156, 192.91809550608232)">
<clipPath id="clip24">
  <path d="M -1674.1095186159748 -1034.304246997399 L -1674.1095186159748 1369.9511578785089 L 1134.4012198231392 1369.9511578785089 L 1134.4012198231392 -1034.304246997399 z"/>
</clipPath>
<g clip-path="url(#clip24)">
<text font-weight="normal" font-size="100" font-family="Jlm_cmr10" font-style="normal" fill="#000000" fill-opacity="1" stroke="none" x="0" y="0">1</text>
</g> <!-- clip24 -->
</g> <!-- transform -->
<g transform="matrix(0.2664566869576146, 0, 0, 0.2664566869576146, 184.8188946641336, 304.5747975026528)">
<clipPath id="clip25">
  <path d="M -693.6170256201258 -1143.0555599120755 L -693.6170256201258 539.9232011096863 L 1272.340465130959 539.9232011096863 L 1272.340465130959 -1143.0555599120755 z"/>
</clipPath>
<g clip-path="url(#clip25)">
<text font-weight="normal" font-size="100" font-family="Jlm_cmmi10" font-style="normal" fill="#000000" fill-opacity="1" stroke="none" x="0" y="0">v</text>
</g> <!-- clip25 -->
</g> <!-- transform -->
<g transform="matrix(0.18651967838875888, 0, 0, 0.18651967838875888, 197.73469125942918, 308.5716377318374)">
<clipPath id="clip26">
  <path d="M -1060.1277729382264 -1654.3650535826484 L -1060.1277729382264 749.8903512932595 L 1748.3829655008876 749.8903512932595 L 1748.3829655008876 -1654.3650535826484 z"/>
</clipPath>
<g clip-path="url(#clip26)">
<text font-weight="normal" font-size="100" font-family="Jlm_cmr10" font-style="normal" fill="#000000" fill-opacity="1" stroke="none" x="0" y="0">2</text>
</g> <!-- clip26 -->
</g> <!-- transform -->
<g transform="matrix(0.2664566869576146, 0, 0, 0.2664566869576146, 200.12598262997122, 97.6456533717358)">
<clipPath id="clip27">
  <path d="M -751.0638404875363 -366.45975932016427 L -751.0638404875363 1316.5190017015975 L 1214.8936502635486 1316.5190017015975 L 1214.8936502635486 -366.45975932016427 z"/>
</clipPath>
<g clip-path="url(#clip27)">
<text font-weight="normal" font-size="100" font-family="Jlm_cmmi10" font-style="normal" fill="#3333ff" fill-opacity="1" stroke="none" x="0" y="0">u</text>
</g> <!-- clip27 -->
</g> <!-- transform -->
<g transform="matrix(0.18651967838875888, 0, 0, 0.18651967838875888, 215.3795163011926, 101.64250630656564)">
<clipPath id="clip28">
  <path d="M -1154.7281132035935 -544.9425346676526 L -1154.7281132035935 1859.3128702082554 L 1653.7826252355205 1859.3128702082554 L 1653.7826252355205 -544.9425346676526 z"/>
</clipPath>
<g clip-path="url(#clip28)">
<text font-weight="normal" font-size="100" font-family="Jlm_cmr10" font-style="normal" fill="#3333ff" fill-opacity="1" stroke="none" x="0" y="0">2</text>
</g> <!-- clip28 -->
</g> <!-- transform -->
<g transform="matrix(0.2664566869576146, 0, 0, 0.2664566869576146, 399.1181134802149, 249.01572994923023)">
<clipPath id="clip29">
  <path d="M -1497.8723860801542 -934.5448702844575 L -1497.8723860801542 748.4338907373043 L 468.0851046709306 748.4338907373043 L 468.0851046709306 -934.5448702844575 z"/>
</clipPath>
<g clip-path="url(#clip29)">
<text font-weight="normal" font-size="100" font-family="Jlm_cmmi10" font-style="normal" fill="#3333ff" fill-opacity="1" stroke="none" x="0" y="0">u</text>
</g> <!-- clip29 -->
</g> <!-- transform -->
<g transform="matrix(0.18651967838875888, 0, 0, 0.18651967838875888, 414.3716471514363, 253.01257017841485)">
<clipPath id="clip30">
  <path d="M -2221.59747824447 -1356.4926358658322 L -2221.59747824447 1047.7627690100758 L 586.913260194644 1047.7627690100758 L 586.913260194644 -1356.4926358658322 z"/>
</clipPath>
<g clip-path="url(#clip30)">
<text font-weight="normal" font-size="100" font-family="Jlm_cmr10" font-style="normal" fill="#3333ff" fill-opacity="1" stroke="none" x="0" y="0">1</text>
</g> <!-- clip30 -->
</g> <!-- transform -->
</g><!-- layer0 -->
<defs>
<font id="Jlm_cmr10">
<font-face font-family="Jlm_cmr10" font-weight="normal" font-style="normal" font-size="100" units-per-em="100" ascent="79.99992" desscent="19.99998" />
<missing-glyph horiz-adv-x="74.99992370605469"  d="M 12.5 0 L 12.5 62.5 L 62.5 62.5 L 62.5 0 L 12.5 0 z M 60.90625 1.59375 L 60.90625 60.90625 L 14.09375 60.90625 L 14.09375 1.59375 L 60.90625 1.59375 z"/>
<glyph unicode="&#x0032;" horiz-adv-x="49.99995422363281" d="M 44.90625 17.40625 L 44.90625 17.40625 L 42.09375 0 L 5 0 Q 5 2.5 5.59375 3.203125 L 6.09375 3.703125 L 25.296875 25.09375 Q 35.796875 36.90625 35.796875 47.203125 Q 35.796875 56.09375 30.40625 60.703125 L 30.296875 60.796875 L 30.203125 60.796875 Q 27 63.5 22.40625 63.5 Q 15.203125 63.5 10.90625 57.296875 Q 9.703125 55.5 8.90625 53.296875 Q 9.203125 53.40625 10.203125 53.40625 Q 14.203125 53.40625 15.296875 49.796875 L 15.296875 49.703125 Q 15.5 49 15.5 48.203125 Q 15.5 44.203125 11.703125 43.09375 Q 10.90625 42.90625 10.296875 42.90625 Q 6.59375 42.90625 5.40625 46 Q 5 47.09375 5 48.5 Q 5 56.203125 10.90625 61.703125 Q 16.203125 66.59375 23.703125 66.59375 Q 34.703125 66.59375 40.796875 59.203125 Q 44.296875 54.90625 44.796875 49 Q 44.90625 48.09375 44.90625 47.203125 Q 44.90625 39.90625 39.40625 33.296875 Q 36.5 29.90625 30.40625 24.296875 L 24.296875 18.90625 L 23.296875 18 L 12.703125 7.703125 L 30.703125 7.703125 Q 39.5 7.703125 40.203125 8.5 Q 41.203125 9.90625 42.40625 17.40625 L 44.90625 17.40625 z"/>
<glyph unicode="&#x0031;" horiz-adv-x="49.99995422363281" d="M 29.40625 64 L 29.40625 7.90625 Q 29.40625 4.90625 30.59375 4.09375 Q 32.296875 3.09375 38.703125 3.09375 L 41.90625 3.09375 L 41.90625 0 Q 38.40625 0.296875 25.703125 0.296875 Q 13 0.296875 9.5 0 L 9.5 3.09375 L 12.703125 3.09375 Q 20.40625 3.09375 21.5 4.90625 L 21.59375 5 Q 22 5.796875 22 7.90625 L 22 59.703125 Q 16.796875 57.09375 8.90625 57.09375 L 8.90625 60.203125 Q 20.90625 60.203125 27.09375 66.59375 Q 29 66.59375 29.296875 65.90625 L 29.296875 65.90625 L 29.296875 65.796875 Q 29.40625 65.5 29.40625 64 z"/>
<glyph unicode="&#x003d;" horiz-adv-x="77.69992065429688" d="M 68.703125 32.703125 L 9 32.703125 Q 5.796875 32.703125 5.59375 34.703125 Q 5.59375 36.703125 8.90625 36.703125 L 68.796875 36.703125 Q 72 36.703125 72.09375 34.703125 Q 72.09375 32.703125 68.703125 32.703125 z M 68.796875 13.296875 L 8.90625 13.296875 Q 5.703125 13.296875 5.59375 15.296875 Q 5.59375 17.296875 9 17.296875 L 68.703125 17.296875 Q 71.90625 17.296875 72.09375 15.296875 Q 72.09375 13.296875 68.796875 13.296875 z"/>
<glyph unicode="&#x0030;" horiz-adv-x="49.99995422363281" d="M 46 32 Q 46 17.40625 42.296875 9.40625 Q 36.40625 -1.796875 24.90625 -2.203125 Q 15.796875 -2.203125 10.296875 5 Q 9.203125 6.296875 8.40625 7.90625 Q 3.90625 16.203125 3.90625 32 Q 3.90625 46.703125 7.59375 54.703125 Q 12.59375 65.90625 23.796875 66.59375 L 25 66.59375 Q 33.90625 66.59375 39.5 59.5 L 39.5 59.40625 Q 40.90625 57.59375 42 55.40625 Q 46 46.90625 46 32 z M 24.90625 0 L 24.90625 0 Q 31.203125 0 34.59375 6.09375 Q 36 8.796875 36.59375 12.5 Q 37.703125 18.90625 37.703125 33.203125 Q 37.703125 47.09375 36.703125 52.703125 Q 34.90625 62.203125 27.5 64.09375 Q 26.203125 64.40625 24.90625 64.40625 Q 17.90625 64.40625 14.703125 57.40625 Q 13.59375 55 13 51.59375 Q 12.203125 46.203125 12.203125 33.203125 Q 12.203125 18.09375 13.296875 12.09375 Q 15.09375 2.5 22.09375 0.40625 Q 23.5 0 24.90625 0 z"/>
</font>
<font id="Jlm_cmmi10">
<font-face font-family="Jlm_cmmi10" font-weight="normal" font-style="normal" font-size="100" units-per-em="100" ascent="79.99992" desscent="19.99998" />
<missing-glyph horiz-adv-x="74.99992370605469"  d="M 12.5 0 L 12.5 62.5 L 62.5 62.5 L 62.5 0 L 12.5 0 z M 60.90625 1.59375 L 60.90625 60.90625 L 14.09375 60.90625 L 14.09375 1.59375 L 60.90625 1.59375 z"/>
<glyph unicode="&#x0075;" horiz-adv-x="57.199951171875" d="M 35 5.59375 L 35 5.59375 Q 29.796875 -1.09375 23.09375 -1.09375 Q 15 -1.09375 12.09375 4.796875 Q 10.796875 7.40625 10.796875 10.90625 Q 10.796875 16.296875 16.09375 30.5 Q 16.296875 31.203125 16.59375 31.90625 Q 18.296875 36.203125 18.296875 38.703125 Q 18.296875 42 15.796875 42 Q 10.203125 42 6.703125 32.5 Q 6.59375 32.5 6.59375 32.40625 L 6.59375 32.296875 Q 6.09375 31 5.703125 29.59375 Q 4.59375 27.90625 4.09375 27.796875 Q 2.90625 27.796875 2.90625 28.796875 Q 2.90625 30.59375 5 35.09375 Q 9.40625 44.203125 16.09375 44.203125 Q 21.40625 44.203125 23.5 39.703125 Q 24.296875 38 24.296875 36 Q 24.296875 34 22.59375 29.703125 Q 17.203125 15.40625 17.203125 9.296875 Q 17.203125 1.09375 23.40625 1.09375 Q 29.703125 1.09375 34 8 Q 34.59375 8.90625 34.796875 9.5 Q 37 19.40625 42.296875 39.59375 Q 43.09375 43.09375 46.203125 43.09375 Q 48.703125 42.59375 49.09375 40.40625 Q 49.09375 40.59375 47.59375 33.703125 Q 46.203125 28.59375 45.90625 26.90625 L 43.09375 16.09375 Q 41.09375 7.40625 41.09375 5.703125 Q 41.09375 1.09375 44.203125 1.09375 Q 48.40625 1.09375 51.09375 11.09375 Q 51.40625 12.09375 51.703125 13.5 Q 52.5 15.203125 53.09375 15.296875 Q 54.296875 15.296875 54.296875 14.296875 Q 54.296875 12.796875 52.5 7.296875 Q 51.90625 5.59375 51.296875 4.40625 Q 48.59375 -1.09375 43.90625 -1.09375 Q 38.203125 -1.09375 35.796875 3.703125 Q 35.296875 4.59375 35 5.59375 z"/>
<glyph unicode="&#x003e;" horiz-adv-x="77.69992065429688" d="M 67.5 22.796875 L 12.09375 -3.296875 Q 10.796875 -4 10.296875 -4 Q 8.703125 -4 8.40625 -2.5 Q 8.296875 -2.203125 8.296875 -2 Q 8.296875 -0.796875 10.203125 0.203125 L 62.703125 25 L 10.203125 49.796875 Q 8.296875 50.796875 8.296875 52 Q 8.296875 53.59375 9.796875 53.90625 Q 10.09375 54 10.296875 54 Q 10.796875 54 12.09375 53.296875 L 67.5 27.203125 Q 69.40625 26.296875 69.40625 25 Q 69.40625 23.703125 67.5 22.796875 z"/>
<glyph unicode="&#x003c;" horiz-adv-x="77.69992065429688" d="M 67.5 49.796875 L 15 25 L 67.5 0.203125 Q 69.40625 -0.796875 69.40625 -2 Q 69.40625 -3.59375 67.90625 -3.90625 Q 67.59375 -4 67.40625 -4 Q 66.90625 -4 65.59375 -3.296875 L 10.203125 22.796875 Q 8.296875 23.703125 8.296875 25 Q 8.296875 26.296875 10.203125 27.203125 L 65.59375 53.296875 Q 66.90625 54 67.40625 54 Q 69 54 69.296875 52.5 Q 69.40625 52.203125 69.40625 52 Q 69.40625 50.796875 67.5 49.796875 z"/>
<glyph unicode="&#x0079;" horiz-adv-x="48.99995422363281" d="M 48.59375 38.09375 L 39 -0.09375 Q 36.59375 -9.90625 28.296875 -16 Q 22.203125 -20.5 15.59375 -20.5 Q 8.90625 -20.5 6.09375 -15.90625 Q 5 -14 5 -11.796875 Q 5 -6.703125 9.09375 -5.5 Q 9.90625 -5.296875 10.59375 -5.296875 Q 13.796875 -5.296875 14.203125 -8.09375 Q 14.296875 -8.40625 14.296875 -8.796875 Q 14.296875 -11.09375 12.296875 -12.90625 Q 10.90625 -14.09375 8 -14.09375 Q 9.796875 -18.296875 15.59375 -18.296875 Q 21.796875 -18.296875 26.59375 -12 Q 30.5 -6.796875 32.796875 2.09375 Q 32.90625 2.5 33.09375 3.40625 Q 28.59375 -1.09375 23 -1.09375 Q 15 -1.09375 12.09375 4.796875 Q 10.796875 7.40625 10.796875 10.796875 Q 10.796875 16.296875 16.09375 30.5 Q 16.296875 31.09375 16.59375 31.796875 Q 18.296875 36.40625 18.296875 38.796875 Q 18.296875 42 15.796875 42 Q 10.296875 42 6.796875 32.90625 L 6.796875 32.796875 Q 6.203125 31.296875 5.703125 29.59375 Q 4.59375 27.90625 4.09375 27.796875 Q 2.90625 27.796875 2.90625 28.796875 Q 2.90625 30.59375 5 35.09375 Q 9.40625 44.203125 16.09375 44.203125 Q 21.40625 44.203125 23.5 39.703125 Q 24.296875 38 24.296875 36 Q 24.296875 33.90625 22.296875 28.796875 Q 17.203125 15.59375 17.203125 9.203125 Q 17.203125 1.09375 23.40625 1.09375 Q 29.203125 1.09375 33.5 7.296875 Q 34.5 8.796875 34.703125 9.59375 L 39.203125 27.59375 Q 39.90625 30.90625 41.203125 35.59375 Q 42.203125 39.90625 42.59375 41 Q 43.90625 43.09375 46.09375 43.09375 Q 48.59375 42.59375 49 40.40625 Q 49 39.5 48.59375 38.09375 z"/>
<glyph unicode="&#x0078;" horiz-adv-x="57.099945068359375" d="M 33.40625 30.203125 L 30 16.5 Q 28.296875 9.703125 28.296875 7.703125 Q 28.296875 2.5 32 1.40625 Q 32.796875 1.09375 33.796875 1.09375 Q 38.796875 1.09375 42.90625 6.09375 Q 45.59375 9.296875 47.09375 14.203125 Q 47.40625 15.296875 48.40625 15.296875 Q 49.59375 15.296875 49.59375 14.296875 Q 49.59375 11.796875 46.5 7.09375 Q 41.09375 -1.09375 33.59375 -1.09375 Q 26.796875 -1.09375 23.703125 4.59375 Q 23.09375 5.5 22.796875 6.5 Q 20.40625 1.703125 16.203125 -0.203125 Q 14.296875 -1.09375 12.296875 -1.09375 Q 6.296875 -1.09375 3.90625 2.40625 Q 2.90625 3.703125 2.90625 5.5 Q 2.90625 9.203125 6.09375 10.703125 Q 7.203125 11.296875 8.40625 11.296875 Q 11.40625 11.296875 12 8.796875 Q 12.09375 8.296875 12.09375 7.796875 Q 12.09375 4.40625 8.703125 2.796875 Q 8.09375 2.5 7.40625 2.40625 Q 9.5 1.09375 12.40625 1.09375 Q 17.703125 1.09375 20.796875 8.203125 Q 21.40625 9.703125 21.90625 11.5 Q 27.296875 31.90625 27.296875 35.296875 Q 26.703125 41.5 21.90625 42 Q 16.703125 42 12.40625 36.703125 L 12.40625 36.59375 Q 12.40625 36.5 12.296875 36.5 Q 10.796875 34.5 9.59375 31.90625 Q 9.09375 30.703125 8.703125 29.5 L 8.5 28.90625 Q 8.296875 27.796875 7.203125 27.796875 Q 6 27.796875 6 28.796875 Q 6 31.296875 9.203125 36 Q 14.59375 44.203125 22.09375 44.203125 Q 29.796875 44.203125 32.90625 36.59375 Q 36.09375 42.796875 41.40625 44 Q 42.40625 44.203125 43.40625 44.203125 Q 49.296875 44.203125 51.703125 40.90625 Q 52.703125 39.5 52.703125 37.59375 Q 52.703125 33.5 49 32.09375 Q 48.09375 31.796875 47.296875 31.796875 Q 44.203125 31.796875 43.59375 34.5 Q 43.5 34.90625 43.5 35.296875 Q 43.5 38.296875 46.40625 40 Q 47.296875 40.5 48.296875 40.703125 Q 46.203125 42 43.296875 42 Q 36.5 42 33.703125 31.40625 Q 33.5 30.796875 33.40625 30.203125 z"/>
<glyph unicode="&#x0076;" horiz-adv-x="48.39994812011719" d="M 46.796875 37.203125 Q 46.796875 31.703125 43.796875 21.796875 Q 38 2.40625 27.703125 -0.59375 Q 26.09375 -1.09375 24.296875 -1.09375 Q 15.203125 -1.09375 12.203125 5.203125 Q 10.90625 7.796875 10.90625 11.296875 Q 10.90625 16.5 15.5 28.90625 L 16.59375 31.796875 Q 18.296875 36.203125 18.296875 38.796875 Q 18.296875 42 15.796875 42 Q 10.40625 42 6.90625 33.09375 Q 6.203125 31.5 5.703125 29.59375 Q 4.59375 27.90625 4.09375 27.796875 Q 2.90625 27.796875 2.90625 28.796875 Q 2.90625 30.59375 5.09375 35.09375 Q 9.40625 44.203125 16.09375 44.203125 Q 21.40625 44.203125 23.5 39.703125 Q 24.296875 38 24.296875 36 Q 24.296875 33.90625 23.09375 31 Q 17.703125 16.59375 17.296875 11.09375 L 17.296875 9.796875 Q 17.296875 1.796875 23.703125 1.09375 L 24.703125 1.09375 Q 32.796875 1.09375 38.703125 14.703125 Q 42.203125 22.703125 42.5 28.203125 Q 42.5 33.203125 39.09375 36.40625 Q 37.5 38 37.5 39.40625 Q 37.5 41.90625 40.09375 43.5 Q 41.203125 44.203125 42.40625 44.203125 Q 45.296875 44.203125 46.40625 40.5 Q 46.796875 39.09375 46.796875 37.203125 z"/>
</font>

</defs> <!-- font definitions -->
</g> <!-- default stroke -->
</svg> <!-- bounding box -->
